Division,WeightClassKg,Place,Name,Team,BodyweightKg,Best3SquatKg,Best3BenchKg,Best3DeadliftKg,TotalKg,Equipment,Event,Sex
Boys,51.71,1,Miguel Gallegos,Dublin,51.44,102.06,63.5,133.81,299.37,Single-ply,SBD,M
Boys,51.71,2,John Sotelo,Stephenville,48.08,111.13,61.23,122.47,294.84,Single-ply,SBD,M
Boys,51.71,3,Ryan Holton,Godley,51.71,99.79,54.43,111.13,265.35,Single-ply,SBD,M
Boys,51.71,4,Yancy Perkins,Comanche,50.53,90.72,47.63,111.13,249.48,Single-ply,SBD,M
Boys,51.71,5,Jason Rainbolt,Hamilton,50.89,77.11,54.43,108.86,240.4,Single-ply,SBD,M
Boys,51.71,DQ,Memphis Bays,Lingleville,50.98,,,,,Single-ply,SBD,M
Boys,51.71,DQ,Mike Lindeque,Sidney,50.71,,,,,Single-ply,SBD,M
Boys,55.79,1,Ricky Lopez,Dublin,54.79,131.54,81.65,149.69,362.87,Single-ply,SBD,M
Boys,55.79,2,Bryce Leatherwood,Dublin,52.53,115.67,70.31,129.27,315.25,Single-ply,SBD,M
Boys,55.79,3,Elijah Dyer,Early,55.79,104.33,77.11,133.81,315.25,Single-ply,SBD,M
Boys,55.79,4,Arnoldo Moreno,Dublin,53.98,111.13,49.9,136.08,297.1,Single-ply,SBD,M
Boys,55.79,5,Lawson Nairn,Millsap,55.16,95.25,45.36,97.52,238.14,Single-ply,SBD,M
Boys,59.87,1,Cale Wade,Early,59.69,192.78,124.74,154.22,471.74,Single-ply,SBD,M
Boys,59.87,2,Hunter Burton,Millsap,59.06,170.1,92.99,154.22,417.3,Single-ply,SBD,M
Boys,59.87,3,Aaron Suniga,Comanche,59.87,145.15,77.11,147.42,369.68,Single-ply,SBD,M
Boys,59.87,4,Jordan Scheriger,Sidney,57.42,127.01,56.7,151.95,335.66,Single-ply,SBD,M
Boys,59.87,5,Juan Hernández,Comanche,57.06,124.74,74.84,131.54,331.12,Single-ply,SBD,M
Boys,59.87,6,Marco Leos,Comanche,58.06,120.2,61.23,131.54,312.98,Single-ply,SBD,M
Boys,67.13,1,Stephen Fritz,Lingleville,65.32,197.31,122.47,172.37,492.15,Single-ply,SBD,M
Boys,67.13,2,Dane Dorris,Azle,67.13,192.78,113.4,183.7,489.88,Single-ply,SBD,M
Boys,67.13,3,Cesar Galvan,Dublin,62.41,176.9,102.06,195.04,474,Single-ply,SBD,M
Boys,67.13,4,Anthony Seider,Lometa,66.95,163.29,92.99,192.78,449.06,Single-ply,SBD,M
Boys,67.13,5,Basey Mitchell,Millsap,67.04,174.63,83.91,179.17,437.72,Single-ply,SBD,M
Boys,67.13,6,Clayton Schmucker,Dublin,66.86,151.95,102.06,174.63,428.64,Single-ply,SBD,M
Boys,67.13,7,Luis Perez,Hamilton,60.24,158.76,74.84,167.83,401.43,Single-ply,SBD,M
Boys,67.13,8,Myles Semas,Brock,64.59,156.49,77.11,147.42,381.02,Single-ply,SBD,M
Boys,67.13,9,Alex Thiele,Hamilton,64.68,136.08,70.31,145.15,351.53,Single-ply,SBD,M
Boys,67.13,10,Baylor Burkett,Millsap,66.59,124.74,77.11,147.42,349.27,Single-ply,SBD,M
Boys,67.13,11,Donnie Smart,Lometa,64.23,102.06,68.04,124.74,294.84,Single-ply,SBD,M
Boys,67.13,12,Dakota Pogue,Blanket,60.6,83.91,68.04,124.74,276.69,Single-ply,SBD,M
Boys,67.13,13,Matthew Jarrell,Hamilton,63.59,77.11,68.04,111.13,256.28,Single-ply,SBD,M
Boys,67.13,14,Brayden Weathers,Millsap,61.6,90.72,52.16,104.33,247.21,Single-ply,SBD,M
Boys,67.13,DQ,Dj Smart,Lometa,65.86,104.33,,,,Single-ply,SBD,M
Boys,74.84,1,Stuart Cortez,Hamilton,74.66,181.44,129.27,199.58,510.29,Single-ply,SBD,M
Boys,74.84,2,Manuel DeLeon,Dublin,72.67,197.31,102.06,181.44,480.81,Single-ply,SBD,M
Boys,74.84,3,Zach Foster,Comanche,74.12,185.97,102.06,188.24,476.27,Single-ply,SBD,M
Boys,74.84,4,Jason Arellano,Azle,74.21,176.9,106.59,167.83,451.32,Single-ply,SBD,M
Boys,74.84,5,Juble Stevens,Millsap,74.39,179.17,74.84,185.97,439.98,Single-ply,SBD,M
Boys,74.84,6,Auston McBroom,Millsap,74.57,163.29,90.72,183.7,437.72,Single-ply,SBD,M
Boys,74.84,7,Taylor Patton,Dublin,74.66,154.22,95.25,167.83,417.3,Single-ply,SBD,M
Boys,74.84,8,Isaiah Perez,Brock,69.67,122.47,95.25,158.76,376.48,Single-ply,SBD,M
Boys,74.84,9,Cory Scantling,Sidney,67.31,136.08,81.65,156.49,374.21,Single-ply,SBD,M
Boys,74.84,10,CJ Ruggles,Comanche,73.75,129.27,68.04,154.22,351.53,Single-ply,SBD,M
Boys,74.84,11,Brodee Pack,Stephenville,73.03,124.74,70.31,154.22,349.27,Single-ply,SBD,M
Boys,74.84,12,CJ Navarro,Millsap,74.84,131.54,77.11,136.08,344.73,Single-ply,SBD,M
Boys,74.84,13,Logan Connell,Axtell,71.85,124.74,58.97,124.74,308.44,Single-ply,SBD,M
Boys,74.84,14,Ruben Reyes,Stephenville,73.48,,106.59,170.1,276.69,Single-ply,BD,M
Boys,74.84,DQ,Ethan LeGrande,Hamilton,74.48,174.63,92.99,,,Single-ply,SBD,M
Boys,74.84,DQ,Billy Gann,Axtell,67.31,,,,,Single-ply,BD,M
Boys,82.1,1,Kade Mercer,Comanche,82.1,210.92,151.95,208.65,571.53,Single-ply,SBD,M
Boys,82.1,2,Cristian Vazquez,Dublin,79.02,204.12,113.4,210.92,528.44,Single-ply,SBD,M
Boys,82.1,3,Blaize Leatherwood,Dublin,81.56,188.24,108.86,217.72,514.83,Single-ply,SBD,M
Boys,82.1,4,Javin Hebert,Godley,81.19,204.12,106.59,199.58,510.29,Single-ply,SBD,M
Boys,82.1,5,Colby Henry,Lometa,75.57,181.44,131.54,185.97,498.95,Single-ply,SBD,M
Boys,82.1,6,Kason Phillips,Stephenville,79.38,181.44,117.93,190.51,489.88,Single-ply,SBD,M
Boys,82.1,7,Nate Robinson,Azle,79.92,161.03,102.06,181.44,444.52,Single-ply,SBD,M
Boys,82.1,8,Steve Davis,Comanche,76.29,158.76,106.59,170.1,435.45,Single-ply,SBD,M
Boys,82.1,9,Trevor Herron,Brock,81.28,154.22,111.13,163.29,428.64,Single-ply,SBD,M
Boys,82.1,10,Alex DeLeon,Stephenville,80.29,142.88,90.72,156.49,390.09,Single-ply,SBD,M
Boys,82.1,11,Tyler Weimer,Brock,78.29,136.08,97.52,147.42,381.02,Single-ply,SBD,M
Boys,82.1,12,Mathew Wilke,Brock,80.1,158.76,81.65,127.01,367.41,Single-ply,SBD,M
Boys,82.1,13,Waylon Dunn,Millsap,81.65,129.27,77.11,142.88,349.27,Single-ply,SBD,M
Boys,82.1,DQ,Noah Cochran,Stephenville,82.1,129.27,,,,Single-ply,SBD,M
Boys,89.81,1,Erik Fisk,Godley,89.72,285.76,142.88,229.06,657.71,Single-ply,SBD,M
Boys,89.81,2,Jacob Winter,Lingleville,85.82,240.4,142.88,224.53,607.81,Single-ply,SBD,M
Boys,89.81,3,Issac De La Cruz,Stephenville,89.81,229.06,136.08,215.46,580.6,Single-ply,SBD,M
Boys,89.81,4,Tyler Bell,Dublin,89.18,183.7,142.88,204.12,530.7,Single-ply,SBD,M
Boys,89.81,5,Johnny Jurado,Dublin,85.64,210.92,113.4,204.12,528.44,Single-ply,SBD,M
Boys,89.81,6,Tristan Cummings,Brock,88.9,208.65,145.15,170.1,523.9,Single-ply,SBD,M
Boys,89.81,7,Braegen Berry,Tolar,83.19,199.58,115.67,183.7,498.95,Single-ply,SBD,M
Boys,89.81,8,Logan Strawbridge,Azle,83.1,165.56,104.33,185.97,455.86,Single-ply,SBD,M
Boys,89.81,9,Gabrian Juarez,Stephenville,86.18,167.83,102.06,179.17,449.06,Single-ply,SBD,M
Boys,89.81,10,Aldo Calvillo,Millsap,85.37,183.7,83.91,151.95,419.57,Single-ply,SBD,M
Boys,89.81,11,Miguel Leos,Comanche,85.82,158.76,90.72,165.56,415.04,Single-ply,SBD,M
Boys,89.81,12,Zachary Chavarria,Stephenville,89.81,151.95,81.65,142.88,376.48,Single-ply,SBD,M
Boys,89.81,13,Caden Holland,Sidney,85.82,142.88,79.38,117.93,340.19,Single-ply,SBD,M
Boys,89.81,14,Ryan Block,Godley,86.18,124.74,63.5,111.13,299.37,Single-ply,SBD,M
Boys,89.81,DQ,Luis Marquez,Olney,87.36,195.04,104.33,,,Single-ply,SBD,M
Boys,99.79,1,Ricky Firman,Azle,94.35,210.92,113.4,231.33,555.65,Single-ply,SBD,M
Boys,99.79,2,Caleb Smith,Stephenville,92.53,192.78,122.47,199.58,514.83,Single-ply,SBD,M
Boys,99.79,3,Cody Miser,Godley,98.34,174.63,104.33,199.58,478.54,Single-ply,SBD,M
Boys,99.79,4,Adrian Cervantez,Stephenville,95.71,174.63,106.59,183.7,464.93,Single-ply,SBD,M
Boys,99.79,5,Tanner Isom,Blanket,97.16,161.03,111.13,181.44,453.59,Single-ply,SBD,M
Boys,99.79,6,Koby Mendez,Azle,96.34,172.37,113.4,154.22,439.98,Single-ply,SBD,M
Boys,99.79,DQ,Mario Morales,Blanket,93.89,,,,,Single-ply,SBD,M
Boys,99.79,DQ,Jack Northridge,Comanche,98.43,265.35,,,,Single-ply,SBD,M
Boys,109.77,1,Kendel Beck,Comanche,108.23,294.84,197.31,278.96,771.11,Single-ply,SBD,M
Boys,109.77,2,Max Stava,Brock,105.6,226.8,154.22,226.8,607.81,Single-ply,SBD,M
Boys,109.77,3,Daniel Aguilar,Millsap,107.68,244.94,122.47,204.12,571.53,Single-ply,SBD,M
Boys,109.77,4,Arturo Guerrero,Millsap,107.14,226.8,117.93,192.78,537.51,Single-ply,SBD,M
Boys,109.77,5,Ethen Portillo,Early,107.32,204.12,113.4,204.12,521.63,Single-ply,SBD,M
Boys,109.77,6,Zack Shivers,Brock,107.41,190.51,117.93,170.1,478.54,Single-ply,SBD,M
Boys,109.77,7,Riley Norton,Azle,105.78,174.63,113.4,188.24,476.27,Single-ply,SBD,M
Boys,109.77,8,Damien Snell,Millsap,105.78,156.49,95.25,181.44,433.18,Single-ply,SBD,M
Boys,109.77,DQ,Astin Carr,Hamilton,108.77,226.8,,,,Single-ply,SBD,M
Boys,124.74,1,Jared Ricks,Dublin,110.31,233.6,165.56,238.14,637.3,Single-ply,SBD,M
Boys,124.74,2,Alex Kinzer,Brock,112.31,226.8,136.08,226.8,589.67,Single-ply,SBD,M
Boys,124.74,3,Alan Watson,Axtell,124.01,190.51,124.74,199.58,514.83,Single-ply,SBD,M
Boys,124.74,4,Adrian Montono,Stephenville,117.93,199.58,106.59,176.9,483.08,Single-ply,SBD,M
Boys,124.74,5,Logan Davis,Stephenville,118.84,179.17,104.33,195.04,478.54,Single-ply,SBD,M
Boys,124.74,6,Julian Ortuno,Lingleville,111.77,210.92,115.67,149.69,476.27,Single-ply,SBD,M
Boys,124.74,7,Ethan Zuniga,Azle,114.76,188.24,108.86,174.63,471.74,Single-ply,SBD,M
Boys,124.74,8,Hayden Nimmo,Stephenville,117.03,151.95,88.45,172.37,412.77,Single-ply,SBD,M
Boys,124.74+,1,Stran Burrow,Dublin,129.46,208.65,147.42,226.8,582.87,Single-ply,SBD,M
Boys,124.74+,2,Stephen Locklear,Dublin,126.1,210.92,147.42,213.19,571.53,Single-ply,SBD,M
Boys,124.74+,3,Gavin Sharp,Stephenville,145.15,149.69,102.06,161.03,412.77,Single-ply,SBD,M
