Division,WeightClassKg,Place,Name,Team,BodyweightKg,Best3SquatKg,Best3BenchKg,Best3DeadliftKg,TotalKg,Equipment,Event,Sex
Boys,51.71,1,Jagger Onstott,Tyler Lee,49.26,92.99,56.7,97.52,247.21,Single-ply,SBD,M
Boys,51.71,2,Devon Thompson,Gladewater Sabine,50.8,86.18,49.9,106.59,242.67,Single-ply,SBD,M
Boys,51.71,3,Roberto Villegas,Jacksonville,44.18,74.84,47.63,92.99,215.46,Single-ply,SBD,M
Boys,51.71,4,Brayden Baver,Jacksonville,49.9,74.84,47.63,74.84,197.31,Single-ply,SBD,M
Boys,55.79,1,Bryce Ivey,Malakoff,55.34,111.13,56.7,124.74,292.57,Single-ply,SBD,M
Boys,55.79,2,Turner Chandler,Jacksonville,54.98,95.25,47.63,97.52,240.4,Single-ply,SBD,M
Boys,55.79,DQ,Jonathan Hernandez,Malakoff,54.34,,,,,Single-ply,SBD,M
Boys,67.13,1,Bryce Wilkerson,Tyler Lee,64.41,219.99,102.06,179.17,501.22,Single-ply,SBD,M
Boys,67.13,2,Cameron Watson,Tyler Lee,66.22,156.49,83.91,174.63,415.04,Single-ply,SBD,M
Boys,67.13,3,Alejandro Mireles,Jacksonville,66.04,90.72,63.5,117.93,272.16,Single-ply,SBD,M
Boys,67.13,4,Noah Sayon,Gladewater Sabine,64.05,97.52,54.43,113.4,265.35,Single-ply,SBD,M
Boys,74.84,1,Deandre Allen,Tyler Lee,70.76,213.19,102.06,208.65,523.9,Single-ply,SBD,M
Boys,74.84,2,Caleb Edney,Gladewater Sabine,74.84,172.37,106.59,174.63,453.59,Single-ply,SBD,M
Boys,74.84,3,Deverick Tatum,Jacksonville,70.67,147.42,83.91,192.78,424.11,Single-ply,SBD,M
Boys,74.84,4,Hudson Hill,Tyler Lee,73.48,151.95,83.91,174.63,410.5,Single-ply,SBD,M
Boys,74.84,5,Braden Horn,Jacksonville,71.76,124.74,74.84,158.76,358.34,Single-ply,SBD,M
Boys,74.84,6,Duernell Reid,Tyler Lee,70.31,133.81,70.31,151.95,356.07,Single-ply,SBD,M
Boys,74.84,7,Robbie Beall,Jacksonville,70.31,102.06,72.57,115.67,290.3,Single-ply,SBD,M
Boys,82.1,1,Desmond Dunn,Tyler Lee,78.93,181.44,108.86,195.04,485.34,Single-ply,SBD,M
Boys,82.1,2,Omar Gonzalez,Malakoff,78.02,172.37,86.18,195.04,453.59,Single-ply,SBD,M
Boys,82.1,3,Breman Watkins,Gladewater Sabine,78.65,151.95,86.18,151.95,390.09,Single-ply,SBD,M
Boys,82.1,4,Heriberto Luna,Jacksonville,79.83,149.69,92.99,142.88,385.55,Single-ply,SBD,M
Boys,82.1,5,Braylon Cable,Malakoff,79.38,163.29,,188.24,351.53,Single-ply,SD,M
Boys,82.1,6,Josh Bice,Tyler Lee,77.56,185.97,88.45,,274.42,Single-ply,SB,M
Boys,89.81,1,Grant Stansberry,Gladewater Sabine,89.27,204.12,117.93,199.58,521.63,Single-ply,SBD,M
Boys,89.81,2,Jordon McGowen,Tyler Lee,87.82,165.56,95.25,185.97,446.79,Single-ply,SBD,M
Boys,89.81,3,Patrick Tave,Tyler Lee,88,151.95,92.99,170.1,415.04,Single-ply,SBD,M
Boys,89.81,4,Parker Musslewhite,Tyler Lee,86.18,158.76,83.91,170.1,412.77,Single-ply,SBD,M
Boys,99.79,5,Flavio Hernandez,Jacksonville,89.99,142.88,,,142.88,Single-ply,S,M
Boys,99.79,1,Trey Watson,Tyler Lee,99.25,208.65,108.86,215.46,532.97,Single-ply,SBD,M
Boys,99.79,2,Brandon Durman,Tyler Lee,96.25,183.7,108.86,206.38,498.95,Single-ply,SBD,M
Boys,99.79,3,Josh Ross,Tyler Lee,98.61,170.1,97.52,192.78,460.4,Single-ply,SBD,M
Boys,99.79,4,Deandre Henderson,Tyler Lee,96.62,174.63,102.06,179.17,455.86,Single-ply,SBD,M
Boys,99.79,5,Laurence TY,Tyler Lee,93.71,183.7,102.06,158.76,444.52,Single-ply,SBD,M
Boys,99.79,6,Bo Bates,Gladewater Sabine,95.98,172.37,90.72,174.63,437.72,Single-ply,SBD,M
Boys,99.79,7,James Perales,Tyler Lee,91.81,151.95,104.33,176.9,433.18,Single-ply,SBD,M
Boys,99.79,8,Henry Hernandez,Jacksonville,96.43,174.63,86.18,172.37,433.18,Single-ply,SBD,M
Boys,99.79,9,Justin Crowe,Jacksonville,99.79,158.76,90.72,183.7,433.18,Single-ply,SBD,M
Boys,109.77,10,Santos Perez,Tyler Lee,99.97,156.49,79.38,151.95,387.82,Single-ply,SBD,M
Boys,99.79,11,Tyler Nixon,Gladewater Sabine,94.8,122.47,99.79,136.08,358.34,Single-ply,SBD,M
Boys,109.77,1,Nelson Ochoa,Malakoff,109.77,222.26,131.54,204.12,557.92,Single-ply,SBD,M
Boys,109.77,2,Brandon Gann,Gladewater Sabine,100.7,208.65,129.27,210.92,548.85,Single-ply,SBD,M
Boys,109.77,3,Xavion Gardener,Tyler Lee,102.06,188.24,97.52,192.78,478.54,Single-ply,SBD,M
Boys,109.77,4,Josh Whitworth,Gladewater Sabine,103.42,127.01,68.04,131.54,326.59,Single-ply,SBD,M
Boys,109.77,DQ,James Barron,Tyler Lee,109.77,,,,,Single-ply,SBD,M
Boys,124.74,1,Jerry Villela,Tyler Lee,113.58,247.21,136.08,229.06,612.35,Single-ply,SBD,M
Boys,124.74,2,Cory Green,Tyler Lee,113.85,249.48,120.2,219.99,589.67,Single-ply,SBD,M
Boys,124.74,3,Diego Medina,Malakoff,112.49,226.8,122.47,208.65,557.92,Single-ply,SBD,M
Boys,124.74,4,Rashard McGee,Tyler Lee,117.93,201.85,83.91,188.24,474,Single-ply,SBD,M
Boys,124.74,5,Clayton Breckel,Tyler Lee,113.67,188.24,102.06,170.1,460.4,Single-ply,SBD,M
Boys,124.74,6,Devon Morgan,Tyler Lee,112.04,170.1,90.72,174.63,435.45,Single-ply,SBD,M
Boys,124.74,7,Tucker Tanner,Gladewater Sabine,117.03,142.88,108.86,122.47,374.21,Single-ply,SBD,M
Boys,124.74+,1,Thomas Acol,Malakoff,151.05,249.48,133.81,238.14,621.42,Single-ply,SBD,M
Boys,124.74+,2,Devon Pinkerton,Tyler Lee,125.19,229.06,97.52,208.65,535.24,Single-ply,SBD,M
Boys,124.74+,3,Jordan Jones,Tyler Lee,143.06,190.51,86.18,174.63,451.32,Single-ply,SBD,M
