Division,WeightClassKg,Place,Name,Team,BodyweightKg,Best3SquatKg,Best3BenchKg,Best3DeadliftKg,TotalKg,Equipment,Event,Sex
Boys,51.71,1,Oscar Martel,Laredo United South,50.17,167.83,102.06,156.49,426.38,Single-ply,SBD,M
Boys,51.71,2,AJ Perez,Ben Bolt-Palito Blanco,51.71,127.01,90.72,147.42,365.14,Single-ply,SBD,M
Boys,51.71,3,Javier Cantu,San Diego,51.53,106.59,49.9,140.61,297.1,Single-ply,SBD,M
Boys,51.71,DQ,Arnold Pena,Benavides,51.71,,,,,Single-ply,SBD,M
Boys,55.79,1,Danny Ruiz,Zapata,54.7,185.97,90.72,176.9,453.59,Single-ply,SBD,M
Boys,55.79,2,Brandon Canales,Benavides,54.7,154.22,86.18,174.63,415.04,Single-ply,SBD,M
Boys,55.79,3,Lucas Lara,Mathis,54.88,142.88,92.99,172.37,408.23,Single-ply,SBD,M
Boys,55.79,4,Niko Munoz,Falfurrias,55.07,124.74,88.45,154.22,367.41,Single-ply,SBD,M
Boys,55.79,5,Trevor Carmona,Alice,52.25,140.61,63.5,145.15,349.27,Single-ply,SBD,M
Boys,55.79,6,Jacob Martinez,Hebbronville,55.79,108.86,74.84,136.08,319.78,Single-ply,SBD,M
Boys,59.87,1,Anthony Perez,San Diego,59.87,208.65,124.74,219.99,553.38,Single-ply,SBD,M
Boys,59.87,2,Richard Saenz,Hebbronville,59.56,208.65,108.86,204.12,521.63,Single-ply,SBD,M
Boys,59.87,3,Ryan Saenz,Hebbronville,59.87,183.7,88.45,185.97,458.13,Single-ply,SBD,M
Boys,59.87,4,Alejandro Ramirez,Falfurrias,59.51,161.03,90.72,183.7,435.45,Single-ply,SBD,M
Boys,59.87,5,Jose Alcorta,Laredo United South,59.87,156.49,95.25,183.7,435.45,Single-ply,SBD,M
Boys,59.87,6,Tristen Perez,Benavides,57.52,147.42,72.57,151.95,371.95,Single-ply,SBD,M
Boys,59.87,7,Marcus Schuessier,Freer,58.33,136.08,65.77,147.42,349.27,Single-ply,SBD,M
Boys,59.87,8,Antonio Miles,Zapata,58.33,104.33,65.77,136.08,306.17,Single-ply,SBD,M
Boys,59.87,DQ,Andy Saenz,Benavides,59.87,,,,,Single-ply,SBD,M
Boys,67.13,1,Ramiro Gonzalez,Falfurrias,66.32,204.12,111.13,208.65,523.9,Single-ply,SBD,M
Boys,67.13,2,Nathaniel McRae,Hebbronville,67.13,161.03,106.59,208.65,476.27,Single-ply,SBD,M
Boys,67.13,3,Jose Maldonado,Falfurrias,62.6,154.22,111.13,188.24,453.59,Single-ply,SBD,M
Boys,67.13,4,Brandon Carballo,Hebbronville,63.59,167.83,83.91,172.37,424.11,Single-ply,SBD,M
Boys,67.13,5,Damion Diaz,Hebbronville,66.86,140.61,79.38,183.7,403.7,Single-ply,SBD,M
Boys,67.13,6,James Ramirez,Mathis,63.14,145.15,81.65,158.76,385.55,Single-ply,SBD,M
Boys,67.13,7,Cody Prather,Ben Bolt-Palito Blanco,66.13,136.08,70.31,174.63,381.02,Single-ply,SBD,M
Boys,67.13,8,Dale Baez,Hebbronville,67.13,154.22,77.11,149.69,381.02,Single-ply,SBD,M
Boys,67.13,9,Austin Longoria,Taft,66.68,115.67,95.25,147.42,358.34,Single-ply,SBD,M
Boys,67.13,10,Raul Puig,Hebbronville,67.04,131.54,79.38,142.88,353.8,Single-ply,SBD,M
Boys,67.13,11,Jp Pruneda,Ben Bolt-Palito Blanco,66.86,97.52,68.04,111.13,276.69,Single-ply,SBD,M
Boys,67.13,DQ,Aaron Champion,Mathis,65.5,,,,,Single-ply,SBD,M
Boys,74.84,1,Javier Rodriguez,San Diego,74.66,265.35,158.76,219.99,644.1,Single-ply,SBD,M
Boys,74.84,2,Arin Saenz,Freer,73.12,206.38,117.93,192.78,517.1,Single-ply,SBD,M
Boys,74.84,3,Dennis Guajardo,Benavides,74.21,195.04,106.59,183.7,485.34,Single-ply,SBD,M
Boys,74.84,4,Tristian Perez,Ben Bolt-Palito Blanco,74.84,183.7,108.86,181.44,474,Single-ply,SBD,M
Boys,74.84,5,Seth Mesa,Santa Gertrudis Academy,69.49,161.03,115.67,183.7,460.4,Single-ply,SBD,M
Boys,74.84,6,Gustavo Gallardo,Mathis,74.39,183.7,92.99,181.44,458.13,Single-ply,SBD,M
Boys,74.84,7,Enrique Davila,Mathis,74.66,158.76,102.06,181.44,442.25,Single-ply,SBD,M
Boys,74.84,DQ,Isidro Salinas,Mathis,71.67,165.56,106.59,,,Single-ply,SBD,M
Boys,74.84,DQ,Nico Perez,Benavides,70.99,,,,,Single-ply,SBD,M
Boys,82.1,1,Joshua Olivarez,Falfurrias,82.1,229.06,136.08,244.94,610.08,Single-ply,SBD,M
Boys,82.1,2,Oscar Perez,Ben Bolt-Palito Blanco,80.74,217.72,136.08,217.72,571.53,Single-ply,SBD,M
Boys,82.1,3,Ithel Carrillo,Hebbronville,82.1,204.12,136.08,208.65,548.85,Single-ply,SBD,M
Boys,89.81,1,Joseph Jimenez,Laredo United South,89.81,249.48,136.08,231.33,616.89,Single-ply,SBD,M
Boys,89.81,2,Carlos Huerta,Hebbronville,89.63,192.78,104.33,190.51,487.61,Single-ply,SBD,M
Boys,89.81,3,Toby Medina,Mathis,88.18,204.12,102.06,170.1,476.27,Single-ply,SBD,M
Boys,89.81,4,Daniel Ramos,Ben Bolt-Palito Blanco,84.19,176.9,86.18,199.58,462.66,Single-ply,SBD,M
Boys,89.81,5,Rene Garcia,Zapata,89.81,163.29,106.59,154.22,424.11,Single-ply,SBD,M
Boys,89.81,6,Heron Tamez,Falfurrias,89.09,142.88,83.91,158.76,385.55,Single-ply,SBD,M
Boys,89.81,7,Mark Morin,Taft,82.37,102.06,72.57,136.08,310.71,Single-ply,SBD,M
Boys,99.79,1,Karl Gibson II,Mathis,95.98,272.16,161.03,260.82,694,Single-ply,SBD,M
Boys,99.79,2,Elias Cantu,Hebbronville,95.8,199.58,140.61,222.26,562.45,Single-ply,SBD,M
Boys,99.79,3,Ryan Rasburry,Mathis,92.9,179.17,104.33,161.03,444.52,Single-ply,SBD,M
Boys,99.79,4,Michael Esquivel,Taft,95.8,133.81,86.18,136.08,356.07,Single-ply,SBD,M
Boys,99.79,DQ,Franco Arce,Zapata,99.7,,,,,Single-ply,SBD,M
Boys,109.77,1,Michael Salaiz,San Diego,107.23,274.42,147.42,240.4,662.24,Single-ply,SBD,M
Boys,109.77,2,Daniel Vela,Falfurrias,109.59,258.55,133.81,249.48,641.83,Single-ply,SBD,M
Boys,109.77,3,Jose Marquez,Hebbronville,109.77,254.01,142.88,244.94,641.83,Single-ply,SBD,M
Boys,109.77,4,Jonathan Garza,San Diego,102.78,158.76,90.72,163.29,412.77,Single-ply,SBD,M
Boys,109.77,DQ,Michael Almedina,Zapata,106.68,,,,,Single-ply,SBD,M
Boys,109.77,DQ,Leslie Tummons,Taft,102.51,111.13,70.31,,,Single-ply,SBD,M
Boys,124.74,1,Jaime Rosas,Falfurrias,117.93,294.84,149.69,242.67,687.19,Single-ply,SBD,M
Boys,124.74,2,Eric Chapa,Zapata,121.65,265.35,147.42,235.87,648.64,Single-ply,SBD,M
Boys,124.74,3,David Mendez,Taft,123.29,224.53,129.27,215.46,569.26,Single-ply,SBD,M
Boys,124.74,4,Victor Soliz,San Diego,110.22,238.14,117.93,174.63,530.7,Single-ply,SBD,M
Boys,124.74,DQ,Luis Barron,Laredo Johnson,123.38,,,,,Single-ply,SBD,M
Boys,124.74+,1,Jose Salvador,Laredo United South,138.53,276.69,167.83,263.08,707.6,Single-ply,SBD,M
Boys,124.74+,2,George Hughes,San Diego,130.73,235.87,140.61,215.46,591.94,Single-ply,SBD,M
Boys,124.74+,3,Michael Moreno,Zapata,136.53,217.72,174.63,195.04,587.4,Single-ply,SBD,M
Boys,124.74+,4,Ej Carrera,Taft,128,204.12,120.2,204.12,528.44,Single-ply,SBD,M
Boys,124.74+,DQ,Chris Lytle,Benavides,135.81,,,,,Single-ply,SBD,M
Boys,124.74+,DQ,Reynaldo Martinez,Laredo Johnson,129.73,,,,,Single-ply,SBD,M
