Division,WeightClassKg,Place,Name,Team,BodyweightKg,Best3SquatKg,Best3BenchKg,Best3DeadliftKg,TotalKg,Equipment,Event,Sex
Boys,51.71,1,Jerry Lopez,Port Isabel,51.53,174.63,92.99,167.83,435.45,Single-ply,SBD,M
Boys,51.71,2,Brett Butler,Mabank,51.35,170.1,92.99,156.49,419.57,Single-ply,SBD,M
Boys,51.71,3,Dylan Elkins,Needville,50.98,156.49,102.06,149.69,408.23,Single-ply,SBD,M
Boys,51.71,4,Devin Lasenby,Paris North Lamar,50.35,181.44,106.59,113.4,401.43,Single-ply,SBD,M
Boys,51.71,5,Reid Clanton,Midland Greenwood,50.8,138.35,83.91,163.29,385.55,Single-ply,SBD,M
Boys,51.71,6,Jose Rodriguez,Athens,50.71,149.69,90.72,140.61,381.02,Single-ply,SBD,M
Boys,51.71,7,Josh Estrada,Gonzales,51.62,136.08,86.18,151.95,374.21,Single-ply,SBD,M
Boys,51.71,8,Matthew Palmer,Bonham,51.44,133.81,79.38,145.15,358.34,Single-ply,SBD,M
Boys,55.79,9,Miguel Contreras,Robinson,51.89,147.42,70.31,136.08,353.8,Single-ply,SBD,M
Boys,51.71,10,Tucker Stout,Bridge City,50.71,117.93,68.04,140.61,326.59,Single-ply,SBD,M
Boys,55.79,DQ,Jose Garcia,Brownfield,51.8,106.59,86.18,,,Single-ply,SBD,M
Boys,51.71,DQ,Darius Rivera,Princeton,51.53,,,,,Single-ply,SBD,M
Boys,51.71,DQ,Jessie Jarmillo,Smithville,51.71,,,,,Single-ply,SBD,M
Boys,55.79,1,Dillan Brown,Decatur,54.98,208.65,104.33,199.58,512.56,Single-ply,SBD,M
Boys,55.79,2,Josh Lomas,Crystal City,55.43,181.44,113.4,195.04,489.88,Single-ply,SBD,M
Boys,55.79,3,Nolan Newville,Decatur,55.52,181.44,104.33,176.9,462.66,Single-ply,SBD,M
Boys,55.79,4,Devon Harris,North Forney,54.52,158.76,97.52,185.97,442.25,Single-ply,SBD,M
Boys,55.79,5,Ricky Guerra,Poteet,53.89,163.29,104.33,172.37,439.98,Single-ply,SBD,M
Boys,55.79,6,Marcos Mendoza,Salado,55.34,167.83,106.59,165.56,439.98,Single-ply,SBD,M
Boys,55.79,7,Chantz Gibson,Palestine Westwood,54.7,176.9,90.72,167.83,435.45,Single-ply,SBD,M
Boys,55.79,8,Eric Rivas,Seminole,55.43,149.69,97.52,165.56,412.77,Single-ply,SBD,M
Boys,59.87,9,Darius Mallard,Navasota,56.02,147.42,86.18,174.63,408.23,Single-ply,SBD,M
Boys,59.87,10,Brett Salas,Lubbock Cooper,55.88,142.88,74.84,174.63,392.36,Single-ply,SBD,M
Boys,55.79,11,Jance Guynes,Shepherd,54.79,138.35,72.57,142.88,353.8,Single-ply,SBD,M
Boys,55.79,12,Jacob Ryder,Needville,55.79,120.2,81.65,147.42,349.27,Single-ply,SBD,M
Boys,59.87,1,Victor Aguilar,Caldwell,58.06,208.65,131.54,181.44,521.63,Single-ply,SBD,M
Boys,59.87,2,Andrew Alvidrez,Seminole,58.88,190.51,111.13,192.78,494.42,Single-ply,SBD,M
Boys,59.87,3,Michael Latapie,Palacios,59.42,179.17,133.81,176.9,489.88,Single-ply,SBD,M
Boys,59.87,4,Brandon Hisaw,Graham,59.33,183.7,95.25,206.38,485.34,Single-ply,SBD,M
Boys,59.87,5,Tj Howard,Texarkana Liberty-Eylau,59.51,185.97,104.33,192.78,483.08,Single-ply,SBD,M
Boys,59.87,6,Josh McCraw,Gatesville,57.97,197.31,99.79,183.7,480.81,Single-ply,SBD,M
Boys,59.87,7,Felix Gutierrez,Crystal City,57.79,165.56,104.33,183.7,453.59,Single-ply,SBD,M
Boys,59.87,8,Kentrun Pemberton,Texarkana Liberty-Eylau,58.97,158.76,117.93,176.9,453.59,Single-ply,SBD,M
Boys,59.87,9,Pedro Carreon,Geronimo Navarro,59.6,156.49,113.4,176.9,446.79,Single-ply,SBD,M
Boys,59.87,10,Juan Llamas,Celina,59.69,185.97,106.59,151.95,444.52,Single-ply,SBD,M
Boys,59.87,11,Pablo Hinojosa,Lamesa,59.51,174.63,97.52,163.29,435.45,Single-ply,SBD,M
Boys,59.87,12,Reagan Ficken,Orangefield,57.24,161.03,83.91,154.22,399.16,Single-ply,SBD,M
Boys,67.13,1,Alex Leos,Robinson,66.68,233.6,127.01,215.46,576.06,Single-ply,SBD,M
Boys,67.13,2,Kaleb Walker,Columbus,67.13,210.92,124.74,226.8,562.45,Single-ply,SBD,M
Boys,67.13,3,Sean Guinyard,Kennedale,65.5,206.38,115.67,217.72,539.77,Single-ply,SBD,M
Boys,67.13,4,Jordan Smith,Bonham,64.77,210.92,97.52,224.53,532.97,Single-ply,SBD,M
Boys,74.84,5,Decorian Smith,Kirbyville,67.36,195.04,106.59,229.06,530.7,Single-ply,SBD,M
Boys,67.13,6,Jose Jimenez,Palacios,65.41,195.04,127.01,195.04,517.1,Single-ply,SBD,M
Boys,67.13,7,Zach Konieczny,Sealy,66.04,188.24,129.27,199.58,517.1,Single-ply,SBD,M
Boys,74.84,8,Jt Delay,Mabank,67.31,188.24,138.35,179.17,505.76,Single-ply,SBD,M
Boys,74.84,9,Dondrell Hawkins,Paris,67.31,215.46,104.33,185.97,505.76,Single-ply,SBD,M
Boys,67.13,10,Matthew Gonzales,Fort Stockton,66.77,181.44,102.06,204.12,487.61,Single-ply,SBD,M
Boys,67.13,11,Elliot Hanna,Levelland,66.04,172.37,111.13,158.76,442.25,Single-ply,SBD,M
Boys,67.13,DQ,Joseph Zaragosa,Raymondville,64.05,,,,,Single-ply,SBD,M
Boys,74.84,1,Kendrick Armstead,Navasota,73.39,285.76,145.15,240.4,671.32,Single-ply,SBD,M
Boys,74.84,2,Britton Lindsey,West Orange-Stark,72.76,244.94,129.27,263.08,637.3,Single-ply,SBD,M
Boys,74.84,3,Alec Pack,Longview Spring Hill,73.75,244.94,147.42,231.33,623.69,Single-ply,SBD,M
Boys,74.84,4,Dominick Sanders,Paris,74.66,226.8,127.01,247.21,601.01,Single-ply,SBD,M
Boys,74.84,5,Matthew Nguyen,Palacios,74.21,247.21,115.67,235.87,598.74,Single-ply,SBD,M
Boys,74.84,6,Travis Cooke,China Spring,72.57,226.8,156.49,213.19,596.47,Single-ply,SBD,M
Boys,74.84,7,Ross Torres,La Feria,73.39,210.92,133.81,215.46,560.19,Single-ply,SBD,M
Boys,74.84,8,Jordan Benford,Columbus,74.48,199.58,133.81,226.8,560.19,Single-ply,SBD,M
Boys,74.84,9,Adrian Guay,Sanger,72.94,208.65,113.4,231.33,553.38,Single-ply,SBD,M
Boys,74.84,10,Ivan Sauerzopf,Frisco Lone Star,74.21,204.12,127.01,197.31,528.44,Single-ply,SBD,M
Boys,74.84,11,Ryan Linebaugh,Sweetwater,74.75,195.04,127.01,204.12,526.17,Single-ply,SBD,M
Boys,74.84,12,Trey Cave,Midland Greenwood,71.49,183.7,111.13,188.24,483.08,Single-ply,SBD,M
Boys,89.81,1,Ty Smith,Paris North Lamar,82.28,254.01,154.22,240.4,648.64,Single-ply,SBD,M
Boys,82.1,2,Martin Balderas,Groesbeck,80.92,235.87,142.88,254.01,632.76,Single-ply,SBD,M
Boys,82.1,3,Jesus Vargas,Celina,78.38,238.14,151.95,235.87,625.96,Single-ply,SBD,M
Boys,82.1,4,Rueben Hinojosa,Lytle,82.01,238.14,131.54,251.74,621.42,Single-ply,SBD,M
Boys,82.1,5,Maverick Jones,Paris North Lamar,79.92,254.01,136.08,217.72,607.81,Single-ply,SBD,M
Boys,82.1,6,Sam Nemir,Sweetwater,80.83,222.26,151.95,222.26,596.47,Single-ply,SBD,M
Boys,82.1,7,Levi Haggard,Bonham,81.1,238.14,133.81,213.19,585.13,Single-ply,SBD,M
Boys,82.1,8,Justin Quesada,Somerset,81.92,226.8,136.08,222.26,585.13,Single-ply,SBD,M
Boys,82.1,9,David Saucedo,Shepherd,76.29,217.72,133.81,226.8,578.33,Single-ply,SBD,M
Boys,82.1,10,Arthur Maxwell,Shepherd,77.84,231.33,120.2,219.99,571.53,Single-ply,SBD,M
Boys,82.1,11,Thomas Ewing,Giddings,81.47,213.19,117.93,226.8,557.92,Single-ply,SBD,M
Boys,89.81,12,Justin Thornton,Pecos,82.19,192.78,127.01,215.46,535.24,Single-ply,SBD,M
Boys,89.81,1,Landon Lock,Gonzales,88.72,281.23,145.15,267.62,694,Single-ply,SBD,M
Boys,89.81,2,Giresse Forchu,North Forney,89.09,256.28,154.22,258.55,669.05,Single-ply,SBD,M
Boys,89.81,3,Fili Jaquez,Lubbock Cooper,86.55,249.48,158.76,256.28,664.51,Single-ply,SBD,M
Boys,89.81,4,Ej Castaneda,Rio Hondo,88.45,249.48,174.63,226.8,650.91,Single-ply,SBD,M
Boys,89.81,5,Dakota Barnes,Bonham,89.36,249.48,113.4,251.74,614.62,Single-ply,SBD,M
Boys,89.81,6,Terrence Cuney,Jasper,89.72,226.8,154.22,233.6,614.62,Single-ply,SBD,M
Boys,89.81,7,Stryker Hunnicutt,Bonham,88.36,219.99,138.35,229.06,587.4,Single-ply,SBD,M
Boys,89.81,8,Luis Escobedo,Needville,86.64,226.8,129.27,201.85,557.92,Single-ply,SBD,M
Boys,89.81,9,Justin Oestreich,Llano,89.81,210.92,120.2,226.8,557.92,Single-ply,SBD,M
Boys,89.81,10,Shane Smith,Levelland,87.91,208.65,117.93,208.65,535.24,Single-ply,SBD,M
Boys,89.81,DQ,Howard Horn,Navasota,87.09,,,,,Single-ply,SBD,M
Boys,89.81,DQ,Dq Lipscomb,Paris,88.81,285.76,,,,Single-ply,SBD,M
Boys,99.79,1,Casey Sergent,Quinlan Ford,98.25,319.78,165.56,288.03,773.37,Single-ply,SBD,M
Boys,99.79,2,Mark Cavazos,Raymondville,95.71,292.57,192.78,224.53,709.87,Single-ply,SBD,M
Boys,99.79,3,Deon Hutchinson,Giddings,97.61,272.16,147.42,265.35,684.92,Single-ply,SBD,M
Boys,99.79,4,Josh Perez,Sinton,99.43,260.82,174.63,249.48,684.92,Single-ply,SBD,M
Boys,99.79,5,Matt Wood,Bullard,97.98,263.08,147.42,254.01,664.51,Single-ply,SBD,M
Boys,99.79,6,Nick Conklin,Sanger,95.89,254.01,147.42,244.94,646.37,Single-ply,SBD,M
Boys,99.79,7,Shaq Walker,Waco La Vega,98.88,263.08,122.47,244.94,630.49,Single-ply,SBD,M
Boys,99.79,8,Brett Cummings,Borger,98.97,249.48,142.88,238.14,630.49,Single-ply,SBD,M
Boys,99.79,9,Montana Vega,Lubbock Cooper,97.34,226.8,147.42,219.99,594.21,Single-ply,SBD,M
Boys,99.79,10,Zach Cole,Bridge City,96.62,247.21,133.81,195.04,576.06,Single-ply,SBD,M
Boys,99.79,DQ,Lawrence Gilmore,West Orange-Stark,99.7,,,,,Single-ply,SBD,M
Boys,109.77,1,Gregory Juarez,Raymondville,105.05,310.71,192.78,256.28,759.77,Single-ply,SBD,M
Boys,109.77,2,Aaron Liker,Center,107.59,281.23,197.31,258.55,737.09,Single-ply,SBD,M
Boys,109.77,3,Adam Aucoin,Palacios,108.86,303.91,183.7,242.67,730.28,Single-ply,SBD,M
Boys,109.77,4,Hiram Muhammad,Lucas Lovejoy,105.69,283.5,163.29,278.96,725.75,Single-ply,SBD,M
Boys,109.77,5,Trae Taylor,Levelland,102.87,288.03,158.76,272.16,718.94,Single-ply,SBD,M
Boys,109.77,6,Ben Jaeger,Emory Rains,108.86,242.67,170.1,265.35,678.12,Single-ply,SBD,M
Boys,109.77,7,Billy Golding,Salado,107.77,272.16,163.29,240.4,675.85,Single-ply,SBD,M
Boys,109.77,8,Mateo Gonzales,Sweetwater,105.78,244.94,163.29,258.55,666.78,Single-ply,SBD,M
Boys,109.77,9,Seth White,Alvarado,107.5,272.16,154.22,226.8,653.17,Single-ply,SBD,M
Boys,109.77,10,David Hollyfield,Silsbee,103.78,242.67,156.49,242.67,641.83,Single-ply,SBD,M
Boys,109.77,DQ,Donavan White,Princeton,108.41,,,,,Single-ply,SBD,M
Boys,109.77,DQ,Bobby Gonzales,Raymondville,106.23,278.96,151.95,,,Single-ply,SBD,M
Boys,124.74,1,Jared Thames,Glen Rose,122.02,285.76,213.19,272.16,771.11,Single-ply,SBD,M
Boys,124.74,2,Charlie Courvelle,Shepherd,121.38,324.32,192.78,251.74,768.84,Single-ply,SBD,M
Boys,124.74,3,Matt Poursoltani,Pilot Point,123.92,249.48,258.55,226.8,734.82,Single-ply,SBD,M
Boys,124.74,4,Bret Treadway,Silsbee,113.94,272.16,176.9,267.62,716.68,Single-ply,SBD,M
Boys,124.74,5,Autra Maxey,Navasota,120.38,285.76,154.22,276.69,716.68,Single-ply,SBD,M
Boys,124.74,6,Ram Montalvo,Orange Grove,121.47,317.51,167.83,229.06,714.41,Single-ply,SBD,M
Boys,124.74,7,O'Scotty Castro,Dalhart,116.75,303.91,136.08,272.16,712.14,Single-ply,SBD,M
Boys,124.74,8,Cody Parker,Kemp,115.85,283.5,192.78,226.8,703.07,Single-ply,SBD,M
Boys,124.74,9,Ashton Reeves,Palestine Westwood,124.01,251.74,188.24,238.14,678.12,Single-ply,SBD,M
Boys,124.74,10,Colt Nelson,Sanger,120.2,249.48,181.44,242.67,673.58,Single-ply,SBD,M
Boys,124.74,11,Emiliano Renteria,Lamesa,121.56,247.21,154.22,240.4,641.83,Single-ply,SBD,M
Boys,124.74,DQ,J'Von Thomas,Cuero,120.02,276.69,,,,Single-ply,SBD,M
Boys,124.74+,1,Willie Hights,Yoakum,148.51,362.87,215.46,272.16,850.49,Single-ply,SBD,M
Boys,124.74+,2,Ryan Allen,West Orange-Stark,156.04,317.51,195.04,322.05,834.61,Single-ply,SBD,M
Boys,124.74+,3,Jonathan Northcutt,Emory Rains,133.63,310.71,208.65,281.23,800.59,Single-ply,SBD,M
Boys,124.74+,4,Nune Perez,Crystal City,138.07,328.85,195.04,272.16,796.05,Single-ply,SBD,M
Boys,124.74+,5,Byron Lara,Lubbock Cooper,141.16,317.51,204.12,249.48,771.11,Single-ply,SBD,M
Boys,124.74+,6,Omar Tebo,Liberty,143.15,294.84,172.37,281.23,748.43,Single-ply,SBD,M
Boys,124.74+,7,Ray Cortez,Decatur,148.42,285.76,185.97,265.35,737.09,Single-ply,SBD,M
Boys,124.74+,8,Allen Hodge,Hillsboro,142.52,301.64,199.58,233.6,734.82,Single-ply,SBD,M
Boys,124.74+,9,Josh Hamilton,Tyler Chapel Hill,132.54,297.1,176.9,251.74,725.75,Single-ply,SBD,M
Boys,124.74+,10,Sawyer Roberts,Big Spring,162.84,281.23,145.15,254.01,680.39,Single-ply,SBD,M
Boys,124.74+,11,Matt Hawkins,Nevada Community,140.52,276.69,140.61,238.14,655.44,Single-ply,SBD,M
Boys,124.74+,DQ,Zac Perez,Glen Rose,128,,,,,Single-ply,SBD,M
Boys,,NS,Daniel Porras,Orange Grove,,,,,,Single-ply,SBD,M
