Division,WeightClassKg,Place,Name,Team,BodyweightKg,Best3SquatKg,Best3BenchKg,Best3DeadliftKg,TotalKg,Equipment,Event,Sex
Boys,51.71,1,Will Cross,Huntington,51.44,102.06,63.5,136.08,301.64,Single-ply,SBD,M
Boys,59.87,1,Kaegan Dillard,Lufkin,59.87,140.61,61.23,151.95,353.8,Single-ply,SBD,M
Boys,67.13,1,Emmanuel Thomas,Lufkin,67.13,158.76,108.86,165.56,433.18,Single-ply,SBD,M
Boys,67.13,2,Doug Waters,Diboll,62.14,136.08,83.91,147.42,367.41,Single-ply,SBD,M
Boys,67.13,3,Lazerrick Lacy,Lufkin,67.13,102.06,83.91,165.56,351.53,Single-ply,SBD,M
Boys,67.13,4,Cielance Bailey,Diboll,62.6,120.2,72.57,136.08,328.85,Single-ply,SBD,M
Boys,67.13,5,Jay Harris,Huntington,61.23,106.59,86.18,127.01,319.78,Single-ply,SBD,M
Boys,67.13,6,Lane Williams,Huntington,66.32,92.99,63.5,124.74,281.23,Single-ply,SBD,M
Boys,67.13,7,Jason Williams,Huntington,63.5,90.72,61.23,127.01,278.96,Single-ply,SBD,M
Boys,74.84,1,Jamarcus Walker,Lufkin,70.31,172.37,120.2,206.38,498.95,Single-ply,SBD,M
Boys,74.84,2,Christon Ballard,Lufkin,69.4,172.37,99.79,185.97,458.13,Single-ply,SBD,M
Boys,74.84,3,D. Scott,Tyler Lee,70.76,161.03,108.86,185.97,455.86,Single-ply,SBD,M
Boys,74.84,4,Chris Durham,Lufkin,73.94,161.03,72.57,219.99,453.59,Single-ply,SBD,M
Boys,74.84,5,Eli Hernandez,Diboll,70.31,147.42,113.4,181.44,442.25,Single-ply,SBD,M
Boys,74.84,6,L. Simmons,Tyler Lee,72.12,158.76,99.79,170.1,428.64,Single-ply,SBD,M
Boys,74.84,7,Craig Little,Lufkin,74.84,133.81,83.91,181.44,399.16,Single-ply,SBD,M
Boys,74.84,8,Bubba Cook,Diboll,68.95,151.95,88.45,147.42,387.82,Single-ply,SBD,M
Boys,74.84,9,Josh Packard,Huntington,72.21,124.74,79.38,145.15,349.27,Single-ply,SBD,M
Boys,74.84,10,Luke Martin,Huntington,68.04,83.91,58.97,92.99,235.87,Single-ply,SBD,M
Boys,82.1,1,Voshon Richardson,Lufkin,78.47,195.04,122.47,192.78,510.29,Single-ply,SBD,M
Boys,82.1,2,C Paxson,Tyler Lee,79.83,206.38,104.33,197.31,508.02,Single-ply,SBD,M
Boys,82.1,3,M. White,Tyler Lee,81.65,204.12,108.86,195.04,508.02,Single-ply,SBD,M
Boys,82.1,4,Dez Moore,Lufkin,77.11,174.63,88.45,206.38,469.47,Single-ply,SBD,M
Boys,82.1,5,Chad Roberts,Lufkin,79.38,161.03,86.18,204.12,451.32,Single-ply,SBD,M
Boys,82.1,6,Paxton Sandidge,Lufkin,77.11,154.22,117.93,158.76,430.91,Single-ply,SBD,M
Boys,82.1,7,B Ezell,Tyler Lee,77.56,158.76,92.99,176.9,428.64,Single-ply,SBD,M
Boys,82.1,8,Nick Cox,Lufkin,82.1,147.42,83.91,181.44,412.77,Single-ply,SBD,M
Boys,82.1,9,Hunter Mettlen,Huntington,81.47,111.13,95.25,145.15,351.53,Single-ply,SBD,M
Boys,89.81,1,Terrance Taylor,Diboll,89.36,197.31,142.88,215.46,555.65,Single-ply,SBD,M
Boys,89.81,2,L Wallace,Tyler Lee,87.09,185.97,122.47,213.19,521.63,Single-ply,SBD,M
Boys,89.81,3,A. Campbell,Tyler Lee,89.36,190.51,113.4,210.92,514.83,Single-ply,SBD,M
Boys,89.81,4,Kevin Moore,Lufkin,83.01,147.42,88.45,215.46,451.32,Single-ply,SBD,M
Boys,89.81,5,Eduardo Miranda,Diboll,89.81,158.76,111.13,174.63,444.52,Single-ply,SBD,M
Boys,89.81,6,Demontre Lewis,Lufkin,89.81,158.76,81.65,181.44,421.84,Single-ply,SBD,M
Boys,89.81,7,Quin Sawyer,Diboll,88.45,147.42,92.99,167.83,408.23,Single-ply,SBD,M
Boys,89.81,8,Jacob Cartwright,Huntington,85.5,158.76,97.52,149.69,405.97,Single-ply,SBD,M
Boys,99.79,1,Brysen Bean,Lufkin,93.44,192.78,124.74,231.33,548.85,Single-ply,SBD,M
Boys,99.79,2,M. Evans,Tyler Lee,91.63,210.92,115.67,192.78,519.36,Single-ply,SBD,M
Boys,99.79,3,L Swanson,Tyler Lee,99.79,188.24,117.93,190.51,496.68,Single-ply,SBD,M
Boys,99.79,4,D Derrett,Tyler Lee,95.25,185.97,108.86,195.04,489.88,Single-ply,SBD,M
Boys,99.79,5,Jordan Smith,Lufkin,98.88,170.1,90.72,219.99,480.81,Single-ply,SBD,M
Boys,99.79,6,P Durman,Tyler Lee,91.63,158.76,106.59,176.9,442.25,Single-ply,SBD,M
Boys,99.79,7,Will Capps,Huntington,99.79,154.22,102.06,158.76,415.04,Single-ply,SBD,M
Boys,109.77,1,Monty Williams,Diboll,102.51,215.46,113.4,188.24,517.1,Single-ply,SBD,M
Boys,109.77,2,Devron Hadnot,Diboll,109.32,195.04,113.4,199.58,508.02,Single-ply,SBD,M
Boys,109.77,3,Jacob Slaughter,Huntington,107.5,181.44,104.33,213.19,498.95,Single-ply,SBD,M
Boys,109.77,4,Vj Herbert,Tyler Lee,105.23,183.7,129.27,181.44,494.42,Single-ply,SBD,M
Boys,109.77,5,Erik Bennett,Lufkin,103.87,170.1,90.72,226.8,487.61,Single-ply,SBD,M
Boys,109.77,6,Cyrus Martin,Diboll,109.77,199.58,97.52,176.9,474,Single-ply,SBD,M
Boys,124.74,1,Judd Mahan,Lufkin,112.94,181.44,142.88,204.12,528.44,Single-ply,SBD,M
Boys,124.74,2,C Grooms,Tyler Lee,121.56,204.12,108.86,206.38,519.36,Single-ply,SBD,M
Boys,124.74,3,Corey Clark,Lufkin,111.13,188.24,108.86,192.78,489.88,Single-ply,SBD,M
Boys,124.74,4,Marco Silva,Lufkin,117.93,158.76,102.06,197.31,458.13,Single-ply,SBD,M
Boys,124.74,5,Brandon White,Diboll,111.13,149.69,111.13,165.56,426.38,Single-ply,SBD,M
Boys,124.74,6,Michael Traylor,Lufkin,120.2,124.74,92.99,170.1,387.82,Single-ply,SBD,M
Boys,124.74,7,John Serrato,Diboll,115.21,190.51,,181.44,371.95,Single-ply,SD,M
Boys,124.74+,1,Edwin Hurtado,Diboll,127.01,199.58,106.59,195.04,501.22,Single-ply,SBD,M
Boys,124.74+,2,Z Page,Tyler Lee,128.82,197.31,99.79,201.85,498.95,Single-ply,SBD,M
