Event,Sex,Division,WeightClassKg,Best3BenchKg,Bench4Kg,Best3DeadliftKg,Deadlift4Kg,TotalKg,Name,State,Equipment,Place
B,M,Class 1,67.5,150,,,,150,Jake Fiscus,OR,Single-ply,2
B,M,Class 1,67.5,162.5,,,,162.5,Barry Kunkel,OR,Single-ply,1
B,M,Class 1,82.5,150,,,,150,Shawn Oliphant,OR,Single-ply,1
B,M,Class 1,100,150,,,,150,George Merrill,OR,Single-ply,1
B,M,Class 1,117.5,147.5,,,,147.5,Joshua Irby,OR,Single-ply,1
B,M,Disabled 1 20-39,110,130,,,,130,Matthew Ross,OR,Single-ply,1
B,M,Juniors 20-25,90,145,,,,145,Leo Gates,OR,Single-ply,1
B,M,Juniors 20-25,140+,182.5,,,,182.5,Joshua Koch,OR,Single-ply,1
B,M,Law-Fire 48-55,90,137.5,,,,137.5,Dan Guches,OR,Single-ply,1
B,M,Law-Fire 56-63,90,137.5,,,,137.5,Charles McFarland,OR,Single-ply,1
B,M,Masters 40-46,110,125,,,,125,Eric Bowen,ID,Single-ply,1
B,M,Masters 40-46,125,227.5,,,,227.5,Dawane Harris,OR,Single-ply,1
B,M,Masters 47-53,82.5,252.5,,,,252.5,Valentino Plummer,OR,Single-ply,1
B,M,Masters 47-53,82.5,170,,,,170,Danny Winslow,ID,Single-ply,2
B,M,Masters 47-53,90,205,,,,205,James Noblit,OR,Multi-ply,1
B,M,Masters 47-53,100,150,,,,150,George Merrill,OR,Single-ply,1
B,M,Masters 54-60,75,202.5,,,,202.5,Alfredo Evangelista,OR,Single-ply,1
B,M,Masters 54-60,90,155,,,,155,Eric Georgeon,OR,Single-ply,1
B,M,Masters 54-60,110,250,,,,250,Ed Macauley,OR,Single-ply,1
B,M,Masters 68-74,90,170,177.5,,,170,Joe Beteta,OR,Multi-ply,1
B,M,Open,75,228.5,,,,228.5,Willard Crossen III,WA,Single-ply,1
B,M,Open,75,202.5,,,,202.5,Alfredo Evangelista,OR,Single-ply,2
B,M,Open,82.5,175,,,,175,John Fales,OR,Single-ply,1
B,M,Open,90,222.5,,,,222.5,Michael Diaz,OR,Single-ply,1
B,M,Open,110,175,,,,175,John Anthony,OR,Single-ply,2
B,M,Open,110,250,,,,250,Ed Macauley,OR,Single-ply,1
B,M,Submasters 33-39,67.5,162.5,,,,162.5,Barry Kunkel,OR,Single-ply,1
B,M,Submasters 33-39,75,228.5,,,,228.5,Willard Crossen III,WA,Single-ply,1
B,M,Submasters 33-39,82.5,175,,,,175,John Fales,OR,Single-ply,1
B,M,Submasters 33-39,117.5,253,,,,253,Kegan Engelke,WA,Single-ply,1
B,M,Submasters 33-39,140+,242.5,,,,242.5,Michael-Jon Hartley,OR,Single-ply,1
B,M,Teen 12-13,56,42.5,,,,42.5,Gage Garner,OR,Single-ply,1
B,M,Teen 12-13,67.5,35,,,,35,Liam Moore,OR,Single-ply,1
B,M,Teen 14-15,140+,160.5,,,,160.5,Shun Talmadge,OR,Single-ply,1
B,M,Teen 18-19,82.5,112.5,,,,112.5,Cody Childs,OR,Single-ply,1
D,M,Class 1,100,,,235,,235,Corey Cline,OR,Single-ply,1
D,M,Disabled 2 20-39,75,,,147.5,,147.5,Zack Childers,OR,Single-ply,1
D,M,Disabled 2 40-59,125,,,250,252.5,250,Dawane Harris,OR,Single-ply,1
D,M,Juniors 20-25,90,,,237.5,,237.5,Leo Gates,OR,Single-ply,1
D,M,Juniors 20-25,110,,,192.5,,192.5,Austin Rummell,OR,Single-ply,1
D,M,Juniors 20-25,140+,,,185,,185,Joshua Koch,OR,Single-ply,1
D,M,Law-Fire 48-55,90,,,255,,255,Dan Guches,OR,Single-ply,1
D,M,Law-Fire 56-63,90,,,250,,250,Charles McFarland,OR,Single-ply,1
D,M,Masters 40-46,110,,,205,,205,Eric Bowen,ID,Single-ply,1
D,M,Masters 47-53,82.5,,,245,,245,Dave Kahn,OR,Single-ply,1
D,M,Masters 47-53,82.5,,,227.5,,227.5,Danny Winslow,ID,Single-ply,2
D,M,Masters 47-53,110,,,210,,210,Dale York,OR,Single-ply,1
D,M,Masters 47-53,117.5,,,300,,300,Brent Mikesell,WA,Single-ply,1
D,M,Masters 54-60,60,,,212.5,,212.5,Steve Winslow,ID,Single-ply,1
D,M,Masters 54-60,75,,,231,,231,Alfredo Evangelista,OR,Single-ply,1
D,M,Masters 61-67,90,,,250,260,250,Charles McFarland,OR,Single-ply,1
D,M,Masters 68-74,110,,,207.5,,207.5,Robert Wass,OR,Single-ply,1
D,M,Open,67.5,,,225,,225,Barry Kunkel,OR,Single-ply,1
D,M,Open,75,,,231,,231,Alfredo Evangelista,OR,Single-ply,1
D,M,Open,82.5,,,265,,265,John Fales,OR,Single-ply,1
D,M,Open,100,,,275,,275,Dustin McFarland,OR,Multi-ply,1
D,M,Open,110,,,292.5,,292.5,John Anthony,OR,Single-ply,2
D,M,Open,110,,,335,,335,Omar Antila,OR,Single-ply,1
D,M,Open,117.5,,,355.5,,355.5,Travis Mc Cormick,OR,Single-ply,1
D,M,Submasters 33-39,67.5,,,225,,225,Barry Kunkel,OR,Single-ply,1
D,M,Submasters 33-39,82.5,,,265,,265,John Fales,OR,Single-ply,1
D,M,Submasters 33-39,110,,,335,,335,Omar Antila,OR,Single-ply,1
D,M,Submasters 33-39,117.5,,,297.5,,297.5,Kegan Engelke,WA,Single-ply,2
D,M,Submasters 33-39,117.5,,,355.5,,355.5,Travis Mc Cormick,OR,Single-ply,1
D,M,Submasters 33-39,140+,,,305,,305,Michael-Jon Hartley,OR,Single-ply,1
D,M,Teen 12-13,44,,,50,,50,Derek McCormick,OR,Single-ply,1
D,M,Teen 12-13,56,,,112.5,,112.5,Gage Garner,OR,Single-ply,1
D,M,Teen 12-13,67.5,,,75,,75,Liam Moore,OR,Single-ply,1
D,M,Teen 14-15,100,,,185,,185,Isaac Moore,OR,Single-ply,1
D,M,Teen 14-15,140+,,,237.5,,237.5,Shun Talmadge,OR,Single-ply,1
D,M,Teen 18-19,82.5,,,200,,200,Cody Childs,OR,Single-ply,1
BD,M,Juniors 20-25,140+,182.5,,185,,367.5,Joshua Koch,OR,Single-ply,1
BD,M,Law-Fire 48-55,90,137.5,,255,,392.5,Dan Guches,OR,Single-ply,1
BD,M,Law-Fire 56-63,90,137.5,,250,260,387.5,Charles McFarland,OR,Single-ply,1
BD,M,Masters 40-46,110,125,,205,,330,Eric Bowen,ID,Single-ply,1
BD,M,Masters 47-53,82.5,170,,227.5,,397.5,Danny Winslow,ID,Single-ply,1
BD,M,Masters 54-60,75,202.5,,231,,433.5,Alfredo Evangelista,OR,Single-ply,1
BD,M,Open,75,202.5,,231,,433.5,Alfredo Evangelista,OR,Single-ply,1
BD,M,Open,82.5,175,,265,,440,John Fales,OR,Single-ply,1
BD,M,Open,110,175,,292.5,,467.5,John Anthony,OR,Single-ply,1
BD,M,Submasters 33-39,82.5,175,,265,,440,John Fales,OR,Single-ply,1
BD,M,Submasters 33-39,117.5,253,,297.5,,550.5,Kegan Engelke,WA,Single-ply,1
BD,M,Teen 14-15,140+,160.5,,237.5,,398,Shun Talmadge,OR,Single-ply,1
B,F,Law-Fire Open,90,152.5,,,,152.5,Alisha Howard,WA,Single-ply,1
B,F,Masters 47-53,90,87.5,,,,87.5,Jennifer Taylor,OR,Single-ply,1
B,F,Open,60,130,,,,130,Christie Luehrs,OR,Single-ply,1
B,F,Open,90,87.5,,,,87.5,Jennifer Taylor,OR,Single-ply,1
B,F,Open,90+,175,,,,175,Melissa Zumwalt,OR,Single-ply,1
B,F,Submasters,60,130,,,,130,Christie Luehrs,OR,Single-ply,1
B,F,Submasters,90,152.5,,,,152.5,Alisha Howard,WA,Single-ply,1
B,F,Submasters,90+,175,,,,175,Melissa Zumwalt,OR,Single-ply,1
B,F,Teen 12-13,44,25,25.5,,,25,Autumn Allen,OR,Single-ply,1
B,F,Teen 12-13,44,20,,,,20,Risa Chrestensen,OR,Single-ply,2
B,F,Teen 12-13,67.5,50,,,,50,Molly Moore,OR,Single-ply,1
D,F,Juniors,52,,,90,97.5,90,Mora Carpenter,OR,Single-ply,1
D,F,Juniors,82.5,,,160,,160,Amanda Wass,OR,Single-ply,1
D,F,Juniors,100,,,147.5,,147.5,Heidi Norris,OR,Single-ply,1
D,F,Law-Fire Open,82.5,,,160,,160,Amanda Wass,OR,Single-ply,1
D,F,Law-Fire Open,90,,,220,,220,Alisha Howard,WA,Single-ply,1
D,F,Open,60,,,115,,115,Christie Luehrs,OR,Single-ply,1
D,F,Open,100,,,232.5,,232.5,Holly Garner,OR,Single-ply,1
D,F,Submasters,60,,,115,,115,Christie Luehrs,OR,Single-ply,1
D,F,Submasters,90,,,220,,220,Alisha Howard,WA,Single-ply,1
D,F,Submasters,100,,,232.5,,232.5,Holly Garner,OR,Single-ply,1
D,F,Teen 12-13,67.5,,,112.5,,112.5,Molly Moore,OR,Single-ply,1
BD,F,Open,60,130,,115,,245,Christie Luehrs,OR,Single-ply,1
BD,F,Submasters,60,130,,115,,245,Christie Luehrs,OR,Single-ply,1
