Division,WeightClassKg,Place,Name,Team,BodyweightKg,Best3SquatKg,Best3BenchKg,Best3DeadliftKg,TotalKg,Equipment,Event,Sex
Boys,51.71,1,Oscar Martel,Laredo United South,50.62,199.58,113.4,195.04,508.02,Single-ply,SBD,M
Boys,51.71,2,Justin Hernandez,Weslaco East,50.98,170.1,92.99,204.12,467.2,Single-ply,SBD,M
Boys,51.71,3,Leo Martinez,Rio Grande City,50.98,163.29,104.33,170.1,437.72,Single-ply,SBD,M
Boys,51.71,4,Esteban Urquieta,Corpus Christi Tuloso-Midway,50.71,174.63,74.84,183.7,433.18,Single-ply,SBD,M
Boys,51.71,5,Everardo Garcia,Roma,51.44,170.1,86.18,176.9,433.18,Single-ply,SBD,M
Boys,51.71,6,Javier Farias,Mission,50.44,154.22,74.84,185.97,415.04,Single-ply,SBD,M
Boys,51.71,7,Bryan Loera,Brownsville Pace,51.53,158.76,95.25,151.95,405.97,Single-ply,SBD,M
Boys,51.71,8,John Ortega,Mercedes,47.81,151.95,86.18,147.42,385.55,Single-ply,SBD,M
Boys,51.71,9,Eddie Macias,Laredo Nixon,49.9,154.22,95.25,136.08,385.55,Single-ply,SBD,M
Boys,51.71,10,Chris Medina,Brownsville Hanna,51.07,142.88,79.38,163.29,385.55,Single-ply,SBD,M
Boys,51.71,11,Chase Chapa,Port Lavaca Calhoun,51.17,142.88,99.79,142.88,385.55,Single-ply,SBD,M
Boys,51.71,12,Damian Gonzalez,Roma,51.26,142.88,83.91,158.76,385.55,Single-ply,SBD,M
Boys,51.71,DQ,Jesus Puente,La Joya Palmview,50.98,142.88,77.11,142.88,,Single-ply,SBD,M
Boys,55.79,1,Joel Sanchez,Brownsville Veterans Memorial,55.7,206.38,113.4,226.8,546.58,Single-ply,SBD,M
Boys,55.79,2,Robert Saenz,Sharyland Pioneer,55.34,201.85,124.74,217.72,544.31,Single-ply,SBD,M
Boys,55.79,3,Jeremiah Zelaya,Victoria East,55.61,195.04,106.59,188.24,489.88,Single-ply,SBD,M
Boys,55.79,4,Justin Berner,Edinburg North,55.52,192.78,113.4,174.63,480.81,Single-ply,SBD,M
Boys,55.79,5,Marc Sedillo,San Benito,55.61,183.7,92.99,183.7,460.4,Single-ply,SBD,M
Boys,55.79,6,Kevin Trevino,McAllen Memorial,55.25,163.29,117.93,170.1,451.32,Single-ply,SBD,M
Boys,55.79,7,Mark Ortega,Mercedes,55.79,165.56,102.06,179.17,446.79,Single-ply,SBD,M
Boys,55.79,8,Michael Casillas,Victoria West,55.43,165.56,108.86,170.1,444.52,Single-ply,SBD,M
Boys,55.79,9,Edgar Martinez,Edinburg Vela,55.79,161.03,102.06,179.17,442.25,Single-ply,SBD,M
Boys,55.79,10,AJ Trevino,Edinburg,54.98,174.63,111.13,149.69,435.45,Single-ply,SBD,M
Boys,55.79,11,Tyrone Irizarry,Brownsville Lopez,53.98,156.49,95.25,179.17,430.91,Single-ply,SBD,M
Boys,55.79,DQ,Eric Capistran,Brownsville Veterans Memorial,54.7,172.37,95.25,,,Single-ply,SBD,M
Boys,59.87,1,Tony Sauceda,Edinburg Economedes,59.87,219.99,142.88,208.65,571.53,Single-ply,SBD,M
Boys,59.87,2,Hugo Gomez,Edinburg North,59.15,183.7,117.93,201.85,503.49,Single-ply,SBD,M
Boys,59.87,3,Fabian Bazan,Castroville Medina Valley,58.97,183.7,102.06,213.19,498.95,Single-ply,SBD,M
Boys,59.87,4,Chris Rios,Rio Grande City,59.33,179.17,120.2,199.58,498.95,Single-ply,SBD,M
Boys,59.87,5,Jose Alcorta,Laredo United South,59.87,195.04,108.86,195.04,498.95,Single-ply,SBD,M
Boys,59.87,6,Fernando Martinez,Weslaco,59.78,185.97,106.59,190.51,483.08,Single-ply,SBD,M
Boys,59.87,7,Josh Gonzalez,Weslaco East,59.42,179.17,90.72,204.12,474,Single-ply,SBD,M
Boys,59.87,8,Matthew Hughes,Del Rio,59.6,172.37,117.93,183.7,474,Single-ply,SBD,M
Boys,59.87,9,Jacob Amaro,PSJA Memorial,59.33,176.9,104.33,183.7,464.93,Single-ply,SBD,M
Boys,59.87,10,Jakob Cortez,Port Lavaca Calhoun,58.97,197.31,86.18,176.9,460.4,Single-ply,SBD,M
Boys,59.87,DQ,Joel Casas,PSJA,59.51,,,,,Single-ply,SBD,M
Boys,67.13,1,Abraham Hernandez,La Joya Palmview,66.04,256.28,136.08,272.16,664.51,Single-ply,SBD,M
Boys,67.13,2,Jonathan Zelaya,Victoria East,66.32,272.16,142.88,240.4,655.44,Single-ply,SBD,M
Boys,67.13,3,Ricky Ortiz,Edcouch-Elsa,66.32,265.35,145.15,242.67,653.17,Single-ply,SBD,M
Boys,67.13,4,Felix Rizo,Brownsville Pace,65.23,231.33,149.69,226.8,607.81,Single-ply,SBD,M
Boys,67.13,5,Cody Elizalde,Seguin,65.05,226.8,127.01,224.53,578.33,Single-ply,SBD,M
Boys,67.13,6,Ricardo Pena,Rio Grande City,66.86,226.8,142.88,208.65,578.33,Single-ply,SBD,M
Boys,67.13,7,Freddy Gonzalez,Weslaco East,66.86,217.72,147.42,206.38,571.53,Single-ply,SBD,M
Boys,67.13,8,Frank Estrada,PSJA Memorial,65.23,224.53,129.27,199.58,553.38,Single-ply,SBD,M
Boys,67.13,9,Cristian Alvarado,Corpus Christi Calallen,66.32,217.72,122.47,204.12,544.31,Single-ply,SBD,M
Boys,67.13,10,Moses Olivarez,McAllen Memorial,66.5,217.72,117.93,208.65,544.31,Single-ply,SBD,M
Boys,67.13,11,Mike Chavez,Brownsville Hanna,67.13,215.46,124.74,204.12,544.31,Single-ply,SBD,M
Boys,67.13,12,Daniel Lozano,Weslaco,66.59,201.85,149.69,183.7,535.24,Single-ply,SBD,M
Boys,67.13,DQ,Coy Burrows,Sharyland Pioneer,66.86,210.92,133.81,,,Single-ply,SBD,M
Boys,74.84,1,Jose Cumpean,Port Lavaca Calhoun,73.57,258.55,142.88,254.01,655.44,Single-ply,SBD,M
Boys,74.84,2,Francisco Marin,Weslaco,74.84,249.48,167.83,235.87,653.17,Single-ply,SBD,M
Boys,74.84,3,Brandon Palomares,Seguin,70.67,260.82,142.88,240.4,644.1,Single-ply,SBD,M
Boys,74.84,4,Ricardo Miranda,Los Fresnos,74.57,235.87,140.61,265.35,641.83,Single-ply,SBD,M
Boys,74.84,5,Joel Garza,Corpus Christi Calallen,73.3,247.21,136.08,254.01,637.3,Single-ply,SBD,M
Boys,74.84,6,Roman Garay,Brownsville Hanna,72.57,244.94,120.2,249.48,614.62,Single-ply,SBD,M
Boys,74.84,7,Adam Walle,Edcouch-Elsa,74.48,235.87,136.08,235.87,607.81,Single-ply,SBD,M
Boys,74.84,8,Jose Porras,Brownsville Hanna,70.67,226.8,131.54,238.14,596.47,Single-ply,SBD,M
Boys,74.84,9,Jorge Cavazos,Mercedes,72.85,233.6,154.22,208.65,596.47,Single-ply,SBD,M
Boys,74.84,10,Richard Villarreal,San Antonio East Central,74.75,231.33,117.93,244.94,594.21,Single-ply,SBD,M
Boys,74.84,11,Jonathan Casarez,Rio Grande City,73.48,213.19,147.42,231.33,591.94,Single-ply,SBD,M
Boys,74.84,12,Cristian Maldonado,Los Fresnos,74.03,240.4,117.93,222.26,580.6,Single-ply,SBD,M
Boys,82.1,1,Imanol Ordonez,Weslaco East,81.65,249.48,158.76,272.16,680.39,Single-ply,SBD,M
Boys,82.1,2,Robert La Buff,Weslaco,80.83,258.55,154.22,249.48,662.24,Single-ply,SBD,M
Boys,82.1,3,Jazaih Escamilla,McAllen Memorial,78.29,256.28,163.29,229.06,648.64,Single-ply,SBD,M
Boys,82.1,4,Steban Mireles,Castroville Medina Valley,80.65,260.82,151.95,233.6,646.37,Single-ply,SBD,M
Boys,82.1,5,Franklin Arellano,McAllen,81.01,231.33,142.88,260.82,635.03,Single-ply,SBD,M
Boys,82.1,6,Behiran Calderini,Edinburg North,80.74,249.48,136.08,238.14,623.69,Single-ply,SBD,M
Boys,82.1,7,Juan Rojas,Donna,81.01,244.94,124.74,242.67,612.35,Single-ply,SBD,M
Boys,82.1,8,Jose Guzman,Donna,81.1,235.87,136.08,240.4,612.35,Single-ply,SBD,M
Boys,82.1,9,Sebastian Gonzales,Los Fresnos,81.83,251.74,133.81,226.8,612.35,Single-ply,SBD,M
Boys,82.1,10,Julian Hernandez,McAllen Memorial,81.28,247.21,145.15,204.12,596.47,Single-ply,SBD,M
Boys,82.1,11,Eh Klo Htoo,Port Lavaca Calhoun,80.83,233.6,136.08,217.72,587.4,Single-ply,SBD,M
Boys,82.1,DQ,Oscar Mendoza,La Joya Palmview,81.37,,,,,Single-ply,SBD,M
Boys,82.1,DQ,Damian Hinojosa,Corpus Christi Calallen,79.83,229.06,147.42,,,Single-ply,SBD,M
Boys,89.81,1,Obed Hernandez,Sharyland Pioneer,88.72,285.76,165.56,272.16,723.48,Single-ply,SBD,M
Boys,89.81,2,Fred Cardenas,Weslaco East,89.09,272.16,154.22,247.21,673.58,Single-ply,SBD,M
Boys,89.81,3,Brandon Esteves,Brownsville Hanna,89.18,260.82,149.69,260.82,671.32,Single-ply,SBD,M
Boys,89.81,4,Ernesto Preciado,Pharr Valley View,89.45,254.01,156.49,233.6,644.1,Single-ply,SBD,M
Boys,89.81,5,Jaime Rios,Port Lavaca Calhoun,88.18,265.35,136.08,233.6,635.03,Single-ply,SBD,M
Boys,89.81,6,Manny Arguijo,Del Rio,88.36,244.94,151.95,238.14,635.03,Single-ply,SBD,M
Boys,89.81,7,Rey Salazar,Brownsville Veterans Memorial,89.18,249.48,142.88,242.67,635.03,Single-ply,SBD,M
Boys,89.81,8,Gabriel Salinas,Donna,88.54,254.01,140.61,226.8,621.42,Single-ply,SBD,M
Boys,89.81,DQ,Daniel Villarreal,La Joya,89.81,254.01,138.35,242.67,,Single-ply,SBD,M
Boys,89.81,DQ,Rene Cantu,Edinburg Vela,87.91,,,,,Single-ply,SBD,M
Boys,89.81,DQ,Jonas Garza,Brownsville Pace,87.91,240.4,147.42,,,Single-ply,SBD,M
Boys,89.81,DQ,Aaron Alvarez,PSJA North,86.36,,,,,Single-ply,SBD,M
Boys,99.79,1,Federico Ruiz Jr,Corpus Christi Calallen,98.7,312.98,170.1,306.17,789.25,Single-ply,SBD,M
Boys,99.79,2,Christian Oviedo,Victoria East,98.88,294.84,210.92,263.08,768.84,Single-ply,SBD,M
Boys,99.79,3,Mateo Garcia,San Antonio Memorial,99.43,290.3,145.15,258.55,694,Single-ply,SBD,M
Boys,99.79,4,Juan Flores,PSJA,98.34,272.16,183.7,229.06,684.92,Single-ply,SBD,M
Boys,99.79,5,Sylas Montgomery,Port Lavaca Calhoun,96.8,258.55,142.88,272.16,673.58,Single-ply,SBD,M
Boys,99.79,6,Nate Vallejo,Edcouch-Elsa,96.98,258.55,163.29,247.21,669.05,Single-ply,SBD,M
Boys,99.79,7,Eddie Hernandez,La Joya Juarez-Lincoln,97.43,263.08,158.76,235.87,657.71,Single-ply,SBD,M
Boys,99.79,8,Garrett Luensmann,Seguin,98.34,267.62,142.88,247.21,657.71,Single-ply,SBD,M
Boys,99.79,9,Joey Castillo,PSJA Southwest,98.25,263.08,145.15,240.4,648.64,Single-ply,SBD,M
Boys,99.79,10,Fernando Martinez,Brownsville Hanna,98.25,272.16,165.56,204.12,641.83,Single-ply,SBD,M
Boys,99.79,DQ,Jair Ibarra,Brownsville Lopez,99.79,256.28,,,,Single-ply,SBD,M
Boys,99.79,DQ,Sebastian Buitron,McAllen,98.7,265.35,,,,Single-ply,SBD,M
Boys,99.79,DQ,Joel Garcia,Pharr Valley View,98.7,254.01,,,,Single-ply,SBD,M
Boys,109.77,1,Cody Alvarado,Edcouch-Elsa,108.77,317.51,185.97,276.69,780.18,Single-ply,SBD,M
Boys,109.77,2,Jacob Banda,Weslaco East,109.5,306.17,172.37,285.76,764.3,Single-ply,SBD,M
Boys,109.77,3,Marcos Garza,Edinburg Economedes,106.78,290.3,183.7,276.69,750.7,Single-ply,SBD,M
Boys,109.77,4,Celestino Alvarez,Victoria East,102.33,299.37,151.95,251.74,703.07,Single-ply,SBD,M
Boys,109.77,5,Adrien Martinez,Brownsville Hanna,108.41,301.64,149.69,249.48,700.8,Single-ply,SBD,M
Boys,109.77,6,Oscar Juarez,Edinburg,107.77,278.96,197.31,213.19,689.46,Single-ply,SBD,M
Boys,109.77,7,Juan Martinez,La Joya Juarez-Lincoln,107.41,267.62,156.49,260.82,684.92,Single-ply,SBD,M
Boys,109.77,8,Keane Davis,Seguin,107.32,247.21,156.49,276.69,680.39,Single-ply,SBD,M
Boys,109.77,9,Jose Mendoza,Del Rio,107.95,274.42,170.1,235.87,680.39,Single-ply,SBD,M
Boys,109.77,10,Jorge Mortera,Corpus Christi Tuloso-Midway,107.77,265.35,165.56,238.14,669.05,Single-ply,SBD,M
Boys,109.77,11,Bryan Mosqueda,PSJA Southwest,107.41,256.28,151.95,235.87,644.1,Single-ply,SBD,M
Boys,109.77,DQ,Jonathan De Los Reyes,Brownsville Hanna,104.96,272.16,,,,Single-ply,SBD,M
Boys,124.74,1,Jorge Soto,Edcouch-Elsa,121.93,310.71,233.6,267.62,811.93,Single-ply,SBD,M
Boys,124.74,2,Justin Garza,Brownsville Rivera,122.47,351.53,158.76,294.84,805.13,Single-ply,SBD,M
Boys,124.74,3,Luis Salinas,Rio Grande City,122.92,276.69,183.7,290.3,750.7,Single-ply,SBD,M
Boys,124.74,4,Aliver Chapa,La Joya Juarez-Lincoln,118.75,292.57,197.31,254.01,743.89,Single-ply,SBD,M
Boys,124.74,5,Juan Rivas,La Joya Palmview,117.93,299.37,183.7,244.94,728.02,Single-ply,SBD,M
Boys,124.74,6,Imanol Rodriguez,Edcouch-Elsa,118.84,294.84,174.63,235.87,705.34,Single-ply,SBD,M
Boys,124.74,7,Caleb Zerrato,PSJA Memorial,113.13,297.1,151.95,254.01,703.07,Single-ply,SBD,M
Boys,124.74,8,Joshua Williams,Mission Sharyland,122.83,285.76,167.83,249.48,703.07,Single-ply,SBD,M
Boys,124.74,9,Myriel Jaramillo,Laredo Johnson,124.74,306.17,167.83,229.06,703.07,Single-ply,SBD,M
Boys,124.74,10,Juan LeBron,Port Lavaca Calhoun,124.65,281.23,149.69,233.6,664.51,Single-ply,SBD,M
Boys,124.74,DQ,Andrew Mendoza,Weslaco East,123.83,,,,,Single-ply,SBD,M
Boys,124.74,DQ,Juan Rodriguez,Rio Grande City,116.66,,,,,Single-ply,SBD,M
Boys,124.74+,1,Sebastian Garcia,Brownsville Hanna,136.89,312.98,204.12,254.01,771.11,Single-ply,SBD,M
Boys,124.74+,2,Arturo Ochoa,McAllen,137.08,308.44,206.38,254.01,768.84,Single-ply,SBD,M
Boys,124.74+,3,Daniel Roque,Weslaco East,154.4,306.17,172.37,272.16,750.7,Single-ply,SBD,M
Boys,124.74+,4,Julio Hernandez,Brownsville Pace,132.54,317.51,158.76,272.16,748.43,Single-ply,SBD,M
Boys,124.74+,5,Danny Melendez,Mercedes,126.64,297.1,170.1,258.55,725.75,Single-ply,SBD,M
Boys,124.74+,6,Leo Madera,Port Lavaca Calhoun,145.88,303.91,167.83,254.01,725.75,Single-ply,SBD,M
Boys,124.74+,7,Alex Rodriguez,La Joya,153.04,306.17,183.7,235.87,725.75,Single-ply,SBD,M
Boys,124.74+,8,Isaiah Allen,Corpus Christi Tuloso-Midway,129.46,299.37,151.95,256.28,707.6,Single-ply,SBD,M
Boys,124.74+,9,Gerardo Lopez,McAllen,132.72,299.37,217.72,185.97,703.07,Single-ply,SBD,M
Boys,124.74+,10,Joseph Rodriguez,Del Rio,162.48,249.48,174.63,258.55,682.66,Single-ply,SBD,M
Boys,124.74+,11,Sergio Reyna,McAllen Memorial,125.46,258.55,165.56,222.26,646.37,Single-ply,SBD,M
Boys,124.74+,DQ,Jose Tovar,PSJA Memorial,134.63,,,,,Single-ply,SBD,M
Boys,124.74+,DQ,Jorge Flores,San Antonio Memorial,153.04,,,,,Single-ply,SBD,M
Boys,,NS,Luis Sanchez,Pharr Valley View,,,,,,Single-ply,SBD,M
Boys,,NS,Robert Farias,Mission Sharyland,,,,,,Single-ply,SBD,M
Boys,,NS,Corbin Garza,Los Fresnos,,,,,,Single-ply,SBD,M
