Division,WeightClassKg,Place,Name,Team,BodyweightKg,Best3SquatKg,Best3BenchKg,Best3DeadliftKg,TotalKg,Equipment,Event,Sex
Boys,51.71,1,AJ Perez,Ben Bolt-Palito Blanco,51.62,136.08,90.72,147.42,374.21,Single-ply,SBD,M
Boys,51.71,2,Jose Hernandez,Corpus Christi West Oso,51.71,140.61,65.77,142.88,349.27,Single-ply,SBD,M
Boys,51.71,3,Isaac Martinez,Sinton,50.35,120.2,70.31,145.15,335.66,Single-ply,SBD,M
Boys,51.71,4,Juan Palomo,Rockport-Fulton,51.44,102.06,61.23,129.27,292.57,Single-ply,SBD,M
Boys,55.79,1,Brandon Canales,Benavides,55.61,156.49,88.45,176.9,421.84,Single-ply,SBD,M
Boys,55.79,2,Niko Munoz,Falfurrias,54.7,138.35,90.72,158.76,387.82,Single-ply,SBD,M
Boys,55.79,3,Austin Gonzalez,Robstown,55.79,120.2,74.84,133.81,328.85,Single-ply,SBD,M
Boys,55.79,4,Trey Nunez,Bishop,53.52,83.91,45.36,102.06,231.33,Single-ply,SBD,M
Boys,59.87,1,Richard Saenz,Hebbronville,59.87,217.72,117.93,201.85,537.51,Single-ply,SBD,M
Boys,59.87,2,Devin Cowen,Rockport-Fulton,59.69,142.88,72.57,185.97,401.43,Single-ply,SBD,M
Boys,59.87,3,Josue Tortu,Corpus Christi West Oso,58.97,161.03,77.11,158.76,396.89,Single-ply,SBD,M
Boys,59.87,4,Miguel Ramirez,Agua Dulce,56.52,163.29,72.57,158.76,394.63,Single-ply,SBD,M
Boys,59.87,5,John Robali,Robstown,59.15,158.76,81.65,136.08,376.48,Single-ply,SBD,M
Boys,59.87,DQ,Alex Ramirez,Falfurrias,59.87,151.95,,,,Single-ply,SBD,M
Boys,67.13,1,Arturo Reyna,Bishop,66.68,215.46,124.74,195.04,535.24,Single-ply,SBD,M
Boys,67.13,2,Daniel Tortu,Corpus Christi West Oso,63.96,208.65,113.4,181.44,503.49,Single-ply,SBD,M
Boys,67.13,3,Jose Maldonado,Falfurrias,62.51,174.63,113.4,185.97,474,Single-ply,SBD,M
Boys,67.13,4,Brandon Carballo,Hebbronville,63.41,170.1,88.45,174.63,433.18,Single-ply,SBD,M
Boys,67.13,5,Chase Bowers,Bishop,66.77,142.88,81.65,170.1,394.63,Single-ply,SBD,M
Boys,67.13,6,Cody Prather,Ben Bolt-Palito Blanco,65.95,147.42,68.04,174.63,390.09,Single-ply,SBD,M
Boys,67.13,7,Jacob Salinas,Agua Dulce,64.68,147.42,77.11,163.29,387.82,Single-ply,SBD,M
Boys,67.13,8,Damien Campos,Bishop,64.86,142.88,81.65,158.76,383.29,Single-ply,SBD,M
Boys,67.13,9,Aaron Saenz,Kingsville King,66.22,124.74,74.84,149.69,349.27,Single-ply,SBD,M
Boys,67.13,10,Jp Pruneda,Ben Bolt-Palito Blanco,66.95,131.54,74.84,136.08,342.46,Single-ply,SBD,M
Boys,67.13,DQ,Damion Diaz,Hebbronville,64.86,,,,,Single-ply,SBD,M
Boys,74.84,1,Nathaniel McRae,Hebbronville,68.04,183.7,102.06,210.92,496.68,Single-ply,SBD,M
Boys,74.84,2,Gustavo Gallardo,Mathis,74.84,192.78,106.59,190.51,489.88,Single-ply,SBD,M
Boys,74.84,3,Dale Baez,Hebbronville,68.95,167.83,90.72,147.42,405.97,Single-ply,SBD,M
Boys,74.84,4,Ryan Mixon,Bishop,73.48,136.08,61.23,149.69,347,Single-ply,SBD,M
Boys,74.84,DQ,Dylan Sharp,Sinton,67.59,158.76,,,,Single-ply,SBD,M
Boys,74.84,DQ,Tristian Perez,Ben Bolt-Palito Blanco,74.84,,,,,Single-ply,SBD,M
Boys,74.84,DQ,Dennis Guajardo,Benavides,74.39,188.24,,,,Single-ply,SBD,M
Boys,82.1,1,Alan Medrano,Bishop,81.92,217.72,138.35,226.8,582.87,Single-ply,SBD,M
Boys,82.1,2,Ithel Carrillo,Hebbronville,81.83,210.92,142.88,219.99,573.79,Single-ply,SBD,M
Boys,82.1,3,Connor Bowers,Bishop,77.66,213.19,136.08,213.19,562.45,Single-ply,SBD,M
Boys,82.1,4,Gilbert Mendez,Bishop,82.05,217.72,122.47,215.46,555.65,Single-ply,SBD,M
Boys,82.1,5,Brit Bowers,Bishop,80.1,183.7,131.54,222.26,537.51,Single-ply,SBD,M
Boys,82.1,6,Marcos Salas,Bishop,80.74,158.76,95.25,170.1,424.11,Single-ply,SBD,M
Boys,82.1,7,Joseph Dominguez,Taft,80.1,111.13,61.23,145.15,317.51,Single-ply,SBD,M
Boys,89.81,1,Barry Hernandez,Corpus Christi West Oso,89.81,274.42,156.49,249.48,680.39,Single-ply,SBD,M
Boys,89.81,2,Ray Saenz,Bishop,89.81,272.16,131.54,249.48,653.17,Single-ply,SBD,M
Boys,89.81,3,Chris Swartz,Agua Dulce,84.73,195.04,122.47,192.78,510.29,Single-ply,SBD,M
Boys,89.81,4,Gabriel Hernandez,Bishop,84.37,172.37,113.4,183.7,469.47,Single-ply,SBD,M
Boys,89.81,5,Manny Salazar,Refugio,85,145.15,97.52,204.12,446.79,Single-ply,SBD,M
Boys,89.81,6,Jona Vega,Kingsville King,85.46,163.29,113.4,156.49,433.18,Single-ply,SBD,M
Boys,89.81,7,Jonathon Gonzales,Taft,88.09,154.22,86.18,176.9,417.3,Single-ply,SBD,M
Boys,89.81,8,Mark Morin,Taft,83.1,106.59,77.11,142.88,326.59,Single-ply,SBD,M
Boys,89.81,DQ,Ryan De Los Santos,Robstown,89.81,,,,,Single-ply,SBD,M
Boys,99.79,1,Raul Fernandez,Rockport-Fulton,95.62,249.48,133.81,222.26,605.55,Single-ply,SBD,M
Boys,99.79,2,Eric Gutierrez,Robstown,98.61,238.14,136.08,222.26,596.47,Single-ply,SBD,M
Boys,99.79,3,Elias Cantu,Hebbronville,95.8,215.46,142.88,226.8,585.13,Single-ply,SBD,M
Boys,99.79,4,Ramon Vasquez,Bishop,99.79,208.65,106.59,215.46,530.7,Single-ply,SBD,M
Boys,99.79,DQ,Ryan Rasburry,Mathis,92.26,204.12,97.52,,,Single-ply,SBD,M
Boys,109.77,1,Joey Rodriguez,Corpus Christi West Oso,108.86,276.69,158.76,258.55,694,Single-ply,SBD,M
Boys,109.77,2,Jose Marquez,Hebbronville,109.77,267.62,147.42,244.94,659.98,Single-ply,SBD,M
Boys,109.77,3,Stevie Cardenas,Ingleside,107.05,222.26,131.54,215.46,569.26,Single-ply,SBD,M
Boys,109.77,4,Joey Garza,Falfurrias,106.41,238.14,111.13,190.51,539.77,Single-ply,SBD,M
Boys,109.77,5,Marcus Avitia,Ingleside,105.23,213.19,138.35,176.9,528.44,Single-ply,SBD,M
Boys,109.77,6,Jaime Gonzales,Taft,104.69,161.03,92.99,176.9,430.91,Single-ply,SBD,M
Boys,109.77,7,Leslie Tummons,Taft,102.51,113.4,72.57,142.88,328.85,Single-ply,SBD,M
Boys,109.77,DQ,Austin Kennemer,Agua Dulce,102.6,,,,,Single-ply,SBD,M
Boys,124.74,1,Trace Mascorro,Refugio,121.11,272.16,195.04,272.16,739.36,Single-ply,SBD,M
Boys,124.74+,1,Dustin Ramos,Sinton,128.82,260.82,156.49,226.8,644.1,Single-ply,SBD,M
Boys,124.74+,2,Kris Campos,Refugio,162.48,231.33,142.88,244.94,619.15,Single-ply,SBD,M
Boys,124.74+,3,Goliath Garcia,Agua Dulce,151.95,249.48,147.42,190.51,587.4,Single-ply,SBD,M
Boys,124.74+,4,Jon Rodriguez,Agua Dulce,130.73,242.67,131.54,174.63,548.85,Single-ply,SBD,M
Boys,,NS,Oscar Perez,Ben Bolt-Palito Blanco,,,,,,Single-ply,SBD,M
Boys,,NS,Ryan Saenz,Hebbronville,,,,,,Single-ply,SBD,M
Boys,,NS,Tristen Perez,Benavides,,,,,,Single-ply,SBD,M
Boys,,NS,Arnold Pena,Benavides,,,,,,Single-ply,SBD,M
Boys,,NS,Christopher Lytle,Benavides,,,,,,Single-ply,SBD,M
Boys,,NS,Chris Montemayor,Taft,,,,,,Single-ply,SBD,M
Boys,,NS,Darrion Willis,Refugio,,,,,,Single-ply,SBD,M
Boys,,NS,Arthur Morales,Refugio,,,,,,Single-ply,SBD,M
Boys,,NS,Felix Del Rio,Robstown,,,,,,Single-ply,SBD,M
