Division,WeightClassKg,Place,Name,Team,BodyweightKg,Best3SquatKg,Best3BenchKg,Best3DeadliftKg,TotalKg,Equipment,Event,Sex
Boys,51.71,1,Josue Leon,Sulphur Springs,49.9,133.81,74.84,176.9,385.55,Single-ply,SBD,M
Boys,51.71,2,Cassius Fitzpatrick,Denison,51.35,124.74,70.31,113.4,308.44,Single-ply,SBD,M
Boys,51.71,3,Daniel Sandoval,Farmersville,50.98,108.86,68.04,122.47,299.37,Single-ply,SBD,M
Boys,51.71,4,Axel Banks,Denison,51.35,106.59,72.57,104.33,283.5,Single-ply,SBD,M
Boys,51.71,5,Zach Kuntz,Rockwall,47.81,102.06,54.43,113.4,269.89,Single-ply,SBD,M
Boys,51.71,6,Hunter McDaniel,Caddo Mills,51.44,90.72,63.5,115.67,269.89,Single-ply,SBD,M
Boys,51.71,7,Yamil Acevedo,West Mesquite,51.17,97.52,49.9,115.67,263.08,Single-ply,SBD,M
Boys,51.71,8,Billy McMahon,Farmersville,47.99,99.79,58.97,102.06,260.82,Single-ply,SBD,M
Boys,51.71,9,Nick Runnels,Garland Rowlett,51.17,83.91,43.09,102.06,229.06,Single-ply,SBD,M
Boys,51.71,10,Trent Maxwell,Caddo Mills,43.54,58.97,36.29,68.04,163.29,Single-ply,SBD,M
Boys,55.79,1,DeArius Mitchell,Greenville,54.07,136.08,61.23,140.61,337.93,Single-ply,SBD,M
Boys,55.79,2,Matt Castillo,North Mesquite,55.79,120.2,68.04,142.88,331.12,Single-ply,SBD,M
Boys,59.87,3,Luis Gamez,Sulphur Springs,55.97,120.2,74.84,129.27,324.32,Single-ply,SBD,M
Boys,55.79,4,Giovanni Ortiz,West Mesquite,54.88,108.86,58.97,111.13,278.96,Single-ply,SBD,M
Boys,55.79,5,Jacob Wantroba,Denison,55.16,111.13,70.31,97.52,278.96,Single-ply,SBD,M
Boys,59.87,6,Simon Lafond,Garland Rowlett,55.88,102.06,61.23,113.4,276.69,Single-ply,SBD,M
Boys,55.79,DQ,A. Payton,Rockwall-Heath,55.79,,,,,Single-ply,SBD,M
Boys,59.87,1,Robert Landers,Royse City,59.06,154.22,90.72,181.44,426.38,Single-ply,SBD,M
Boys,59.87,2,Zach Poindexter,Rockwall,58.79,149.69,97.52,165.56,412.77,Single-ply,SBD,M
Boys,59.87,3,K Collier,South Garland,58.79,149.69,88.45,163.29,401.43,Single-ply,SBD,M
Boys,59.87,4,Corey Chappell,Garland Rowlett,59.24,147.42,88.45,158.76,394.63,Single-ply,SBD,M
Boys,59.87,5,Jose Rangel,Farmersville,59.69,147.42,97.52,149.69,394.63,Single-ply,SBD,M
Boys,67.13,6,Marcelino Montano,Wills Point,60.1,117.93,83.91,142.88,344.73,Single-ply,SBD,M
Boys,59.87,7,Jose Montano,Wills Point,59.06,124.74,72.57,140.61,337.93,Single-ply,SBD,M
Boys,59.87,8,R Onderdonk,South Garland,59.33,108.86,83.91,142.88,335.66,Single-ply,SBD,M
Boys,59.87,9,Christian Aguirre,Greenville,58.97,113.4,61.23,140.61,315.25,Single-ply,SBD,M
Boys,59.87,10,Jordan Fisher,Caddo Mills,57.97,92.99,70.31,136.08,299.37,Single-ply,SBD,M
Boys,74.84,1,Johnathon Carlisle,Sulphur Springs,67.36,188.24,113.4,195.04,496.68,Single-ply,SBD,M
Boys,67.13,2,Collin Rodgers,Farmersville,65.77,181.44,124.74,165.56,471.74,Single-ply,SBD,M
Boys,67.13,3,Alfred Champion,Greenville,61.23,185.97,99.79,170.1,455.86,Single-ply,SBD,M
Boys,67.13,4,Anthony Wagner,Garland Rowlett,66.04,136.08,106.59,165.56,408.23,Single-ply,SBD,M
Boys,67.13,5,Dakota Thomas,Denison,65.59,149.69,92.99,163.29,405.97,Single-ply,SBD,M
Boys,67.13,6,David Eacret,Greenville,65.59,151.95,86.18,156.49,394.63,Single-ply,SBD,M
Boys,67.13,7,Charles Canaday,Mesquite Poteet,66.41,142.88,83.91,163.29,390.09,Single-ply,SBD,M
Boys,67.13,8,Alex Ramsey,Royse City,65.59,145.15,88.45,154.22,387.82,Single-ply,SBD,M
Boys,67.13,9,B. Armstrong,Rockwall-Heath,61.69,136.08,99.79,147.42,383.29,Single-ply,SBD,M
Boys,67.13,10,Gerardo Romo,North Mesquite,63.96,136.08,97.52,149.69,383.29,Single-ply,SBD,M
Boys,67.13,11,Logan Young,Wills Point,63.59,136.08,68.04,147.42,351.53,Single-ply,SBD,M
Boys,67.13,12,Jacob Tilliett,Caddo Mills,64.05,129.27,74.84,140.61,344.73,Single-ply,SBD,M
Boys,67.13,13,David Block,Denison,64.86,129.27,79.38,136.08,344.73,Single-ply,SBD,M
Boys,67.13,14,Devien Fuentes,Sulphur Springs,60.51,115.67,74.84,133.81,324.32,Single-ply,SBD,M
Boys,67.13,15,Eric Stanfield,Greenville,60.96,124.74,74.84,124.74,324.32,Single-ply,SBD,M
Boys,67.13,16,Isreal Hernandez,Mesquite Poteet,65.95,102.06,68.04,140.61,310.71,Single-ply,SBD,M
Boys,67.13,17,Mason Lowrimore,Garland Rowlett,62.14,102.06,79.38,127.01,308.44,Single-ply,SBD,M
Boys,67.13,18,Irvin Olvera,West Mesquite,67.04,120.2,74.84,113.4,308.44,Single-ply,SBD,M
Boys,67.13,19,Jb Johnson,North Mesquite,63.05,102.06,65.77,136.08,303.91,Single-ply,SBD,M
Boys,67.13,DQ,Ben Bittle,Rockwall,66.95,,,,,Single-ply,SBD,M
Boys,67.13,DQ,Ernesto Franco,Royse City,67.13,,,,,Single-ply,SBD,M
Boys,67.13,DQ,Sjon Gardner,Farmersville,67.13,,,,,Single-ply,SBD,M
Boys,74.84,1,Caleb Skahan,Caddo Mills,72.94,217.72,127.01,213.19,557.92,Single-ply,SBD,M
Boys,74.84,2,Austin Martin #3,Greenville,73.03,217.72,136.08,204.12,557.92,Single-ply,SBD,M
Boys,74.84,3,Marcus Newby,Caddo Mills,69.94,195.04,108.86,204.12,508.02,Single-ply,SBD,M
Boys,74.84,4,D. Young,Rockwall-Heath,74.39,183.7,124.74,199.58,508.02,Single-ply,SBD,M
Boys,74.84,5,Tony Rioz,Greenville,73.03,176.9,136.08,154.22,467.2,Single-ply,SBD,M
Boys,82.1,6,Trey Adair,Sulphur Springs,74.93,179.17,106.59,179.17,464.93,Single-ply,SBD,M
Boys,74.84,7,Dq Anderson,South Garland,74.57,149.69,111.13,170.1,430.91,Single-ply,SBD,M
Boys,74.84,8,M. Johnson,South Garland,72.76,158.76,104.33,151.95,415.04,Single-ply,SBD,M
Boys,74.84,9,Trevor White,Greenville,73.75,163.29,95.25,156.49,415.04,Single-ply,SBD,M
Boys,74.84,10,Bryan Tucker,Wills Point,73.84,145.15,108.86,149.69,403.7,Single-ply,SBD,M
Boys,74.84,11,Jay Mendoza,West Mesquite,73.3,147.42,102.06,102.06,351.53,Single-ply,SBD,M
Boys,74.84,12,Regalado Anthony,Wills Point,74.84,117.93,74.84,151.95,344.73,Single-ply,SBD,M
Boys,74.84,13,Dra'Lyne Ricks,North Mesquite,74.3,136.08,92.99,113.4,342.46,Single-ply,SBD,M
Boys,74.84,14,Jose Ruiz,Mesquite Poteet,69.22,88.45,83.91,117.93,290.3,Single-ply,SBD,M
Boys,74.84,DQ,Tanner McMillian,Royse City,70.49,97.52,,,,Single-ply,SBD,M
Boys,74.84,DQ,M McNac,South Garland,69.49,,,,,Single-ply,SBD,M
Boys,74.84,DQ,Manuel Barron,Denison,74.84,,,,,Single-ply,SBD,M
Boys,89.81,1,Joe Scott,Sulphur Springs,82.19,242.67,145.15,226.8,614.62,Single-ply,SBD,M
Boys,89.81,2,F. Barron,Rockwall-Heath,82.33,226.8,131.54,217.72,576.06,Single-ply,SBD,M
Boys,82.1,3,Austin Arnold,Denison,81.47,201.85,149.69,219.99,571.53,Single-ply,SBD,M
Boys,82.1,4,Courtland Smith,West Mesquite,79.47,197.31,108.86,192.78,498.95,Single-ply,SBD,M
Boys,82.1,5,Jimmy Hill,Caddo Mills,81.19,201.85,111.13,172.37,485.34,Single-ply,SBD,M
Boys,89.81,6,Jamie Tolliver,Mesquite Poteet,82.19,174.63,106.59,204.12,485.34,Single-ply,SBD,M
Boys,82.1,7,Austin Vanloon,Garland Rowlett,77.34,183.7,95.25,195.04,474,Single-ply,SBD,M
Boys,82.1,8,Garret Fikes,Rockwall,80.2,172.37,129.27,165.56,467.2,Single-ply,SBD,M
Boys,82.1,9,Blake Glenn,Garland Rowlett,81.19,176.9,99.79,183.7,460.4,Single-ply,SBD,M
Boys,82.1,10,Max Noriega,Greenville,77.29,163.29,106.59,181.44,451.32,Single-ply,SBD,M
Boys,82.1,11,Darrius Payne-Edwards,West Mesquite,77.56,197.31,83.91,158.76,439.98,Single-ply,SBD,M
Boys,82.1,12,E. Mayfield,Rockwall-Heath,81.65,147.42,95.25,197.31,439.98,Single-ply,SBD,M
Boys,82.1,13,C. Salvato,Rockwall-Heath,76.2,149.69,99.79,188.24,437.72,Single-ply,SBD,M
Boys,89.81,14,Joel Dunn,Royse City,82.28,181.44,97.52,158.76,437.72,Single-ply,SBD,M
Boys,82.1,15,Anthony Cortez,North Mesquite,78.02,129.27,90.72,210.92,430.91,Single-ply,SBD,M
Boys,82.1,16,Frank Crawford,Mesquite Poteet,80.38,149.69,108.86,172.37,430.91,Single-ply,SBD,M
Boys,82.1,17,Elijah Huntley,Royse City,81.92,129.27,86.18,151.95,367.41,Single-ply,SBD,M
Boys,82.1,DQ,Dq McKenna,South Garland,81.65,,,,,Single-ply,SBD,M
Boys,82.1,DQ,Preston Nelson,Farmersville,82.1,,,,,Single-ply,SBD,M
Boys,89.81,1,Matt Cortez,Royse City,88.63,235.87,145.15,226.8,607.81,Single-ply,SBD,M
Boys,89.81,2,Tom Nguyen,Garland Rowlett,82.92,188.24,124.74,231.33,544.31,Single-ply,SBD,M
Boys,89.81,3,Chris Johnson,Wills Point,85.09,185.97,145.15,199.58,530.7,Single-ply,SBD,M
Boys,89.81,4,DeVante Buchanan,Greenville,85.91,197.31,108.86,206.38,512.56,Single-ply,SBD,M
Boys,89.81,5,Eddie Alcantor,West Mesquite,86.18,190.51,140.61,181.44,512.56,Single-ply,SBD,M
Boys,89.81,6,Jacob Aguirre,Rockwall,89.18,174.63,111.13,199.58,485.34,Single-ply,SBD,M
Boys,89.81,7,Calvin Estrada,Garland Rowlett,88,190.51,108.86,179.17,478.54,Single-ply,SBD,M
Boys,89.81,8,H. Rogers,Rockwall-Heath,89.45,183.7,120.2,170.1,474,Single-ply,SBD,M
Boys,89.81,9,J. Lopez,South Garland,86.64,149.69,113.4,190.51,453.59,Single-ply,SBD,M
Boys,89.81,10,Ryan Boyd,North Mesquite,88,174.63,99.79,163.29,437.72,Single-ply,SBD,M
Boys,99.79,11,Chance Hamilton,Greenville,89.9,158.76,102.06,172.37,433.18,Single-ply,SBD,M
Boys,89.81,12,Thomas Johnson,Royse City,84.28,172.37,97.52,161.03,430.91,Single-ply,SBD,M
Boys,89.81,13,Sam Rushing,Royse City,84.64,154.22,106.59,154.22,415.04,Single-ply,SBD,M
Boys,89.81,14,M. Cruz,South Garland,85.91,151.95,102.06,161.03,415.04,Single-ply,SBD,M
Boys,89.81,15,Jarred Loftis,Royse City,89.81,142.88,70.31,147.42,360.61,Single-ply,SBD,M
Boys,89.81,DQ,Lewis Nathan,Wills Point,85.55,,,,,Single-ply,SBD,M
Boys,89.81,DQ,Nick Akins,West Mesquite,89.81,,,,,Single-ply,SBD,M
Boys,89.81,DQ,Ricky Blagburn,West Mesquite,83.46,163.29,104.33,,,Single-ply,SBD,M
Boys,89.81,DQ,G. Walker,Rockwall-Heath,85,226.8,,,,Single-ply,SBD,M
Boys,99.79,1,Azees Adewale,West Mesquite,99.79,217.72,127.01,215.46,560.19,Single-ply,SBD,M
Boys,99.79,2,Clay Eppler,Denison,99.06,199.58,120.2,204.12,523.9,Single-ply,SBD,M
Boys,99.79,3,Truett Lewis,Wills Point,98.43,188.24,129.27,192.78,510.29,Single-ply,SBD,M
Boys,99.79,4,Antun Milton,Sulphur Springs,99.61,190.51,113.4,204.12,508.02,Single-ply,SBD,M
Boys,99.79,5,Jaden Stumbaugh,Denison,98.7,174.63,122.47,195.04,492.15,Single-ply,SBD,M
Boys,99.79,6,Seth Savage,Sulphur Springs,90.99,179.17,124.74,176.9,480.81,Single-ply,SBD,M
Boys,99.79,7,Darrion McQueen,Royse City,99.43,158.76,104.33,165.56,428.64,Single-ply,SBD,M
Boys,99.79,8,Cody Huggins,Wills Point,95.8,174.63,90.72,158.76,424.11,Single-ply,SBD,M
Boys,99.79,9,Tyler Brown,North Mesquite,96.52,161.03,86.18,142.88,390.09,Single-ply,SBD,M
Boys,99.79,10,George Green,Mesquite Poteet,97.52,142.88,95.25,147.42,385.55,Single-ply,SBD,M
Boys,99.79,11,Cody Rowland,Wills Point,96.98,147.42,88.45,145.15,381.02,Single-ply,SBD,M
Boys,99.79,DQ,Christian Crook,Rockwall,99.79,,,,,Single-ply,SBD,M
Boys,99.79,DQ,Brodie Howell,Royse City,99.79,,,,,Single-ply,SBD,M
Boys,109.77,1,Damion Foster,Royse City,108.14,235.87,147.42,226.8,610.08,Single-ply,SBD,M
Boys,109.77,2,Jose Ramirez,Royse City,107.5,244.94,145.15,204.12,594.21,Single-ply,SBD,M
Boys,109.77,3,I. Higgbee,Rockwall-Heath,106.14,226.8,120.2,222.26,569.26,Single-ply,SBD,M
Boys,124.74,4,Ladarian James,West Mesquite,109.95,224.53,120.2,210.92,555.65,Single-ply,SBD,M
Boys,109.77,5,Britain Lane,Greenville,109.32,170.1,145.15,195.04,510.29,Single-ply,SBD,M
Boys,109.77,6,Matthew Martinez,North Mesquite,102.87,192.78,113.4,190.51,496.68,Single-ply,SBD,M
Boys,109.77,7,Trevino Ray,Mesquite Poteet,108.5,181.44,115.67,190.51,487.61,Single-ply,SBD,M
Boys,109.77,8,Ryan Ramirez,Rockwall,103.96,197.31,106.59,163.29,467.2,Single-ply,SBD,M
Boys,109.77,9,X Calderon,South Garland,105.41,154.22,117.93,172.37,444.52,Single-ply,SBD,M
Boys,109.77,10,Boswell Devin,Wills Point,100.79,142.88,95.25,161.03,399.16,Single-ply,SBD,M
Boys,109.77,11,Hunter Smith,Greenville,104.24,145.15,97.52,151.95,394.63,Single-ply,SBD,M
Boys,109.77,12,Oswaldo Casteneda,Royse City,106.41,136.08,83.91,147.42,367.41,Single-ply,SBD,M
Boys,109.77,DQ,Roger Chavez,Royse City,102.51,,,,,Single-ply,SBD,M
Boys,124.74,DQ,Markeith Thomas,West Mesquite,109.95,260.82,120.2,,,Single-ply,SBD,M
Boys,109.77,DQ,Victor Lopez,Mesquite Poteet,109.77,,,,,Single-ply,SBD,M
Boys,109.77,DQ,Shelbie Anderson,Caddo Mills,109.77,,,,,Single-ply,SBD,M
Boys,124.74,1,Connor Counce,Denison,112.94,256.28,138.35,231.33,625.96,Single-ply,SBD,M
Boys,124.74,2,J. Holiman,Rockwall-Heath,116.12,226.8,124.74,235.87,587.4,Single-ply,SBD,M
Boys,124.74,3,Branden Blain,Caddo Mills,119.29,235.87,147.42,190.51,573.79,Single-ply,SBD,M
Boys,124.74,4,Chad Evans,Sulphur Springs,110.5,183.7,131.54,195.04,510.29,Single-ply,SBD,M
Boys,124.74,5,Rod Haynes,Mesquite Poteet,124.28,188.24,127.01,188.24,503.49,Single-ply,SBD,M
Boys,124.74,6,Preston Bass,Mesquite Poteet,119.48,188.24,129.27,183.7,501.22,Single-ply,SBD,M
Boys,124.74,7,Jack Willeford,Farmersville,122.65,192.78,120.2,188.24,501.22,Single-ply,SBD,M
Boys,124.74,8,Joel Lopez,Farmersville,119.2,206.38,106.59,185.97,498.95,Single-ply,SBD,M
Boys,124.74+,9,Z. Taylor,South Garland,124.96,183.7,127.01,165.56,476.27,Single-ply,SBD,M
Boys,124.74,10,Jeremy Khuu,North Mesquite,121.29,183.7,102.06,188.24,474,Single-ply,SBD,M
Boys,124.74,11,Chandler Layer,Garland Rowlett,119.29,174.63,102.06,192.78,469.47,Single-ply,SBD,M
Boys,124.74,12,Conrad Carbo,Mesquite Poteet,120.56,161.03,120.2,170.1,451.32,Single-ply,SBD,M
Boys,124.74,13,Jorge Rodriguez,Greenville,114.85,165.56,102.06,181.44,449.06,Single-ply,SBD,M
Boys,124.74,DQ,James Stumbaugh,Denison,124.74,,,,,Single-ply,SBD,M
Boys,124.74,DQ,Payden McBee,Rockwall,124.74,,,,,Single-ply,SBD,M
Boys,124.74+,1,S Langley,South Garland,132.81,272.16,140.61,215.46,628.23,Single-ply,SBD,M
Boys,124.74+,2,Chris Tanner,Rockwall,141.97,233.6,154.22,226.8,614.62,Single-ply,SBD,M
Boys,124.74+,3,Ethan Boatman,Sulphur Springs,148.05,235.87,158.76,210.92,605.55,Single-ply,SBD,M
Boys,124.74+,4,Chris Whitaker,Caddo Mills,133.54,226.8,129.27,190.51,546.58,Single-ply,SBD,M
Boys,124.74+,5,Brian Gutierrez,Garland Rowlett,151.5,222.26,113.4,204.12,539.77,Single-ply,SBD,M
Boys,124.74+,6,Josh Peterson,North Mesquite,131,210.92,113.4,190.51,514.83,Single-ply,SBD,M
Boys,124.74+,7,Isaiah Smith,Caddo Mills,134.63,154.22,92.99,142.88,390.09,Single-ply,SBD,M
Boys,124.74+,DQ,Chase Cadena,Sulphur Springs,125.19,,,,,Single-ply,SBD,M
