Division,WeightClassKg,Place,Name,Team,BodyweightKg,Best3SquatKg,Best3BenchKg,Best3DeadliftKg,TotalKg,Equipment,Event,Sex
Boys,51.71,1,Jace Lindsay,Beckville,50.53,104.33,70.31,124.74,299.37,Single-ply,SBD,M
Boys,51.71,2,Kyler Snell,Grapeland,50.17,92.99,54.43,102.06,249.48,Single-ply,SBD,M
Boys,51.71,3,Preston Matlock,Tyler,46.72,61.23,43.09,70.31,174.63,Single-ply,SBD,M
Boys,51.71,4,Carter Allen,Elkhart,50.44,102.06,54.43,,156.49,Single-ply,SB,M
Boys,55.79,1,Mykal Vera,Corrigan-Camden,55.79,154.22,79.38,154.22,387.82,Single-ply,SBD,M
Boys,55.79,2,Ryan Hammack,Elkhart,54.88,122.47,72.57,138.35,333.39,Single-ply,SBD,M
Boys,55.79,3,Nathaniel Hall,Athens,55.79,131.54,68.04,122.47,322.05,Single-ply,SBD,M
Boys,55.79,4,Jaren Santoyo,Corrigan-Camden,53.61,95.25,58.97,115.67,269.89,Single-ply,SBD,M
Boys,55.79,5,Mardreus Ward,Tyler,52.07,70.31,56.7,99.79,226.8,Single-ply,SBD,M
Boys,55.79,6,Dylan Collins,Beckville,54.7,79.38,40.82,90.72,210.92,Single-ply,SBD,M
Boys,55.79,DQ,Mark Hanna,Grapeland,55.34,,,,,Single-ply,SBD,M
Boys,59.87,1,Richard Rodriguez,Whitehouse,56.97,136.08,79.38,147.42,362.87,Single-ply,SBD,M
Boys,59.87,2,Colton LaPrarr,Elkhart,59.87,122.47,56.7,111.13,290.3,Single-ply,SBD,M
Boys,59.87,3,Caleb Clemmons,Athens,59.87,142.88,81.65,,224.53,Single-ply,SB,M
Boys,67.13,1,Coy Elton,Frankston,65.59,170.1,104.33,183.7,458.13,Single-ply,SBD,M
Boys,67.13,2,Ashton Strange,Beckville,64.86,167.83,95.25,181.44,444.52,Single-ply,SBD,M
Boys,67.13,3,JJ Beckfield,Frankston,64.77,161.03,95.25,181.44,437.72,Single-ply,SBD,M
Boys,67.13,4,Noble Giles,Frankston,60.6,145.15,97.52,176.9,419.57,Single-ply,SBD,M
Boys,67.13,5,Cannon Churchman,Palestine Westwood,60.24,172.37,86.18,142.88,401.43,Single-ply,SBD,M
Boys,67.13,6,Scotty Eldridge,Elkhart,65.41,131.54,77.11,142.88,351.53,Single-ply,SBD,M
Boys,67.13,7,John Davis,Elkhart,64.32,111.13,63.5,136.08,310.71,Single-ply,SBD,M
Boys,67.13,8,Coleman Gilbreath,Palestine Westwood,62.78,117.93,45.36,106.59,269.89,Single-ply,SBD,M
Boys,74.84,1,Brendan Alexander,Pollok Central,72.94,188.24,108.86,199.58,496.68,Single-ply,SBD,M
Boys,74.84,2,Kobi Poage,Corrigan-Camden,73.39,188.24,113.4,190.51,492.15,Single-ply,SBD,M
Boys,74.84,3,JD Prince,Beckville,68.13,181.44,99.79,188.24,469.47,Single-ply,SBD,M
Boys,74.84,4,Camden Sellars,Elkhart,74.03,181.44,92.99,190.51,464.93,Single-ply,SBD,M
Boys,74.84,5,Dekylin Hoyt,Center,74.12,165.56,113.4,170.1,449.06,Single-ply,SBD,M
Boys,74.84,6,Fabian Marquez,Elkhart,74.66,174.63,81.65,176.9,433.18,Single-ply,SBD,M
Boys,74.84,7,Aj Singleton,Tatum,73.57,163.29,92.99,170.1,426.38,Single-ply,SBD,M
Boys,74.84,8,Milo Morrison,Beckville,70.03,158.76,95.25,165.56,419.57,Single-ply,SBD,M
Boys,74.84,9,Gavin French,Grapeland,72.57,158.76,79.38,172.37,410.5,Single-ply,SBD,M
Boys,74.84,10,Caleb Ridgeway,Shelbyville,69.67,142.88,83.91,181.44,408.23,Single-ply,SBD,M
Boys,74.84,11,Justin Birch,Frankston,72.39,142.88,88.45,156.49,387.82,Single-ply,SBD,M
Boys,74.84,12,Dorian Jones,Warren,72.3,142.88,88.45,147.42,378.75,Single-ply,SBD,M
Boys,74.84,13,Matt Durham,Corrigan-Camden,69.22,92.99,52.16,113.4,258.55,Single-ply,SBD,M
Boys,82.1,1,Brayden Bulman,Whitehouse,81.92,226.8,131.54,233.6,591.94,Single-ply,SBD,M
Boys,82.1,2,Byron Johnson #1,Rusk,80.92,213.19,124.74,226.8,564.72,Single-ply,SBD,M
Boys,82.1,3,Jesus Bravo,Joaquin,78.74,204.12,127.01,204.12,535.24,Single-ply,SBD,M
Boys,82.1,4,Chaez Spurlock,Whitehouse,77.02,195.04,133.81,192.78,521.63,Single-ply,SBD,M
Boys,82.1,5,Sean Rogers,Rusk,81.01,165.56,120.2,195.04,480.81,Single-ply,SBD,M
Boys,82.1,6,Joshua Ferar,Whitehouse,81.74,174.63,106.59,188.24,469.47,Single-ply,SBD,M
Boys,82.1,7,James Greenalch,New London West Rusk,75.02,154.22,117.93,183.7,455.86,Single-ply,SBD,M
Boys,82.1,8,Dawson McFadden,Joaquin,77.47,156.49,102.06,188.24,446.79,Single-ply,SBD,M
Boys,82.1,9,Zach Clark,Shelbyville,78.02,158.76,83.91,181.44,424.11,Single-ply,SBD,M
Boys,82.1,10,Justin Vaughan,Pollok Central,78.11,158.76,86.18,179.17,424.11,Single-ply,SBD,M
Boys,82.1,11,Marco Martínez,Corrigan-Camden,79.74,170.1,90.72,163.29,424.11,Single-ply,SBD,M
Boys,82.1,12,Qudarian McMiller,Tyler,78.74,158.76,102.06,158.76,419.57,Single-ply,SBD,M
Boys,82.1,13,Cayden Adkinson,Joaquin,79.38,142.88,92.99,158.76,394.63,Single-ply,SBD,M
Boys,82.1,14,Caleb Bolay,Whitehouse,78.2,136.08,90.72,158.76,385.55,Single-ply,SBD,M
Boys,82.1,15,Jeremiah Edwards,New London West Rusk,76.38,147.42,79.38,145.15,371.95,Single-ply,SBD,M
Boys,82.1,16,Dylan Robbins,Shelbyville,79.29,117.93,77.11,158.76,353.8,Single-ply,SBD,M
Boys,82.1,17,Dustin Knight,Warren,76.48,113.4,,133.81,247.21,Single-ply,SD,M
Boys,89.81,1,Ryan Lindsay,Elkhart,86.09,278.96,158.76,258.55,696.26,Single-ply,SBD,M
Boys,89.81,2,Klayton House,Athens,89.54,215.46,127.01,183.7,526.17,Single-ply,SBD,M
Boys,89.81,3,Jacob Forsythe,Pollok Central,82.46,197.31,117.93,195.04,510.29,Single-ply,SBD,M
Boys,89.81,4,Jackson Rogers,Rusk,87.91,192.78,102.06,204.12,498.95,Single-ply,SBD,M
Boys,89.81,5,Kaleb Murray,Pollok Central,83.91,142.88,97.52,181.44,421.84,Single-ply,SBD,M
Boys,89.81,6,Jaden Crutcher,Palestine Westwood,88.9,156.49,99.79,163.29,419.57,Single-ply,SBD,M
Boys,89.81,7,Mathew Moody,Corrigan-Camden,87.91,136.08,88.45,147.42,371.95,Single-ply,SBD,M
Boys,89.81,8,Jt Herndon,Palestine Westwood,83.28,165.56,,163.29,328.85,Single-ply,SD,M
Boys,89.81,9,Ramiro Reyes,Shelbyville,88.81,117.93,54.43,133.81,306.17,Single-ply,SBD,M
Boys,99.79,1,Nathan Sims,Athens,98.79,249.48,113.4,226.8,589.67,Single-ply,SBD,M
Boys,99.79,2,Kadarian Asbell,Tyler,95.89,217.72,140.61,226.8,585.13,Single-ply,SBD,M
Boys,99.79,3,Kade Elliott,Corrigan-Camden,92.08,219.99,124.74,229.06,573.79,Single-ply,SBD,M
Boys,99.79,4,Caleb Pittman,Whitehouse,98.52,185.97,106.59,151.95,444.52,Single-ply,SBD,M
Boys,99.79,5,Collin Stanley,Warren,94.71,174.63,97.52,165.56,437.72,Single-ply,SBD,M
Boys,99.79,6,Jacob Nugent,Elkhart,99.43,156.49,104.33,172.37,433.18,Single-ply,SBD,M
Boys,99.79,7,Abram Hairgrove,Beckville,98.97,170.1,88.45,158.76,417.3,Single-ply,SBD,M
Boys,99.79,8,Colter Klingler,Beckville,91.63,167.83,,,167.83,Single-ply,S,M
Boys,109.77,1,Nick Acker,Rusk,107.5,249.48,124.74,206.38,580.6,Single-ply,SBD,M
Boys,109.77,2,Johnathan Housley,Whitehouse,104.51,204.12,136.08,222.26,562.45,Single-ply,SBD,M
Boys,109.77,3,Juan Perez,Frankston,100.61,192.78,113.4,229.06,535.24,Single-ply,SBD,M
Boys,109.77,4,Parker Mizell,New London West Rusk,103.69,197.31,124.74,213.19,535.24,Single-ply,SBD,M
Boys,109.77,5,Jeremiah Juarez,Warren,107.23,192.78,122.47,192.78,508.02,Single-ply,SBD,M
Boys,109.77,6,Eli Taylor,Shelbyville,105.32,192.78,102.06,188.24,483.08,Single-ply,SBD,M
Boys,109.77,7,Lane Gilchrest,Rusk,100.97,181.44,90.72,176.9,449.06,Single-ply,SBD,M
Boys,109.77,8,Raul Cazares,Elkhart,100.88,163.29,81.65,172.37,417.3,Single-ply,SBD,M
Boys,109.77,9,Ty Merriman,Shelbyville,100.79,165.56,90.72,147.42,403.7,Single-ply,SBD,M
Boys,109.77,10,Tanner Ross,Pollok Central,104.24,151.95,90.72,158.76,401.43,Single-ply,SBD,M
Boys,109.77,11,Jess Shows,Corrigan-Camden,108.23,147.42,79.38,170.1,396.89,Single-ply,SBD,M
Boys,109.77,12,Randall Shivers,Beckville,100.7,120.2,81.65,149.69,351.53,Single-ply,SBD,M
Boys,109.77,13,Dawson Jackson,Shelbyville,103.96,124.74,70.31,129.27,324.32,Single-ply,SBD,M
Boys,109.77,14,Hunter Martin,Athens,106.41,181.44,,,181.44,Single-ply,S,M
Boys,109.77,DQ,Jacob Driver,New London West Rusk,107.23,,,,,Single-ply,SBD,M
Boys,124.74,1,Kyler Loftin,Warren,114.76,283.5,147.42,231.33,662.24,Single-ply,SBD,M
Boys,124.74,2,Jaden Turner,Rusk,120.56,251.74,120.2,238.14,610.08,Single-ply,SBD,M
Boys,124.74,3,Weldon Brooks,Elkhart,121.83,233.6,147.42,229.06,610.08,Single-ply,SBD,M
Boys,124.74,4,Tristan Cuevas,Corrigan-Camden,122.74,208.65,120.2,208.65,537.51,Single-ply,SBD,M
Boys,124.74,5,Anthony Hill,Athens,116.3,204.12,122.47,208.65,535.24,Single-ply,SBD,M
Boys,124.74,6,Kimbrick McCaney,Tyler,111.58,213.19,124.74,185.97,523.9,Single-ply,SBD,M
Boys,124.74,7,Lance Deal,Whitehouse,110.31,183.7,120.2,197.31,501.22,Single-ply,SBD,M
Boys,124.74,8,Orlando Ramirez,Corrigan-Camden,113.4,208.65,97.52,192.78,498.95,Single-ply,SBD,M
Boys,124.74,9,Caleb Powers,Whitehouse,124.19,158.76,99.79,174.63,433.18,Single-ply,SBD,M
Boys,124.74,10,Bryce Sweeny,Elkhart,115.94,145.15,74.84,170.1,390.09,Single-ply,SBD,M
Boys,124.74,11,Jason Declueete,Grapeland,124.28,142.88,79.38,154.22,376.48,Single-ply,SBD,M
Boys,124.74+,1,Jermaine Lewis,Rusk,131.9,285.76,138.35,272.16,696.26,Single-ply,SBD,M
Boys,124.74+,2,Garrett Blaylock,Rusk,133.27,276.69,138.35,256.28,671.32,Single-ply,SBD,M
Boys,124.74+,3,Tj Fagan,Tatum,167.83,247.21,136.08,233.6,616.89,Single-ply,SBD,M
Boys,124.74+,4,Ashton Williams,Tyler,151.77,222.26,138.35,185.97,546.58,Single-ply,SBD,M
Boys,124.74+,5,LaTravion Hawkins,Tyler,133.81,213.19,138.35,181.44,532.97,Single-ply,SBD,M
Boys,124.74+,6,Sam Turner,Whitehouse,140.89,170.1,113.4,204.12,487.61,Single-ply,SBD,M
Boys,124.74+,7,Aaron Smith,Corrigan-Camden,150.5,213.19,111.13,158.76,483.08,Single-ply,SBD,M
Boys,124.74+,8,Ja'Christopher Crawford,Center,125.1,183.7,86.18,210.92,480.81,Single-ply,SBD,M
Boys,,NS,Garrett Hayes,Athens,,,,,,Single-ply,SBD,M
Boys,,NS,Isaiah Hardison,Joaquin,,,,,,Single-ply,SBD,M
Boys,,NS,Joseph Tarver,Joaquin,,,,,,Single-ply,SBD,M
