Sex,Equipment,Division,WeightClassKg,Name,BodyweightKg,Best3SquatKg,Best3BenchKg,Best3DeadliftKg,TotalKg,Event,Place
F,Multi-ply,Pro Masters 45-49,90,Leslie Bunch,87.45,226.8,90.72,197.31,514.83,SBD,1
F,Wraps,Pro Open,60,Steph Tomlinson,59.87,147.42,90.72,176.9,415.04,SBD,1
F,Raw,Amateur Open,60,Savannah Steamer,59.83,97.52,61.23,117.93,276.69,SBD,1
F,Wraps,Amateur Masters 45-49,67.5,Miranda Colbert,67.45,106.59,52.16,117.93,276.69,SBD,1
F,Wraps,Pro Masters 45-49,75,Amy Berardinelli,71.21,142.88,81.65,165.56,390.09,SBD,1
F,Wraps,Pro Masters 40-44,82.5,Jeanine Whittaker,78.74,240.4,120.2,229.06,589.67,SBD,1
M,Multi-ply,Pro Juniors 20-23,90,Michael Baker,89.63,360.61,219.99,308.44,889.04,SBD,1
M,Multi-ply,Pro Open,90,Angelo Berardinelli,83.14,331.12,219.99,242.67,793.79,SBD,1
M,Multi-ply,Pro Open,100,Joe Buck,99.79,390.09,319.78,263.08,972.96,SBD,1
M,Multi-ply,Pro Open,100,Augie,99.2,385.55,238.14,312.98,936.67,SBD,2
M,Multi-ply,Pro Open,100,Nate Gruezke,98.02,362.87,294.84,272.16,929.86,SBD,3
M,Multi-ply,Pro Open,100,Tyler Howard,99.47,367.41,249.48,267.62,884.51,SBD,4
M,Multi-ply,Pro Open,110,Chuck Vogelpohl,107,449.06,226.8,340.19,1016.05,SBD,1
M,Multi-ply,Pro Open,110,Titus Russell,108.45,453.59,81.65,317.51,852.75,SBD,2
M,Multi-ply,Pro Open,125,Brian Billings,120.66,381.02,,,,SBD,DQ
M,Multi-ply,Pro Masters 55-59,140,Brian Brammer,127.01,238.14,,,,SBD,DQ
M,Multi-ply,Pro Open,140,Jesse Luczyk,136.53,476.27,292.57,288.03,1056.87,SBD,1
M,Multi-ply,Pro Masters 40-44,140,Rob Twining,139.71,272.16,183.7,260.82,716.68,SBD,1
M,Raw,Amateur Juniors 20-23,75,Ted Cox,74.89,192.78,165.56,231.33,589.67,SBD,1
M,Raw,Amateur Open,75,Andrew Schenk,74.84,,,,,SBD,DQ
M,Raw,Amateur Open,82.5,Pablo Nunez,81.01,208.65,138.35,281.23,628.23,SBD,1
M,Raw,Amateur Open,82.5,Pat Clevenger,81.01,165.56,133.81,226.8,526.17,SBD,2
M,Raw,Crossfit,82.5,Ward Hiney,80.97,147.42,106.59,181.44,435.45,SBD,1
M,Raw,Pro Submasters 33-39,90,Chris Christman,89.86,192.78,147.42,226.8,566.99,SBD,1
M,Raw,Amateur Juniors 20-23,100,Tyler Mullen,97.07,197.31,165.56,244.94,607.81,SBD,1
M,Raw,Amateur Teen 18-19,125,Joseph Stein,124.96,249.48,145.15,204.12,598.74,SBD,1
M,Raw,Amateur Juniors 20-23,125,Joseph Stein,124.96,249.48,145.15,204.12,598.74,SBD,1
M,Wraps,Pro Open,60,Brandon Smitley,59.87,238.14,142.88,217.72,598.74,SBD,1
M,Wraps,Amateur Juniors 20-23,82.5,Nicholas Deel,78.43,165.56,120.2,192.78,478.54,SBD,1
M,Wraps,Amateur Masters 50-54,82.5,Mitchel R. Strain,82.1,172.37,131.54,201.85,505.76,SBD,1
M,Wraps,Military Amateur Masters 50+,82.5,Eric Roberts,82.33,213.19,133.81,195.04,542.04,SBD,1
M,Wraps,Pro Open,82.5,Jonathan Harder,81.87,281.23,204.12,294.84,780.18,SBD,1
M,Wraps,Pro Open,82.5,Alex Lugo,82.28,260.82,165.56,247.21,673.58,SBD,2
M,Wraps,Amateur Open,82.5,Greg Lenz,79.33,165.56,136.08,215.46,517.1,SBD,1
M,Wraps,Amateur Open,82.5,Paul Bratton,78.38,154.22,108.86,197.31,460.4,SBD,2
M,Wraps,Amateur Teen 18-19,82.5,Michael Condo,80.78,192.78,138.35,267.62,598.74,SBD,1
M,Wraps,Pro Juniors 20-23,90,Joe Sullivan,89.9,285.76,190.51,306.17,782.45,SBD,1
M,Wraps,Amateur Masters 50-54,90,Tom Zwolski,89.45,201.85,124.74,204.12,530.7,SBD,1
M,Wraps,Pro Masters 65-69,90,John Bandy,87.95,195.04,72.57,204.12,471.74,SBD,1
M,Wraps,Amateur Open,90,William Moorman,88.68,226.8,136.08,249.48,612.35,SBD,1
M,Wraps,Amateur Open,90,Jason A Allen,85.59,213.19,149.69,244.94,607.81,SBD,2
M,Wraps,Amateur Submasters 33-39,90,Jason A Allen,85.59,213.19,149.69,244.94,607.81,SBD,1
M,Wraps,Amateur Open,90,Casey Connell,89.77,226.8,102.06,247.21,576.06,SBD,3
M,Wraps,Amateur Open,90,Anthony Amrein,88.45,210.92,115.67,240.4,566.99,SBD,4
M,Wraps,Amateur Open,90,Justin Seiser,87,188.24,117.93,206.38,512.56,SBD,5
M,Wraps,Pro Submasters 33-39,90,Jeff Mustard,89.09,226.8,22.68,,,SBD,DQ
M,Wraps,Pro Juniors 20-23,100,Joshua Kwasnicka,97.52,272.16,163.29,283.5,718.94,SBD,1
M,Wraps,Pro Juniors 20-23,100,Travis Gray,98.57,260.82,188.24,256.28,705.34,SBD,2
M,Wraps,Pro Open,100,AJ Tarkany,99.34,272.16,138.35,272.16,682.66,SBD,1
M,Wraps,Pro Open,100,Dan Meehan,99.88,238.14,170.1,238.14,646.37,SBD,2
M,Wraps,Pro Juniors 20-23,110,Zac Schultz,109.77,265.35,161.03,,,SBD,DQ
M,Wraps,Pro Open,110,Ed Zende,108.73,319.78,192.78,274.42,786.98,SBD,1
M,Wraps,Pro Open,110,Logan Zechar,108.5,317.51,142.88,322.05,782.45,SBD,2
M,Wraps,Pro Open,110,Aaron White,109.5,285.76,183.7,272.16,741.62,SBD,3
M,Wraps,Pro Open,110,Raheem Greene,106.5,226.8,156.49,265.35,648.64,SBD,4
M,Wraps,Amateur Open,110,Micah E. Clare,107.05,215.46,131.54,238.14,585.13,SBD,1
M,Wraps,Pro Open,125,Dale Thorpe,122.33,306.17,192.78,281.23,780.18,SBD,1
M,Wraps,Police Amateur Open,125,Jeffrey Cobb,120.66,281.23,190.51,281.23,752.96,SBD,1
M,Wraps,Amateur Open,125,Nathan Kennedy,121.83,283.5,167.83,272.16,723.48,SBD,1
M,Wraps,Pro Open,125,Andrew Ruble,121.29,,,,,SBD,DQ
M,Wraps,Pro Open,140+,Christopher Crisman,181.44,394.63,226.8,331.12,952.54,SBD,1
M,Wraps,Amateur Open,140+,Robert Hazeldine,155.58,215.46,174.63,238.14,628.23,SBD,1
M,Single-ply,Amateur Open,75,Kyle Brown #2,73.71,226.8,131.54,226.8,585.13,SBD,1
M,Single-ply,Amateur Teen 16-17,75,Solomon Miller,73.44,145.15,99.79,156.49,401.43,SBD,1
M,Single-ply,Amateur Juniors 20-23,82.5,Serhill Romanenko,80.83,254.01,149.69,267.62,671.32,SBD,1
M,Single-ply,Amateur Juniors 20-23,100,Mazar Babyk,92.53,199.58,145.15,226.8,571.53,SBD,1
M,Single-ply,Amateur Open,100,Daniel Smith,98.11,297.1,199.58,278.96,775.64,SBD,1
M,Single-ply,Police Amateur Open,100,Nick Mazur,99.38,328.85,,,,SBD,DQ
M,Single-ply,Amateur Masters 40-44,110,Mark Luciano,107.05,249.48,,238.14,,SBD,DQ
M,Single-ply,Amateur Teen 16-17,110,David Henson,107.5,204.12,113.4,190.51,508.02,SBD,1
F,Raw,Amateur Open,110,Alison Crowdus,104.33,,74.84,,74.84,B,1
M,Multi-ply,Amateur Masters 40-44,75,Jeff Cole,72.57,,190.51,,190.51,B,1
M,Multi-ply,Amateur Masters 55-59,90,Gary Benford,89.36,,190.51,,190.51,B,1
M,Multi-ply,Police Pro Open,140,Paul Henson,132.31,,233.6,,233.6,B,1
M,Raw,Pro Juniors 20-23,110,Drew Othersen,102.97,,210.92,,210.92,B,1
M,Single-ply,Pro Open,100,Ted Castor,90.04,,,,,B,DQ
M,Single-ply,Pro Open,110,Chris Smith,109.27,,,,,B,DQ
F,Raw,Pro Masters 50-54,56,Vanessa Elaine Ware,55.2,,65.77,120.2,185.97,BD,1
M,Multi-ply,Amateur Masters 40-44,125,Joe Winkler,116.12,,256.28,240.4,496.68,BD,1
M,Multi-ply,Amateur Open,140,Tony Demingo,137.44,,195.04,260.82,455.86,BD,1
M,Raw,Amateur Masters 55-59,82.5,Jeff Chrissis,81.15,,138.35,183.7,322.05,BD,1
M,Single-ply,Amateur Masters 50-54,100,Michael Miller,97.98,,113.4,161.03,274.42,BD,1
F,Raw,Amateur Open,56,Lauren Strawn,52.62,,,95.25,95.25,D,1
F,Raw,Amateur Open,75,Kelly Studebaker,74.39,,,56.7,56.7,D,1
