Name,Sex,Event,Equipment,WeightClassKg,Division,BodyweightKg,Squat1Kg,Squat2Kg,Squat3Kg,Best3SquatKg,Squat4Kg,Bench1Kg,Bench2Kg,Bench3Kg,Best3BenchKg,Deadlift1Kg,Deadlift2Kg,Deadlift3Kg,Best3DeadliftKg,TotalKg,Place
Jim Roney,M,SBD,Multi-ply,75,Am Open,73.26,226.8,249.48,-272.16,249.48,,136.08,-149.69,-149.69,136.08,204.12,238.14,249.48,249.48,635.03,1
Jeff Burk,M,SBD,Multi-ply,75,Am Open,73.48,97.52,-158.76,-158.76,97.52,,102.06,117.93,-127.01,117.93,181.44,,,181.44,396.89,2
Kevin Weneck,M,SBD,Multi-ply,75,Am Open,71.21,142.88,158.76,165.56,165.56,,24.95,43.09,61.23,61.23,147.42,165.56,-181.44,165.56,392.36,3
Rick Hamsher,M,SBD,Multi-ply,82.5,Am Masters,82.1,213.19,238.14,240.4,240.4,,163.29,170.1,-172.37,170.1,204.12,226.8,235.87,235.87,646.37,1
Kirk Dean,M,SBD,Multi-ply,82.5,Pro Open,81.19,272.16,-290.3,-290.3,272.16,,181.44,190.51,-197.31,190.51,247.21,267.62,274.42,274.42,737.09,1
Denny Buyan,M,SBD,Multi-ply,90,Am Open,87.54,249.48,272.16,,272.16,,183.7,192.78,,192.78,226.8,249.48,,249.48,714.41,1
Zac Whalen,M,SBD,Multi-ply,100,Am Juniors,97.07,219.99,240.4,-249.48,240.4,,156.49,170.1,-181.44,170.1,219.99,244.94,-256.28,244.94,655.44,1
Sam Glover Sr,M,SBD,Multi-ply,100,Am Masters,98.2,185.97,208.65,219.99,219.99,229.06,163.29,-174.63,174.63,174.63,181.44,190.51,195.04,195.04,589.67,1
Shawn Pollock,M,SBD,Multi-ply,100,Am Open,93.89,-290.3,-290.3,290.3,290.3,,192.78,204.12,-215.46,204.12,226.8,238.14,244.94,244.94,739.36,1
Daniel Boffo,M,SBD,Multi-ply,100,Am Open,96.62,215.46,233.6,247.21,247.21,,174.63,-188.24,-188.24,174.63,204.12,229.06,244.94,244.94,666.78,2
Anastassia Tressler,F,SBD,Multi-ply,75,Am Masters,74.39,158.76,183.7,195.04,195.04,,124.74,-138.35,138.35,138.35,174.63,192.78,199.58,199.58,532.97,1
Jan Koenig,F,SBD,Multi-ply,100,Am Masters,95.71,113.4,124.74,-136.08,124.74,,72.57,77.11,-83.91,77.11,142.88,147.42,151.95,151.95,353.8,1
Adrian Griffin,M,SBD,Multi-ply,90,Am Open,90,294.84,317.51,,317.51,,-238.14,-238.14,,,251.74,,,251.74,,DQ
Mike Hill,M,SBD,Multi-ply,90,Pro Open,89.81,306.17,342.46,-356.07,342.46,,197.31,219.99,-229.06,219.99,251.74,267.62,272.16,272.16,834.61,1
Tony Ramos,M,SBD,Multi-ply,90,Pro Open,85.28,317.51,-340.19,-340.19,317.51,,242.67,-258.55,-258.55,242.67,249.48,265.35,-272.16,265.35,825.54,2
Wesley Mills,M,SBD,Multi-ply,90,Pro Open,89.81,274.42,-297.1,-297.1,274.42,,206.38,-229.06,229.06,229.06,229.06,251.74,-260.82,251.74,755.23,3
Dave Hanson,M,SBD,Multi-ply,100,Pro Open,98.43,319.78,-347,-362.87,319.78,,226.8,-244.94,244.94,244.94,258.55,-276.69,276.69,276.69,841.41,1
Rob McNutt,M,SBD,Multi-ply,100,Pro Open,99.34,308.44,328.85,-340.19,328.85,,226.8,-238.14,,226.8,-272.16,272.16,,272.16,827.81,2
Tony Butson,M,SBD,Multi-ply,100,Pro Open,96.84,299.37,317.51,328.85,328.85,,201.85,215.46,217.72,217.72,226.8,-254.01,,226.8,773.37,3
Matt Wiedemer,M,SBD,Multi-ply,100,Pro Open,98.43,226.8,244.94,272.16,272.16,,183.7,199.58,-226.8,199.58,249.48,276.69,281.23,281.23,752.96,4
Shawn Flanagan,M,SBD,Multi-ply,110,Pro Juniors,103.87,299.37,333.39,-353.8,333.39,,213.19,231.33,247.21,247.21,276.69,294.84,-306.17,294.84,875.43,1
Nick Fraas,M,SBD,Multi-ply,110,Pro Juniors,103.42,290.3,-317.51,317.51,317.51,,-192.78,-192.78,192.78,192.78,260.82,272.16,276.69,276.69,786.98,2
Rocky Rose,M,SBD,Multi-ply,110,Pro Open,99.79,226.8,242.67,254.01,254.01,,-165.56,165.56,183.7,183.7,249.48,-276.69,276.69,276.69,714.41,1
Dave Hoff,M,SBD,Multi-ply,125,Pro Teen,115.89,399.16,435.45,-455.86,435.45,,265.35,285.76,297.1,297.1,299.37,317.51,,317.51,1050.07,1
Matt Madjar,M,SBD,Multi-ply,140,Pro Teen,127.91,308.44,335.66,-362.87,335.66,,-204.12,204.12,219.99,219.99,213.19,238.14,247.21,247.21,802.86,2
Luke Walker,M,SBD,Multi-ply,125,Pro Teen,123.83,274.42,306.17,324.32,324.32,,183.7,199.58,229.06,229.06,-229.06,-229.06,229.06,229.06,782.45,3
Joe Gilpin,M,SBD,Multi-ply,140,Pro Juniors,135.4,285.76,308.44,340.19,340.19,,215.46,-226.8,-226.8,215.46,283.5,299.37,308.44,308.44,864.09,1
Chuck Vogelpohl,M,SBD,Multi-ply,125,Pro Open,,,,,521.63,,,,,288.03,,,,371.95,1181.61,G
Tim Hensley,M,B,Multi-ply,82.5,Am Open,80.06,,,,,,244.94,-254.01,254.01,254.01,,,,,254.01,1
Travis Williams,M,B,Multi-ply,82.5,Am Open,82.1,,,,,,158.76,172.37,181.44,181.44,,,,,181.44,2
Michael Lindsay,M,B,Multi-ply,90,Pro Masters,89.36,,,,,,172.37,181.44,190.51,190.51,,,,,190.51,1
Fred Boldt,M,B,Multi-ply,90,Pro Open,86.86,,,,,,290.3,-310.71,310.71,310.71,,,,,310.71,1
Tony Ashbrook,M,B,Multi-ply,90,Am Open\Submasters,87.09,,,,,,147.42,-151.95,151.95,151.95,,,,,151.95,1
Marlon Senter,M,B,Multi-ply,100,Pro Open,99.79,,,,,,-306.17,-317.51,-317.51,,,,,,,DQ
Gregg Shaffer,M,B,Multi-ply,90,Pro Open,88,,,,,,-213.19,-213.19,,,,,,,,DQ
