Division,WeightClassKg,Place,Name,Team,BodyweightKg,Best3SquatKg,Best3BenchKg,Best3DeadliftKg,TotalKg,Equipment,Event,Sex
Boys,51.71,1,Max Snodgrass,Blooming Grove,51.71,106.59,61.23,115.67,283.5,Single-ply,SBD,M
Boys,51.71,2,Dalton Crawford,Kerens,48.99,86.18,54.43,97.52,238.14,Single-ply,SBD,M
Boys,51.71,3,Tyler Warren,Blooming Grove,46.27,83.91,34.02,77.11,195.04,Single-ply,SBD,M
Boys,51.71,DQ,Jeremy Ballard,Corsicana Mildred,51.26,,45.36,88.45,,Single-ply,SBD,M
Boys,55.79,DQ,Graham Coker,Corsicana Mildred,54.88,,56.7,74.84,,Single-ply,SBD,M
Boys,59.87,1,Eric Lewis,Corsicana Mildred,59.42,108.86,54.43,124.74,288.03,Single-ply,SBD,M
Boys,59.87,2,Shaquille Fields,Rice,57.15,99.79,65.77,115.67,281.23,Single-ply,SBD,M
Boys,59.87,3,Sergi Larson,Corsicana Mildred,59.42,102.06,65.77,102.06,269.89,Single-ply,SBD,M
Boys,67.13,1,Trey Davis,Blooming Grove,67.13,176.9,99.79,195.04,471.74,Single-ply,SBD,M
Boys,67.13,2,Justin Digman,Rice,64.41,154.22,86.18,145.15,385.55,Single-ply,SBD,M
Boys,67.13,3,Spencer Morris,Blooming Grove,66.68,151.95,77.11,149.69,378.75,Single-ply,SBD,M
Boys,67.13,4,Alex Ruiz,Dawson,64.41,122.47,58.97,147.42,328.85,Single-ply,SBD,M
Boys,67.13,5,Oscar Bonilla,Corsicana Mildred,63.05,113.4,65.77,138.35,317.51,Single-ply,SBD,M
Boys,67.13,6,Daniel Donoho,Corsicana Mildred,63.96,122.47,74.84,113.4,310.71,Single-ply,SBD,M
Boys,67.13,7,Luis Dominguez,Rice,61.23,95.25,61.23,113.4,269.89,Single-ply,SBD,M
Boys,74.84,1,Jake Wasinger,Blooming Grove,74.84,165.56,97.52,172.37,435.45,Single-ply,SBD,M
Boys,74.84,2,Josh Wooten,Kerens,73.03,136.08,90.72,190.51,417.3,Single-ply,SBD,M
Boys,74.84,3,Stewart Chambers,Blooming Grove,70.76,142.88,74.84,170.1,387.82,Single-ply,SBD,M
Boys,74.84,4,Rob Baldree,Blooming Grove,68.95,151.95,86.18,147.42,385.55,Single-ply,SBD,M
Boys,74.84,5,John Carter,Rice,73.94,136.08,90.72,158.76,385.55,Single-ply,SBD,M
Boys,74.84,6,Jacob Davis,Corsicana Mildred,74.39,147.42,95.25,142.88,385.55,Single-ply,SBD,M
Boys,74.84,7,Chase Miller,Corsicana Mildred,73.94,124.74,81.65,136.08,342.46,Single-ply,SBD,M
Boys,74.84,8,Patrick Wallace,Corsicana Mildred,71.67,104.33,70.31,122.47,297.1,Single-ply,SBD,M
Boys,74.84,9,Joe Ritter,Corsicana Mildred,69.4,97.52,63.5,117.93,278.96,Single-ply,SBD,M
Boys,82.1,1,Jason Thomas,Corsicana Mildred,79.83,181.44,120.2,172.37,474,Single-ply,SBD,M
Boys,82.1,2,Caide Southard,Corsicana Mildred,80.29,151.95,111.13,181.44,444.52,Single-ply,SBD,M
Boys,82.1,3,Corbin Russell,Corsicana Mildred,81.65,142.88,104.33,183.7,430.91,Single-ply,SBD,M
Boys,82.1,4,Jody Bernal,Rice,79.38,149.69,102.06,172.37,424.11,Single-ply,SBD,M
Boys,82.1,5,Brock McFarland,Blooming Grove,81.19,147.42,70.31,149.69,367.41,Single-ply,SBD,M
Boys,82.1,6,Michael Kline,Kerens,80.74,136.08,72.57,154.22,362.87,Single-ply,SBD,M
Boys,82.1,7,Dylan Woods,Kerens,76.66,99.79,72.57,151.95,324.32,Single-ply,SBD,M
Boys,89.81,1,Dj Woods,Kerens,85.28,206.38,106.59,208.65,521.63,Single-ply,SBD,M
Boys,89.81,2,Noah Pennell,Corsicana Mildred,89.36,163.29,81.65,183.7,428.64,Single-ply,SBD,M
Boys,89.81,3,Ruben Yankie,Corsicana Mildred,88.9,136.08,83.91,158.76,378.75,Single-ply,SBD,M
Boys,89.81,DQ,Tyler Chambers,Blooming Grove,87.54,151.95,,158.76,,Single-ply,SBD,M
Boys,99.79,1,Josh Ferrer,Blooming Grove,99.34,195.04,140.61,170.1,505.76,Single-ply,SBD,M
Boys,99.79,2,Payton Weaver,Corsicana Mildred,95.71,174.63,111.13,183.7,469.47,Single-ply,SBD,M
Boys,99.79,3,Juan Cura,Rice,94.8,147.42,115.67,154.22,417.3,Single-ply,SBD,M
Boys,99.79,4,Taylor Barlow,Corsicana Mildred,99.79,120.2,86.18,136.08,342.46,Single-ply,SBD,M
Boys,99.79,5,Garrett May,Corsicana Mildred,95.25,106.59,68.04,120.2,294.84,Single-ply,SBD,M
Boys,109.77,1,Chris Hobbs,Kerens,109.32,156.49,97.52,181.44,435.45,Single-ply,SBD,M
Boys,109.77,2,Nathan Harris,Corsicana Mildred,103.87,108.86,63.5,136.08,308.44,Single-ply,SBD,M
Boys,124.74,1,Josh Cade,Blooming Grove,110.68,233.6,124.74,226.8,585.13,Single-ply,SBD,M
Boys,124.74,2,Lee Demmings,Dawson,119.29,192.78,129.27,199.58,521.63,Single-ply,SBD,M
Boys,124.74,3,Beau Jenkins,Corsicana Mildred,112.04,185.97,129.27,204.12,519.36,Single-ply,SBD,M
Boys,124.74+,1,Ethan Still,Kerens,147.87,147.42,83.91,154.22,385.55,Single-ply,SBD,M
Boys,124.74+,2,Nick Barlow,Corsicana Mildred,140.61,111.13,92.99,133.81,337.93,Single-ply,SBD,M
