Division,WeightClassKg,Place,Name,Team,BodyweightKg,Best3SquatKg,Best3BenchKg,Best3DeadliftKg,TotalKg,Equipment,Event,Sex
Boys,51.71,1,Josue Leon,Sulphur Springs,50.8,136.08,72.57,181.44,390.09,Single-ply,SBD,M
Boys,55.79,2,Cassius Fitzpatrick,Denison,51.85,131.54,79.38,136.08,347,Single-ply,SBD,M
Boys,51.71,3,Edward Green,Daingerfield,51.71,131.54,58.97,154.22,344.73,Single-ply,SBD,M
Boys,51.71,4,Zach Kuntz,Rockwall,48.53,106.59,54.43,127.01,288.03,Single-ply,SBD,M
Boys,51.71,5,Nathan Evans,Lindale,51.03,108.86,49.9,122.47,281.23,Single-ply,SBD,M
Boys,51.71,6,Ramon Sánchez,Lone Oak,47.17,74.84,61.23,122.47,258.55,Single-ply,SBD,M
Boys,51.71,7,Charley Fernandez,Mount Pleasant,51.26,108.86,,,108.86,Single-ply,S,M
Boys,55.79,1,Tyler Scott,Paris North Lamar,55.79,142.88,86.18,154.22,383.29,Single-ply,SBD,M
Boys,55.79,2,Brady Rose,Mineola,55.57,149.69,61.23,167.83,378.75,Single-ply,SBD,M
Boys,55.79,3,Josh Boone,Winnsboro,55.11,133.81,77.11,133.81,344.73,Single-ply,SBD,M
Boys,55.79,4,Luis Gamez,Sulphur Springs,55.34,127.01,74.84,136.08,337.93,Single-ply,SBD,M
Boys,55.79,5,Axel Barks,Denison,53.07,106.59,77.11,117.93,301.64,Single-ply,SBD,M
Boys,55.79,6,Andrew Legrand,Texarkana Texas,54.43,83.91,61.23,113.4,258.55,Single-ply,SBD,M
Boys,55.79,7,Austin Puetz,Paris,52.39,77.11,52.16,92.99,222.26,Single-ply,SBD,M
Boys,59.87,1,Zach Poindexter,Rockwall,59.42,161.03,102.06,181.44,444.52,Single-ply,SBD,M
Boys,67.13,2,Clementria Bailey,Paris,60.1,158.76,102.06,172.37,433.18,Single-ply,SBD,M
Boys,59.87,3,Shawn Hooks,Daingerfield,58.51,158.76,83.91,149.69,392.36,Single-ply,SBD,M
Boys,59.87,4,Juan Carlos Mendez,Emory Rains,59.87,136.08,88.45,151.95,376.48,Single-ply,SBD,M
Boys,59.87,5,Sam Hammonds,Sulphur Springs,58.97,133.81,74.84,147.42,356.07,Single-ply,SBD,M
Boys,59.87,6,Darius Everett,Daingerfield,58.74,131.54,74.84,136.08,342.46,Single-ply,SBD,M
Boys,59.87,7,Devien Fuentes,Sulphur Springs,59.87,122.47,72.57,145.15,340.19,Single-ply,SBD,M
Boys,59.87,8,Edward Zavala,Mount Pleasant,59.42,113.4,70.31,149.69,333.39,Single-ply,SBD,M
Boys,59.87,9,Braden Kelley,Paris North Lamar,59.87,113.4,68.04,136.08,317.51,Single-ply,SBD,M
Boys,59.87,10,Jacob Wantroba,Denison,57.61,120.2,70.31,113.4,303.91,Single-ply,SBD,M
Boys,67.13,11,Loren Munns,Paris North Lamar,60.1,113.4,70.31,102.06,285.76,Single-ply,SBD,M
Boys,67.13,1,Terrance Walker,Winnsboro,65.77,238.14,120.2,190.51,548.85,Single-ply,SBD,M
Boys,67.13,2,Johnathon Carlisle,Sulphur Springs,66.68,222.26,102.06,210.92,535.24,Single-ply,SBD,M
Boys,67.13,3,Fillip Gann,Paris Chisum,67.13,188.24,113.4,188.24,489.88,Single-ply,SBD,M
Boys,74.84,4,Dominique Sanders,Paris,67.36,179.17,95.25,210.92,485.34,Single-ply,SBD,M
Boys,67.13,5,Cord Fountain,Lindale,66.22,151.95,95.25,190.51,437.72,Single-ply,SBD,M
Boys,67.13,6,Dakota Thomas,Denison,67.13,167.83,92.99,174.63,435.45,Single-ply,SBD,M
Boys,67.13,7,Ja'Quan Williams,Mineola,65.54,149.69,92.99,190.51,433.18,Single-ply,SBD,M
Boys,67.13,8,Jeremy Armstrong,Rockwall-Heath,61.23,163.29,102.06,165.56,430.91,Single-ply,SBD,M
Boys,67.13,9,Dugan Winkle,Winnsboro,66.68,151.95,106.59,165.56,424.11,Single-ply,SBD,M
Boys,67.13,10,Riley Foshee,Lindale,64.86,172.37,79.38,165.56,417.3,Single-ply,SBD,M
Boys,67.13,11,Bryan Davidson,Lone Oak,64.86,170.1,74.84,163.29,408.23,Single-ply,SBD,M
Boys,67.13,12,Kason Freelen,Lone Oak,64.41,142.88,92.99,156.49,392.36,Single-ply,SBD,M
Boys,67.13,13,Justin McFadden,Paris North Lamar,66.68,158.76,79.38,140.61,378.75,Single-ply,SBD,M
Boys,67.13,14,Jose Bolanos,Mineola,61.46,138.35,88.45,131.54,358.34,Single-ply,SBD,M
Boys,67.13,15,Dakota Meurer,Lindale,63.5,136.08,77.11,142.88,356.07,Single-ply,SBD,M
Boys,67.13,16,Chase Friddle,Sulphur Springs,67.13,133.81,83.91,131.54,349.27,Single-ply,SBD,M
Boys,67.13,17,Kaleb Stringer,Paris North Lamar,62.6,136.08,68.04,127.01,331.12,Single-ply,SBD,M
Boys,67.13,18,Tyler Worrell,Texarkana Texas,62.14,104.33,65.77,136.08,306.17,Single-ply,SBD,M
Boys,67.13,19,Kyle Kiser,Emory Rains,64.86,167.83,113.4,,281.23,Single-ply,SB,M
Boys,67.13,20,Nick Dusek,Texarkana Texas,67.13,95.25,61.23,115.67,272.16,Single-ply,SBD,M
Boys,74.84,1,Matt Thompson,Paris,74.16,215.46,140.61,213.19,569.26,Single-ply,SBD,M
Boys,74.84,2,Brandon Greene,Winnsboro,72.12,226.8,122.47,213.19,562.45,Single-ply,SBD,M
Boys,74.84,3,Carson Turner,Quitman,72.57,201.85,117.93,210.92,530.7,Single-ply,SBD,M
Boys,74.84,4,DeMarcus Lynch,Lindale,73.03,210.92,97.52,195.04,503.49,Single-ply,SBD,M
Boys,74.84,5,Kannon Carter,Mount Pleasant,71.67,170.1,120.2,192.78,483.08,Single-ply,SBD,M
Boys,74.84,6,Ben Bittle,Rockwall,72.35,172.37,115.67,185.97,474,Single-ply,SBD,M
Boys,74.84,7,Trey Adair,Sulphur Springs,72.57,181.44,104.33,181.44,467.2,Single-ply,SBD,M
Boys,74.84,8,Cody Brantley,Mount Pleasant,70.76,156.49,97.52,165.56,419.57,Single-ply,SBD,M
Boys,74.84,9,Hayden Malone,Lone Oak,69.63,136.08,115.67,163.29,415.04,Single-ply,SBD,M
Boys,74.84,10,Cody Edwards,Paris North Lamar,73.48,156.49,92.99,158.76,408.23,Single-ply,SBD,M
Boys,74.84,11,Ezra Asbury,Lone Oak,70.76,145.15,90.72,156.49,392.36,Single-ply,SBD,M
Boys,74.84,12,Ray Wisham,Paris North Lamar,72.57,147.42,77.11,158.76,383.29,Single-ply,SBD,M
Boys,74.84,13,Larry Murphy,Texarkana Texas,69.63,136.08,79.38,147.42,362.87,Single-ply,SBD,M
Boys,74.84,14,Joe Scott,Sulphur Springs,74.39,217.72,136.08,,353.8,Single-ply,SB,M
Boys,74.84,15,Christian Darter,Emory Rains,74.39,129.27,74.84,133.81,337.93,Single-ply,SBD,M
Boys,74.84,16,Brad Gann,Paris Chisum,73.03,201.85,111.13,,312.98,Single-ply,SB,M
Boys,74.84,17,Quin Lipscomb,Paris,72.57,185.97,,,185.97,Single-ply,S,M
Boys,74.84,18,Jacoby Lee,Daingerfield,71.67,167.83,,,167.83,Single-ply,S,M
Boys,74.84,DQ,Jace Hart,Lone Oak,69.4,,115.67,,,Single-ply,SB,M
Boys,82.1,1,Stephen Julian,Mount Pleasant,80.51,235.87,154.22,226.8,616.89,Single-ply,SBD,M
Boys,82.1,2,Ty Smith,Paris North Lamar,78.47,238.14,140.61,231.33,610.08,Single-ply,SBD,M
Boys,82.1,3,Caleb Womack,Lone Oak,80.97,222.26,151.95,229.06,603.28,Single-ply,SBD,M
Boys,82.1,4,Ruben Sanchez,Mineola,81.19,238.14,129.27,226.8,594.21,Single-ply,SBD,M
Boys,82.1,5,Maverick Jones,Paris North Lamar,81.65,219.99,122.47,195.04,537.51,Single-ply,SBD,M
Boys,82.1,6,Clay Price,Lindale,78.02,208.65,97.52,197.31,503.49,Single-ply,SBD,M
Boys,82.1,7,Adam Galaz,Lindale,77.56,204.12,108.86,185.97,498.95,Single-ply,SBD,M
Boys,82.1,8,Tre Acy,Lindale,75.75,204.12,106.59,181.44,492.15,Single-ply,SBD,M
Boys,82.1,9,Ta'darius Gholston,Daingerfield,80.74,185.97,104.33,179.17,469.47,Single-ply,SBD,M
Boys,82.1,10,Garrett Fikes,Rockwall,80.29,185.97,117.93,163.29,467.2,Single-ply,SBD,M
Boys,82.1,11,Taylor Bachelder,Emory Rains,80.74,165.56,97.52,188.24,451.32,Single-ply,SBD,M
Boys,82.1,12,Drew Mayfield,Rockwall-Heath,81.87,158.76,86.18,195.04,439.98,Single-ply,SBD,M
Boys,82.1,13,Brett Hicks,Emory Rains,75.75,176.9,95.25,165.56,437.72,Single-ply,SBD,M
Boys,82.1,14,Garrett Powell,Lindale,78.24,147.42,90.72,149.69,387.82,Single-ply,SBD,M
Boys,82.1,15,Jorge Martinez,Mount Pleasant,80.74,147.42,88.45,151.95,387.82,Single-ply,SBD,M
Boys,82.1,16,Andrew Nichols,Texarkana Texas,81.19,147.42,90.72,142.88,381.02,Single-ply,SBD,M
Boys,82.1,17,Mason Morrow,Paris North Lamar,81.65,136.08,83.91,158.76,378.75,Single-ply,SBD,M
Boys,82.1,18,Mark Powell,Emory Rains,81.65,129.27,79.38,136.08,344.73,Single-ply,SBD,M
Boys,82.1,19,Dennis Lipstraw,Honey Grove,75.75,129.27,81.65,129.27,340.19,Single-ply,SBD,M
Boys,82.1,DQ,Desmond Heath,Daingerfield,77.56,,,,,Single-ply,SBD,M
Boys,82.1,DQ,Mason Justin,Paris Chisum,77.56,,,,,Single-ply,SBD,M
Boys,89.81,1,Mike Davidson,Paris North Lamar,89.36,269.89,145.15,254.01,669.05,Single-ply,SBD,M
Boys,89.81,2,Dq Lipscomb,Paris,88.45,258.55,142.88,265.35,666.78,Single-ply,SBD,M
Boys,89.81,3,Travis Turner,Texarkana Texas,84.14,254.01,136.08,251.74,641.83,Single-ply,SBD,M
Boys,89.81,4,D'Vonta Walker,Rockwall-Heath,87.09,242.67,122.47,242.67,607.81,Single-ply,SBD,M
Boys,89.81,5,Austin Arnold,Denison,84.37,213.19,151.95,219.99,585.13,Single-ply,SBD,M
Boys,89.81,6,Aq Williams,Texarkana Texas,83.46,231.33,120.2,204.12,555.65,Single-ply,SBD,M
Boys,89.81,7,Jacoby Peters,Daingerfield,88.9,192.78,129.27,195.04,517.1,Single-ply,SBD,M
Boys,89.81,8,Antwan Jones,Mount Pleasant,83.46,176.9,108.86,199.58,485.34,Single-ply,SBD,M
Boys,89.81,9,Gentry Rogers,Rockwall-Heath,89.36,181.44,122.47,174.63,478.54,Single-ply,SBD,M
Boys,89.81,10,Ryan Gearner,Winnsboro,84.37,183.7,97.52,172.37,453.59,Single-ply,SBD,M
Boys,89.81,11,Jon Boehlar,Paris Chisum,85.28,167.83,95.25,172.37,435.45,Single-ply,SBD,M
Boys,89.81,12,Geoffrey Smith,Paris,87.09,151.95,95.25,185.97,433.18,Single-ply,SBD,M
Boys,89.81,13,Jessie Gaither,Honey Grove,88.9,154.22,122.47,154.22,430.91,Single-ply,SBD,M
Boys,89.81,14,Javier Vasquez,Honey Grove,88,154.22,81.65,174.63,410.5,Single-ply,SBD,M
Boys,89.81,DQ,Cody Dougherty,Emory Rains,89.36,,,,,Single-ply,SBD,M
Boys,89.81,DQ,Tyler McClain,Lone Oak,87.54,174.63,,,,Single-ply,SBD,M
Boys,99.79,1,John Caruso,Mineola,99.34,235.87,174.63,240.4,650.91,Single-ply,SBD,M
Boys,99.79,2,Ryan Johnson,Winnsboro,99.79,249.48,147.42,192.78,589.67,Single-ply,SBD,M
Boys,99.79,3,Donte Marsh,Lindale,92.08,201.85,142.88,206.38,551.11,Single-ply,SBD,M
Boys,99.79,4,KaLynn Miller,Paris Chisum,97.52,226.8,129.27,195.04,551.11,Single-ply,SBD,M
Boys,99.79,5,Jamie Reed,Texarkana Texas,98.43,204.12,136.08,210.92,551.11,Single-ply,SBD,M
Boys,99.79,6,Ethan Elliot,Paris North Lamar,91.63,226.8,113.4,195.04,535.24,Single-ply,SBD,M
Boys,99.79,7,Jayden Stumbaugh,Denison,98.88,195.04,122.47,208.65,526.17,Single-ply,SBD,M
Boys,99.79,8,Seth Savage,Sulphur Springs,91.63,199.58,129.27,176.9,505.76,Single-ply,SBD,M
Boys,99.79,9,Nestor Santos,Mineola,92.99,183.7,131.54,190.51,505.76,Single-ply,SBD,M
Boys,99.79,10,Andrew Jackson,Lindale,94.8,219.99,99.79,181.44,501.22,Single-ply,SBD,M
Boys,99.79,11,Alex Barajas,Mount Pleasant,98.88,188.24,115.67,183.7,487.61,Single-ply,SBD,M
Boys,99.79,12,Ty Lomas,Daingerfield,91.63,204.12,97.52,165.56,467.2,Single-ply,SBD,M
Boys,99.79,13,Sam Reynolds,Lindale,92.99,172.37,92.99,185.97,451.32,Single-ply,SBD,M
Boys,99.79,14,Ethan Florence,Lindale,95.25,172.37,95.25,163.29,430.91,Single-ply,SBD,M
Boys,99.79,15,Lavonte Henry,Texarkana Texas,99.34,149.69,102.06,158.76,410.5,Single-ply,SBD,M
Boys,99.79,16,Kooper Kellis,Lindale,90.26,156.49,72.57,174.63,403.7,Single-ply,SBD,M
Boys,99.79,17,Nelson Thomas,Texarkana Texas,96.62,142.88,99.79,158.76,401.43,Single-ply,SBD,M
Boys,99.79,18,Henry Milligan,Texarkana Texas,95.71,140.61,86.18,140.61,367.41,Single-ply,SBD,M
Boys,109.77,1,Connor Counce,Denison,108.86,283.5,142.88,249.48,675.85,Single-ply,SBD,M
Boys,109.77,2,Dylan Bloodworth,Honey Grove,108.41,219.99,136.08,210.92,566.99,Single-ply,SBD,M
Boys,109.77,3,Andrew Epps,Mineola,106.59,226.8,122.47,213.19,562.45,Single-ply,SBD,M
Boys,109.77,4,Anthony McGovern,Winnsboro,104.78,226.8,124.74,170.1,521.63,Single-ply,SBD,M
Boys,109.77,5,Matt Foote,Lindale,109.77,210.92,120.2,185.97,517.1,Single-ply,SBD,M
Boys,109.77,6,Farrell Stetson,Lindale,103.42,204.12,120.2,183.7,508.02,Single-ply,SBD,M
Boys,109.77,7,John Chesser,Denison,102.51,199.58,115.67,179.17,494.42,Single-ply,SBD,M
Boys,109.77,8,Steven Capko,Emory Rains,106.59,188.24,102.06,192.78,483.08,Single-ply,SBD,M
Boys,109.77,9,Ryan Ramirez,Rockwall,103.42,197.31,102.06,181.44,480.81,Single-ply,SBD,M
Boys,109.77,10,Trey Brown,Texarkana Texas,102.51,181.44,102.06,181.44,464.93,Single-ply,SBD,M
Boys,109.77,11,Adam Parson,Paris North Lamar,106.59,183.7,86.18,190.51,460.4,Single-ply,SBD,M
Boys,109.77,12,Javier Jaramillo,Honey Grove,101.6,170.1,106.59,181.44,458.13,Single-ply,SBD,M
Boys,109.77,13,Christian Crook,Rockwall,100.7,161.03,102.06,170.1,433.18,Single-ply,SBD,M
Boys,109.77,14,Joel Bautista,Mount Pleasant,103.42,129.27,104.33,145.15,378.75,Single-ply,SBD,M
Boys,109.77,DQ,Dillon Bater,Mineola,102.97,,,,,Single-ply,SBD,M
Boys,124.74,1,Devin Noiel,Paris North Lamar,117.48,226.8,149.69,238.14,614.62,Single-ply,SBD,M
Boys,124.74,2,Jake Holliman,Rockwall-Heath,116.12,240.4,136.08,235.87,612.35,Single-ply,SBD,M
Boys,124.74,3,Ethan Dobbs,Rockwall-Heath,116.57,231.33,131.54,226.8,589.67,Single-ply,SBD,M
Boys,124.74,4,Chris Jones,Texarkana Texas,115.67,222.26,136.08,204.12,562.45,Single-ply,SBD,M
Boys,124.74,5,Maceo Walker,Texarkana Texas,119.29,222.26,120.2,217.72,560.19,Single-ply,SBD,M
Boys,124.74,6,Justin Lewis,Texarkana Texas,116.57,217.72,136.08,192.78,546.58,Single-ply,SBD,M
Boys,124.74,7,Marquis Gill,Paris,117.93,210.92,140.61,195.04,546.58,Single-ply,SBD,M
Boys,124.74,8,Oscar Soto,Mount Pleasant,120.2,174.63,149.69,201.85,526.17,Single-ply,SBD,M
Boys,124.74,9,Greg Stiles,Lindale,117.93,210.92,113.4,197.31,521.63,Single-ply,SBD,M
Boys,124.74,10,San Marcos Pratt,Paris Chisum,117.93,222.26,124.74,154.22,501.22,Single-ply,SBD,M
Boys,124.74,11,Victor Chunn,Winnsboro,112.72,188.24,129.27,161.03,478.54,Single-ply,SBD,M
Boys,124.74,12,Jack Adams,Winnsboro,115.21,201.85,115.67,136.08,453.59,Single-ply,SBD,M
Boys,124.74,13,Zack Appelwhite,Lindale,122.92,206.38,133.81,,340.19,Single-ply,SB,M
Boys,124.74,14,Chad Evans,Sulphur Springs,116.12,201.85,136.08,,337.93,Single-ply,SB,M
Boys,124.74+,1,Sam Schomp,Lindale,140.61,263.08,156.49,229.06,648.64,Single-ply,SBD,M
Boys,124.74+,2,Chris Tanner,Rockwall,136.08,249.48,158.76,226.8,635.03,Single-ply,SBD,M
Boys,124.74+,3,Ethan Boatman,Sulphur Springs,147.42,244.94,149.69,210.92,605.55,Single-ply,SBD,M
Boys,124.74+,4,Mike Reed,Texarkana Texas,136.08,226.8,136.08,226.8,589.67,Single-ply,SBD,M
Boys,124.74+,5,Gary Freeman,Texarkana Texas,136.08,249.48,142.88,167.83,560.19,Single-ply,SBD,M
Boys,124.74+,6,Antonio Romo,Lindale,145.15,229.06,124.74,204.12,557.92,Single-ply,SBD,M
Boys,124.74+,7,Chase Cadena,Sulphur Springs,130.18,192.78,115.67,199.58,508.02,Single-ply,SBD,M
Boys,124.74+,8,Dusty Donihoo,Mount Pleasant,128.82,195.04,122.47,181.44,498.95,Single-ply,SBD,M
Boys,124.74+,DQ,Lannon Pickle,Mineola,132.9,158.76,,,,Single-ply,SBD,M
