Division,WeightClassKg,Place,Name,Team,BodyweightKg,Best3SquatKg,Best3BenchKg,Best3DeadliftKg,TotalKg,Equipment,Event,Sex
Boys,51.71,1,Justin Dowdy,Wills Point,48.99,140.61,79.38,145.15,365.14,Single-ply,SBD,M
Boys,51.71,2,Steven Pham,Sunnyvale,51.44,133.81,68.04,149.69,351.53,Single-ply,SBD,M
Boys,51.71,3,Sean Pobst,Quinlan Ford,51.71,115.67,68.04,136.08,319.78,Single-ply,SBD,M
Boys,51.71,4,Ethen Hoops,Eustace,49.8,115.67,58.97,106.59,281.23,Single-ply,SBD,M
Boys,51.71,5,John Hernandez,Malakoff,51.71,104.33,45.36,117.93,267.62,Single-ply,SBD,M
Boys,51.71,6,Woodrow Strain,Kaufman,47.9,102.06,54.43,102.06,258.55,Single-ply,SBD,M
Boys,51.71,DQ,Jesus Perez,Kemp,51.07,104.33,70.31,,,Single-ply,SBD,M
Boys,55.79,1,Ralph Bustos,Kaufman,54.07,158.76,83.91,154.22,396.89,Single-ply,SBD,M
Boys,55.79,2,Theo Serrano,Quinlan Ford,55.16,108.86,45.36,142.88,297.1,Single-ply,SBD,M
Boys,55.79,3,Maverick Cunigan,Wills Point,55.7,99.79,54.43,113.4,267.62,Single-ply,SBD,M
Boys,55.79,4,Brennan Mallewick,Wills Point,52.44,104.33,49.9,106.59,260.82,Single-ply,SBD,M
Boys,67.13,1,Abe Flores,Sunnyvale,60.06,158.76,86.18,170.1,415.04,Single-ply,SBD,M
Boys,59.87,2,Matt Hernandez,Wills Point,59.51,154.22,88.45,167.83,410.5,Single-ply,SBD,M
Boys,59.87,3,Trey Russell,Eustace,58.79,145.15,90.72,167.83,403.7,Single-ply,SBD,M
Boys,59.87,4,Tyler Davis,Kaufman,59.6,161.03,72.57,145.15,378.75,Single-ply,SBD,M
Boys,59.87,5,Thein Tran,Sunnyvale,58.88,147.42,68.04,149.69,365.14,Single-ply,SBD,M
Boys,59.87,6,James Kimbrell,Kemp,57.7,127.01,72.57,136.08,335.66,Single-ply,SBD,M
Boys,59.87,DQ,Trent Fischer,Kemp,57.79,113.4,,,,Single-ply,SBD,M
Boys,59.87,DQ,Tyler Watson,Crandall,57.42,138.35,,,,Single-ply,SBD,M
Boys,67.13,1,Olice Rogers,Kemp,66.86,195.04,117.93,208.65,521.63,Single-ply,SBD,M
Boys,67.13,2,Devan Harris,Quinlan Boles,66.13,158.76,99.79,199.58,458.13,Single-ply,SBD,M
Boys,67.13,3,Colt Conway,Mabank,64.41,192.78,97.52,163.29,453.59,Single-ply,SBD,M
Boys,67.13,4,Michael Dennehy,Terrell,65.05,163.29,99.79,176.9,439.98,Single-ply,SBD,M
Boys,74.84,5,Daniel Broyles,Quinlan Boles,67.22,192.78,111.13,124.74,428.64,Single-ply,SBD,M
Boys,74.84,6,Charles William,Quinlan Ford,67.22,149.69,97.52,142.88,390.09,Single-ply,SBD,M
Boys,67.13,7,Justin Griffin,Eustace,64.59,142.88,74.84,149.69,367.41,Single-ply,SBD,M
Boys,67.13,8,Casey Cranford,Wills Point,63.96,127.01,81.65,138.35,347,Single-ply,SBD,M
Boys,67.13,9,Jorge Urteaga,Eustace,61.42,136.08,79.38,122.47,337.93,Single-ply,SBD,M
Boys,67.13,DQ,Garrett Haley,Kemp,66.32,156.49,,,,Single-ply,SBD,M
Boys,67.13,DQ,Wayne Wernicke,Kemp,66.59,,,,,Single-ply,SBD,M
Boys,67.13,DQ,Denton Bridges,Terrell,65.41,,,,,Single-ply,SBD,M
Boys,74.84,1,LaXavier Battee,Kaufman,73.12,188.24,111.13,199.58,498.95,Single-ply,SBD,M
Boys,74.84,2,Mohammad Shalabi,Sunnyvale,73.12,195.04,102.06,195.04,492.15,Single-ply,SBD,M
Boys,74.84,3,Jake Shinn,Quinlan Boles,71.94,181.44,108.86,181.44,471.74,Single-ply,SBD,M
Boys,74.84,4,Nate Jacobs,Crandall,72.03,158.76,97.52,181.44,437.72,Single-ply,SBD,M
Boys,74.84,5,Zane Koskelin,Mabank,73.94,158.76,102.06,158.76,419.57,Single-ply,SBD,M
Boys,82.1,6,Brett Mallon,Crandall,74.93,145.15,92.99,167.83,405.97,Single-ply,SBD,M
Boys,74.84,7,Omar Gonzalez,Malakoff,68.86,145.15,77.11,176.9,399.16,Single-ply,SBD,M
Boys,74.84,8,Felipe Reyes,Malakoff,69.58,145.15,90.72,158.76,394.63,Single-ply,SBD,M
Boys,74.84,9,Aj Dixon,Malakoff,69.4,136.08,86.18,158.76,381.02,Single-ply,SBD,M
Boys,74.84,10,Jacob Ghormley,Crandall,68.58,99.79,65.77,111.13,276.69,Single-ply,SBD,M
Boys,74.84,DQ,Braxton Allen,Crandall,71.76,,,,,Single-ply,SBD,M
Boys,74.84,DQ,Chris Fessenden,Kemp,69.22,127.01,,,,Single-ply,SBD,M
Boys,82.1,1,Brandon Rodriguez,Terrell,80.83,188.24,124.74,213.19,526.17,Single-ply,SBD,M
Boys,82.1,2,Jeremy Ballard,Corsicana Mildred,75.93,185.97,102.06,210.92,498.95,Single-ply,SBD,M
Boys,82.1,3,Jacob Holley,Kaufman,80.47,174.63,122.47,188.24,485.34,Single-ply,SBD,M
Boys,82.1,4,Wyatt Whitford,Quinlan Ford,81.83,158.76,108.86,188.24,455.86,Single-ply,SBD,M
Boys,82.1,5,Emmanuel Gonzales,Malakoff,78.56,176.9,86.18,185.97,449.06,Single-ply,SBD,M
Boys,82.1,6,Drake Barnica,Kemp,76.11,165.56,102.06,176.9,444.52,Single-ply,SBD,M
Boys,82.1,7,Karkland Terrell,Malakoff,76.66,149.69,92.99,176.9,419.57,Single-ply,SBD,M
Boys,82.1,8,Brenden Blunt,Crandall,76.2,145.15,92.99,136.08,374.21,Single-ply,SBD,M
Boys,89.81,9,Wally Shrout,Malakoff,82.28,140.61,83.91,138.35,362.87,Single-ply,SBD,M
Boys,82.1,DQ,Rawling Dixon,Malakoff,77.38,131.54,68.04,,,Single-ply,SBD,M
Boys,82.1,DQ,Abdul Khalaf,Sunnyvale,77.29,,,,,Single-ply,SBD,M
Boys,89.81,1,Marcos Garza,Mabank,89.36,226.8,145.15,219.99,591.94,Single-ply,SBD,M
Boys,89.81,2,Chase McDonald,Quinlan Ford,89.36,226.8,129.27,190.51,546.58,Single-ply,SBD,M
Boys,89.81,3,Jonathan Dunson,Kaufman,88,213.19,136.08,192.78,542.04,Single-ply,SBD,M
Boys,89.81,4,Chandler Schwiny,Quinlan Ford,83.55,181.44,92.99,176.9,451.32,Single-ply,SBD,M
Boys,89.81,5,Wrangler Hernandez,Quinlan Boles,83.82,158.76,104.33,158.76,421.84,Single-ply,SBD,M
Boys,99.79,1,Josh Freeman,Hubbard,97.16,249.48,142.88,219.99,612.35,Single-ply,SBD,M
Boys,99.79,2,Ben Dillon,Kemp,92.8,226.8,136.08,208.65,571.53,Single-ply,SBD,M
Boys,99.79,3,Antonio Harris,Terrell,96.34,201.85,124.74,208.65,535.24,Single-ply,SBD,M
Boys,99.79,4,Elier Avila,Kaufman,94.98,219.99,113.4,192.78,526.17,Single-ply,SBD,M
Boys,99.79,5,Kevin Morrow,Kaufman,93.35,195.04,108.86,204.12,508.02,Single-ply,SBD,M
Boys,99.79,6,Taner Renfro,Quinlan Ford,95.07,226.8,99.79,181.44,508.02,Single-ply,SBD,M
Boys,99.79,7,Thomas Munoz,Quinlan Ford,95.98,197.31,113.4,172.37,483.08,Single-ply,SBD,M
Boys,99.79,8,Jordan VanOver,Mabank,99.79,174.63,106.59,174.63,455.86,Single-ply,SBD,M
Boys,99.79,9,Lucas Russell,Mabank,90.26,158.76,122.47,170.1,451.32,Single-ply,SBD,M
Boys,99.79,DQ,David Delgado,Kemp,96.71,176.9,,,,Single-ply,SBD,M
Boys,109.77,1,Codey Huggins,Wills Point,107.59,242.67,104.33,226.8,573.79,Single-ply,SBD,M
Boys,109.77,2,Collin Martian,Mabank,106.59,210.92,131.54,183.7,526.17,Single-ply,SBD,M
Boys,109.77,3,Nelson Ochoa,Malakoff,109.13,229.06,104.33,192.78,526.17,Single-ply,SBD,M
Boys,109.77,4,Jordan Maraggia,Mabank,101.6,204.12,124.74,195.04,523.9,Single-ply,SBD,M
Boys,109.77,5,Diego Medina,Malakoff,101.51,208.65,104.33,183.7,496.68,Single-ply,SBD,M
Boys,109.77,6,Michael Shevyland,Sunnyvale,102.69,174.63,111.13,199.58,485.34,Single-ply,SBD,M
Boys,109.77,7,Dylan Blizzard,Kaufman,104.6,185.97,88.45,179.17,453.59,Single-ply,SBD,M
Boys,109.77,8,Montrelle Williams,Malakoff,101.6,163.29,97.52,165.56,426.38,Single-ply,SBD,M
Boys,124.74,1,Larry Counts,Kaufman,112.58,206.38,127.01,192.78,526.17,Single-ply,SBD,M
Boys,124.74,2,Wade Cookston,Sunnyvale,118.12,190.51,127.01,199.58,517.1,Single-ply,SBD,M
Boys,124.74,3,Chris Garcia,Quinlan Ford,113.49,206.38,133.81,167.83,508.02,Single-ply,SBD,M
Boys,124.74,4,Nicholas Rodriguez,Kaufman,121.74,190.51,106.59,195.04,492.15,Single-ply,SBD,M
Boys,124.74,5,Israel Chavez,Malakoff,117.03,199.58,108.86,181.44,489.88,Single-ply,SBD,M
Boys,124.74,6,Wally Baker,Eustace,111.22,181.44,113.4,149.69,444.52,Single-ply,SBD,M
Boys,124.74,DQ,David Torres,Eustace,112.31,185.97,,,,Single-ply,SBD,M
Boys,124.74+,1,Andre McKissick,Crandall,137.89,240.4,149.69,244.94,635.03,Single-ply,SBD,M
Boys,124.74+,2,Shawn Baker,Quinlan Ford,131.9,238.14,142.88,217.72,598.74,Single-ply,SBD,M
Boys,124.74+,3,Jesse Luna,Wills Point,149.05,249.48,108.86,199.58,557.92,Single-ply,SBD,M
Boys,124.74+,4,Jacob Reicherau,Crandall,142.7,217.72,124.74,213.19,555.65,Single-ply,SBD,M
Boys,124.74+,5,Eric Roberts,Terrell,126.64,226.8,127.01,183.7,537.51,Single-ply,SBD,M
Boys,124.74+,6,Kevin Stanley,Quinlan Ford,127.82,154.22,104.33,154.22,412.77,Single-ply,SBD,M
