Division,WeightClassKg,Place,Name,Team,BodyweightKg,Best3SquatKg,Best3BenchKg,Best3DeadliftKg,TotalKg,Equipment,Event,Sex
Boys,51.71,1,Echo Jones,Strawn,50.62,163.29,63.5,195.04,421.84,Single-ply,SBD,M
Boys,51.71,2,Daniel Rivera,Ponder,50.62,149.69,54.43,136.08,340.19,Single-ply,SBD,M
Boys,51.71,3,Carlos Villanueva,Strawn,50.26,136.08,61.23,108.86,306.17,Single-ply,SBD,M
Boys,51.71,DQ,Jack Morris,Bowie,50.44,,,,,Single-ply,SBD,M
Boys,55.79,1,Juan Mares,Bowie,55.34,149.69,90.72,133.81,374.21,Single-ply,SBD,M
Boys,55.79,2,Joey Crawford,Bowie,54.43,104.33,54.43,122.47,281.23,Single-ply,SBD,M
Boys,55.79,3,Rylee Miller,Paradise,53.16,97.52,56.7,102.06,256.28,Single-ply,SBD,M
Boys,59.87,1,Cristian Martinez,Bowie,56.97,190.51,111.13,188.24,489.88,Single-ply,SBD,M
Boys,59.87,2,Zack Allen,Ponder,57.52,161.03,77.11,154.22,392.36,Single-ply,SBD,M
Boys,59.87,3,Jonah Maston,Santo,59.69,145.15,70.31,142.88,358.34,Single-ply,SBD,M
Boys,59.87,4,Jay Rogers,Bowie,58.42,131.54,65.77,145.15,342.46,Single-ply,SBD,M
Boys,59.87,5,Garrett Fontinot,Paradise,59.78,127.01,72.57,127.01,326.59,Single-ply,SBD,M
Boys,67.13,1,Darian Sotomi,Paradise,65.68,199.58,120.2,197.31,517.1,Single-ply,SBD,M
Boys,67.13,2,J. Paul Axtell,Olney,64.5,204.12,111.13,190.51,505.76,Single-ply,SBD,M
Boys,67.13,3,Wyatt Burrows,Olney,66.04,188.24,102.06,204.12,494.42,Single-ply,SBD,M
Boys,67.13,4,Jayton Trammell,Santo,65.32,181.44,99.79,195.04,476.27,Single-ply,SBD,M
Boys,67.13,5,Braden Gonzales,Alvord,64.5,163.29,104.33,172.37,439.98,Single-ply,SBD,M
Boys,67.13,6,Dalton Trouille,Olney,63.96,154.22,104.33,154.22,412.77,Single-ply,SBD,M
Boys,67.13,7,Chance Tomlinson,Bowie,62.41,145.15,92.99,172.37,410.5,Single-ply,SBD,M
Boys,67.13,8,Grant Carter,Santo,64.68,142.88,70.31,140.61,353.8,Single-ply,SBD,M
Boys,67.13,9,Cody Putnam,Alvord,65.05,136.08,74.84,136.08,347,Single-ply,SBD,M
Boys,67.13,10,Ethan Fudge #2,Jacksboro,64.59,136.08,77.11,127.01,340.19,Single-ply,SBD,M
Boys,67.13,11,Juan Reyna,Santo,66.32,127.01,65.77,136.08,328.85,Single-ply,SBD,M
Boys,67.13,12,Jason Hopkins,Electra,66.59,127.01,77.11,108.86,312.98,Single-ply,SBD,M
Boys,67.13,13,Tucker Elliott,Santo,64.59,81.65,58.97,140.61,281.23,Single-ply,SBD,M
Boys,67.13,DQ,Justin Jackson,Bowie,60.06,,,,,Single-ply,SBD,M
Boys,74.84,1,Jacob Bridges,Jacksboro,71.3,183.7,124.74,208.65,517.1,Single-ply,SBD,M
Boys,74.84,2,Noah Maston,Santo,71.67,172.37,97.52,181.44,451.32,Single-ply,SBD,M
Boys,74.84,3,Josh Wells,Jacksboro,67.95,158.76,97.52,183.7,439.98,Single-ply,SBD,M
Boys,74.84,4,Will Reaves,Paradise,71.12,163.29,111.13,163.29,437.72,Single-ply,SBD,M
Boys,74.84,5,Jordan Freeman,Ponder,70.03,181.44,90.72,149.69,421.84,Single-ply,SBD,M
Boys,74.84,6,Chandler Hefley,Bowie,68.58,165.56,86.18,163.29,415.04,Single-ply,SBD,M
Boys,74.84,7,Bryan Hernandez,Olney,71.94,147.42,106.59,158.76,412.77,Single-ply,SBD,M
Boys,74.84,8,William Kurnes,Chico,71.76,158.76,77.11,158.76,394.63,Single-ply,SBD,M
Boys,74.84,9,Albert Navarrette,Ponder,72.67,90.72,83.91,72.57,247.21,Single-ply,SBD,M
Boys,74.84,DQ,Tyler Hayes,Nocona,67.95,133.81,,,,Single-ply,SBD,M
Boys,82.1,1,Hunter Hackley,Jacksboro,80.01,195.04,122.47,197.31,514.83,Single-ply,SBD,M
Boys,82.1,2,Hunter Abston,Olney,76.38,183.7,136.08,158.76,478.54,Single-ply,SBD,M
Boys,82.1,3,Donny Neal,Chico,78.29,158.76,106.59,195.04,460.4,Single-ply,SBD,M
Boys,82.1,4,Zackary Otto,Bowie,77.11,167.83,86.18,165.56,419.57,Single-ply,SBD,M
Boys,82.1,DQ,Montana Hernandez,Electra,76.48,142.88,,,,Single-ply,SBD,M
Boys,82.1,DQ,Nick Rhodes,Paradise,77.75,147.42,,,,Single-ply,SBD,M
Boys,82.1,DQ,Garrett Johnson,Ponder,75.84,,,,,Single-ply,SBD,M
Boys,89.81,1,Austin Bennett,Ponder,83.55,222.26,129.27,226.8,578.33,Single-ply,SBD,M
Boys,89.81,2,Ben Dankesreiter,Ponder,88,226.8,117.93,204.12,548.85,Single-ply,SBD,M
Boys,89.81,3,Bret Davis,Bowie,85.91,199.58,145.15,195.04,539.77,Single-ply,SBD,M
Boys,89.81,4,Bridger Skogberg,Paradise,87.36,204.12,124.74,181.44,510.29,Single-ply,SBD,M
Boys,89.81,5,Kylar Pendergraft,Nocona,88.9,185.97,90.72,176.9,453.59,Single-ply,SBD,M
Boys,89.81,6,Juan Mancilla,Nocona,86.27,149.69,88.45,199.58,437.72,Single-ply,SBD,M
Boys,89.81,7,Johnathon Green,Jacksboro,82.83,165.56,99.79,170.1,435.45,Single-ply,SBD,M
Boys,89.81,8,Jason Daughtry,Nocona,83.19,124.74,70.31,147.42,342.46,Single-ply,SBD,M
Boys,99.79,1,Tristan Dennison,Bowie,90.08,226.8,122.47,219.99,569.26,Single-ply,SBD,M
Boys,99.79,2,Mitch Fruth,Ponder,96.62,204.12,124.74,188.24,517.1,Single-ply,SBD,M
Boys,99.79,3,Seth Alston,Santo,92.44,210.92,102.06,179.17,492.15,Single-ply,SBD,M
Boys,99.79,4,Chandler Bridges,Jacksboro,99.06,179.17,97.52,181.44,458.13,Single-ply,SBD,M
Boys,99.79,5,Zach Boyd,Nocona,90.81,163.29,113.4,170.1,446.79,Single-ply,SBD,M
Boys,99.79,6,KC Rater,Jacksboro,99.47,138.35,83.91,138.35,360.61,Single-ply,SBD,M
Boys,99.79,7,Cody Snead,Alvord,99.06,108.86,108.86,127.01,344.73,Single-ply,SBD,M
Boys,109.77,1,Drew McVicker,Olney,103.96,299.37,215.46,229.06,743.89,Single-ply,SBD,M
Boys,109.77,2,Dylan Hudson,Olney,103.42,210.92,138.35,183.7,532.97,Single-ply,SBD,M
Boys,109.77,3,Raymond Carrasco,Olney,100.33,192.78,120.2,204.12,517.1,Single-ply,SBD,M
Boys,109.77,4,Anthony Coker,Santo,102.24,188.24,99.79,195.04,483.08,Single-ply,SBD,M
Boys,109.77,5,Cody Armstrong,Chico,100.06,183.7,97.52,190.51,471.74,Single-ply,SBD,M
Boys,109.77,6,Joseph Crouse,Archer City,104.24,158.76,113.4,185.97,458.13,Single-ply,SBD,M
Boys,109.77,7,Deuce Glasker,Nocona,103.15,122.47,72.57,117.93,312.98,Single-ply,SBD,M
Boys,124.74,1,Saul Landaverde,Bowie,118.84,294.84,158.76,244.94,698.53,Single-ply,SBD,M
Boys,124.74,2,Tanner Edwards,Paradise,115.58,285.76,174.63,233.6,694,Single-ply,SBD,M
Boys,124.74,3,Blake Martin,Alvord,114.03,265.35,111.13,204.12,580.6,Single-ply,SBD,M
Boys,124.74,4,Justin Wagner,Ponder,112.85,249.48,133.81,190.51,573.79,Single-ply,SBD,M
Boys,124.74,5,Jayden Workman,Electra,110.68,181.44,113.4,170.1,464.93,Single-ply,SBD,M
Boys,124.74,6,Jacob Flores,Strawn,112.58,158.76,79.38,149.69,387.82,Single-ply,SBD,M
Boys,124.74,DQ,Trace Boyd,Strawn,110.95,,,,,Single-ply,SBD,M
Boys,124.74,DQ,Deric Conner,Paradise,111.49,,,,,Single-ply,SBD,M
Boys,124.74+,1,Jared Roberts,Bowie,140.43,258.55,145.15,226.8,630.49,Single-ply,SBD,M
Boys,124.74+,2,Tyler Wagner,Ponder,129.18,235.87,115.67,192.78,544.31,Single-ply,SBD,M
Boys,124.74+,DQ,Tyler Yzaguirre,Alvord,129.27,213.19,,,,Single-ply,SBD,M
Boys,,NS,Tim Simbathy,Alvord,,,,,,Single-ply,SBD,M
Boys,,NS,Clayton Holmes,Electra,,,,,,Single-ply,SBD,M
Boys,,NS,Kalan Johnson,Chico,,,,,,Single-ply,SBD,M
Boys,,NS,Cameron Starnes,Chico,,,,,,Single-ply,SBD,M
Boys,,NS,Cody Howard,Jacksboro,,,,,,Single-ply,SBD,M
Boys,,NS,Jack McKenna,Ponder,,,,,,Single-ply,SBD,M
Boys,,NS,Cody Holoway,Paradise,,,,,,Single-ply,SBD,M
Boys,,NS,Andrew Borsch,Ponder,,,,,,Single-ply,SBD,M
Boys,,NS,Lorenzo Romo,Paradise,,,,,,Single-ply,SBD,M
Boys,,NS,Austin Coker,Santo,,,,,,Single-ply,SBD,M
Boys,,NS,Michael Ivy,Santo,,,,,,Single-ply,SBD,M
