Division,WeightClassKg,Place,Name,Team,BodyweightKg,Best3SquatKg,Best3BenchKg,Best3DeadliftKg,TotalKg,Equipment,Event,Sex
Boys,51.71,1,Tuti Garcia,Los Fresnos,51.62,183.7,92.99,183.7,460.4,Single-ply,SBD,M
Boys,51.71,2,Albert de la Rosa,San Benito,49.44,147.42,97.52,165.56,410.5,Single-ply,SBD,M
Boys,51.71,3,Brooks Guzman,Weslaco East,50.89,158.76,81.65,170.1,410.5,Single-ply,SBD,M
Boys,51.71,4,Jose Quintero,Brownsville Lopez,51.21,88.45,49.9,104.33,242.67,Single-ply,SBD,M
Boys,51.71,DQ,Anthony Garcia,Weslaco,45.13,111.13,58.97,,,Single-ply,SBD,M
Boys,51.71,DQ,David Garcia,Pharr Valley View,50.39,158.76,,,,Single-ply,SBD,M
Boys,55.79,1,Raul Mota,San Benito,54.43,167.83,102.06,190.51,460.4,Single-ply,SBD,M
Boys,55.79,2,Angel Flores,Weslaco East,54.61,165.56,95.25,183.7,444.52,Single-ply,SBD,M
Boys,59.87,3,Mario Villlarreal,Weslaco,56.02,136.08,70.31,151.95,358.34,Single-ply,SBD,M
Boys,55.79,4,Ramiro Mendez,Raymondville,55.79,124.74,72.57,142.88,340.19,Single-ply,SBD,M
Boys,55.79,5,Hugo Abarca,Lyford,54.07,122.47,65.77,138.35,326.59,Single-ply,SBD,M
Boys,55.79,6,Misael Marquez,Brownsville Veterans Memorial,55.79,127.01,79.38,117.93,324.32,Single-ply,SBD,M
Boys,55.79,7,Hugo Alegre,Brownsville Rivera,55.79,102.06,61.23,131.54,294.84,Single-ply,SBD,M
Boys,59.87,8,Jose Sanchez,Brownsville Lopez,55.88,104.33,63.5,113.4,281.23,Single-ply,SBD,M
Boys,55.79,9,Esteban Casas,La Villa,54.43,102.06,61.23,74.84,238.14,Single-ply,SBD,M
Boys,55.79,DQ,Eleazar Duenez,Edcouch-Elsa,55.52,161.03,,,,Single-ply,SBD,M
Boys,59.87,1,Louis Vasquez,Los Fresnos,58.69,176.9,102.06,192.78,471.74,Single-ply,SBD,M
Boys,59.87,2,Juan Rivera,Los Fresnos,58.51,138.35,117.93,183.7,439.98,Single-ply,SBD,M
Boys,67.13,3,Adrian Torres,La Feria,60.1,163.29,83.91,181.44,428.64,Single-ply,SBD,M
Boys,59.87,4,Marty Capetillo,Lyford,59.42,154.22,90.72,149.69,394.63,Single-ply,SBD,M
Boys,59.87,5,Vince Hernandez,Pharr Valley View,58.01,142.88,77.11,172.37,392.36,Single-ply,SBD,M
Boys,59.87,6,David Nieto,Raymondville,59.87,124.74,97.52,142.88,365.14,Single-ply,SBD,M
Boys,59.87,7,Chris Castro,Mercedes,56.7,120.2,90.72,140.61,351.53,Single-ply,SBD,M
Boys,59.87,8,Andres Martinez,Port Isabel,57.11,117.93,90.72,142.88,351.53,Single-ply,SBD,M
Boys,59.87,9,Joseph Esparza,Lyford,56.97,136.08,65.77,131.54,333.39,Single-ply,SBD,M
Boys,59.87,10,JJ Camacho,Brownsville Pace,59.42,115.67,79.38,115.67,310.71,Single-ply,SBD,M
Boys,59.87,11,Isaac Silva,La Villa,59.87,113.4,72.57,113.4,299.37,Single-ply,SBD,M
Boys,59.87,DQ,David Gonzalez,Pharr Valley View,56.7,124.74,,,,Single-ply,SBD,M
Boys,59.87,DQ,Tommy Jasso,Weslaco,58.74,,,,,Single-ply,SBD,M
Boys,67.13,1,Julio Rodriguez,Raymondville,66.72,197.31,120.2,224.53,542.04,Single-ply,SBD,M
Boys,67.13,2,Joshua Garcia,Weslaco,63.96,210.92,113.4,215.46,539.77,Single-ply,SBD,M
Boys,67.13,3,James Zaragoza,Raymondville,66.81,201.85,115.67,208.65,526.17,Single-ply,SBD,M
Boys,67.13,4,Toby Torres,San Benito,63.5,188.24,115.67,213.19,517.1,Single-ply,SBD,M
Boys,67.13,5,Carlos Grimaldo,Brownsville Hanna,66.72,185.97,111.13,208.65,505.76,Single-ply,SBD,M
Boys,67.13,6,Emilio Tamez,Weslaco East,66.86,181.44,108.86,208.65,498.95,Single-ply,SBD,M
Boys,67.13,7,Andres Trinidad,Brownsville Pace,62.14,174.63,113.4,192.78,480.81,Single-ply,SBD,M
Boys,67.13,8,Jaime Gonzalez,Port Isabel,62.14,188.24,106.59,181.44,476.27,Single-ply,SBD,M
Boys,67.13,9,Heliseo Guerrero,Rio Hondo,62.82,170.1,111.13,195.04,476.27,Single-ply,SBD,M
Boys,67.13,10,Julian Flores,Rio Hondo,60.78,170.1,115.67,183.7,469.47,Single-ply,SBD,M
Boys,67.13,11,Azul Barrientos,Los Fresnos,65.09,163.29,99.79,199.58,462.66,Single-ply,SBD,M
Boys,67.13,12,Jorge Ramos,Weslaco,61.46,170.1,106.59,181.44,458.13,Single-ply,SBD,M
Boys,67.13,13,Chris Morales,Edcouch-Elsa,66.9,156.49,99.79,195.04,451.32,Single-ply,SBD,M
Boys,67.13,14,Omar Rogriguez,Brownsville Veterans Memorial,66.9,163.29,106.59,151.95,421.84,Single-ply,SBD,M
Boys,67.13,15,Albert Vasquez,La Feria,65.77,165.56,79.38,170.1,415.04,Single-ply,SBD,M
Boys,67.13,16,Rogelio Pullido,Brownsville Lopez,65.05,142.88,88.45,181.44,412.77,Single-ply,SBD,M
Boys,67.13,17,Hugo Salas,Brownsville Lopez,64.36,156.49,95.25,151.95,403.7,Single-ply,SBD,M
Boys,74.84,18,Mike Adameit,Lyford,67.22,149.69,83.91,136.08,369.68,Single-ply,SBD,M
Boys,67.13,19,Yayo Segura,Brownsville Pace,62.37,124.74,86.18,149.69,360.61,Single-ply,SBD,M
Boys,67.13,20,Anthony Castillo,Harlingen South,61.23,129.27,83.91,142.88,356.07,Single-ply,SBD,M
Boys,67.13,21,Jose Saenz,Lyford,65.59,122.47,74.84,131.54,328.85,Single-ply,SBD,M
Boys,67.13,22,Jessie Ramirez,Brownsville Hanna,65.86,106.59,70.31,133.81,310.71,Single-ply,SBD,M
Boys,67.13,DQ,John Montes,Lyford,62.32,133.81,,,,Single-ply,SBD,M
Boys,74.84,1,Christopher Godoy,Brownsville Rivera,73.12,235.87,129.27,258.55,623.69,Single-ply,SBD,M
Boys,74.84,2,Jesse Leyva,Raymondville,74.25,247.21,136.08,240.4,623.69,Single-ply,SBD,M
Boys,82.1,3,Miguel Mariscal,Edcouch-Elsa,74.89,235.87,151.95,231.33,619.15,Single-ply,SBD,M
Boys,74.84,4,Bryan Sanchez,Weslaco East,74.39,219.99,154.22,229.06,603.28,Single-ply,SBD,M
Boys,74.84,5,Felix Tirado,Weslaco,69.17,208.65,131.54,217.72,557.92,Single-ply,SBD,M
Boys,74.84,6,Richard Martinez,Brownsville Hanna,74.43,190.51,140.61,208.65,539.77,Single-ply,SBD,M
Boys,74.84,7,Erin Estevanes,Weslaco,69.63,206.38,115.67,206.38,528.44,Single-ply,SBD,M
Boys,74.84,8,Ivan Rodriguez,Pharr Valley View,71.67,204.12,127.01,195.04,526.17,Single-ply,SBD,M
Boys,82.1,9,Eliseo Garzoria,Los Fresnos,75.07,185.97,97.52,226.8,510.29,Single-ply,SBD,M
Boys,74.84,10,Chain Camacho,Port Isabel,71.62,172.37,127.01,201.85,501.22,Single-ply,SBD,M
Boys,74.84,11,Joey Guzman,Rio Hondo,71.89,165.56,113.4,204.12,483.08,Single-ply,SBD,M
Boys,74.84,12,John Ray Martinez,Port Isabel,73.71,183.7,115.67,183.7,483.08,Single-ply,SBD,M
Boys,74.84,13,Guadalupe Camacho,Brownsville Lopez,73.26,172.37,106.59,195.04,474,Single-ply,SBD,M
Boys,74.84,14,Jose Morua,Brownsville Rivera,71.99,192.78,111.13,167.83,471.74,Single-ply,SBD,M
Boys,74.84,15,Angel Hernandez,Pharr Valley View,69.85,165.56,108.86,195.04,469.47,Single-ply,SBD,M
Boys,74.84,16,Travis Ramos,Lyford,69.9,181.44,99.79,174.63,455.86,Single-ply,SBD,M
Boys,74.84,17,Christopher Olivarez,La Feria,69.44,142.88,79.38,172.37,394.63,Single-ply,SBD,M
Boys,74.84,18,Jorge Villalobos,Mercedes,71.67,154.22,83.91,145.15,383.29,Single-ply,SBD,M
Boys,74.84,19,Adrian Lopez,Brownsville Rivera,73.66,111.13,106.59,136.08,353.8,Single-ply,SBD,M
Boys,74.84,20,Steven Rodriguez,Harlingen South,68.04,124.74,88.45,136.08,349.27,Single-ply,SBD,M
Boys,74.84,21,Daniel Caldera,La Villa,70.99,124.74,70.31,136.08,331.12,Single-ply,SBD,M
Boys,74.84,DQ,Angel Loera,Brownsville Rivera,72.44,149.69,,,,Single-ply,SBD,M
Boys,74.84,DQ,Pablo Garza,Brownsville Pace,70.31,142.88,102.06,,,Single-ply,SBD,M
Boys,74.84,DQ,Roel Benitez,Rio Hondo,70.94,165.56,127.01,,,Single-ply,SBD,M
Boys,82.1,1,Ram Mendoza,Weslaco East,81.1,240.4,147.42,226.8,614.62,Single-ply,SBD,M
Boys,82.1,2,Roger Tapia,Brownsville Veterans Memorial,82.1,229.06,133.81,242.67,605.55,Single-ply,SBD,M
Boys,82.1,3,Javier Galvan,Weslaco,76.2,210.92,115.67,224.53,551.11,Single-ply,SBD,M
Boys,82.1,4,Abram Ramirez,Rio Hondo,79.15,199.58,140.61,210.92,551.11,Single-ply,SBD,M
Boys,82.1,5,Trey Saldana,San Benito,78.47,183.7,138.35,210.92,532.97,Single-ply,SBD,M
Boys,82.1,6,Freddy de la Garza,Brownsville Hanna,78.47,190.51,138.35,199.58,528.44,Single-ply,SBD,M
Boys,82.1,7,Daniel Flores,Rio Hondo,75.3,204.12,117.93,174.63,496.68,Single-ply,SBD,M
Boys,82.1,8,Abram Guttierez,Harlingen South,81.87,170.1,102.06,185.97,458.13,Single-ply,SBD,M
Boys,82.1,9,Carlos Alvarez,Mercedes,76.2,151.95,117.93,163.29,433.18,Single-ply,SBD,M
Boys,82.1,10,Eddie Molina,San Benito,79.38,120.2,92.99,185.97,399.16,Single-ply,SBD,M
Boys,82.1,11,Ramiro Cantu,La Villa,80.1,151.95,95.25,142.88,390.09,Single-ply,SBD,M
Boys,82.1,DQ,Steven Martinez,Port Isabel,81.69,,,,,Single-ply,SBD,M
Boys,82.1,DQ,Cord Castro,Lyford,80.65,183.7,111.13,,,Single-ply,SBD,M
Boys,82.1,DQ,Frankie Almanza,Los Fresnos,82.1,,,,,Single-ply,SBD,M
Boys,82.1,DQ,Javi Cruz,Los Fresnos,80.29,,,,,Single-ply,SBD,M
Boys,82.1,DQ,Rene Aguilar,Brownsville Lopez,81.28,235.87,140.61,,,Single-ply,SBD,M
Boys,89.81,DQ,Jorge Gutierrez,Brownsville Porter,82.33,,,,,Single-ply,SBD,M
Boys,89.81,1,Ramon Sauceda,La Feria,89.36,276.69,190.51,249.48,716.68,Single-ply,SBD,M
Boys,89.81,2,Arnulfo Marin,Pharr Valley View,86.64,285.76,158.76,254.01,698.53,Single-ply,SBD,M
Boys,89.81,3,Ryan Navarro,Weslaco East,88.63,242.67,136.08,244.94,623.69,Single-ply,SBD,M
Boys,89.81,4,JJ Barrientes,Brownsville Hanna,85.73,244.94,154.22,217.72,616.89,Single-ply,SBD,M
Boys,89.81,5,Aaron Zapata,Los Fresnos,89.81,238.14,136.08,240.4,614.62,Single-ply,SBD,M
Boys,89.81,6,Edgar Oregon,Brownsville Lopez,87.41,244.94,122.47,244.94,612.35,Single-ply,SBD,M
Boys,89.81,7,Augustin Morales,Weslaco East,87.09,233.6,140.61,235.87,610.08,Single-ply,SBD,M
Boys,89.81,8,Jonah Cepeda,Los Fresnos,89.13,226.8,122.47,235.87,585.13,Single-ply,SBD,M
Boys,89.81,9,Erick Vasquez,Brownsville Veterans Memorial,89.18,238.14,136.08,201.85,576.06,Single-ply,SBD,M
Boys,89.81,10,Marco Zuñiga,San Benito,88,226.8,108.86,226.8,562.45,Single-ply,SBD,M
Boys,89.81,11,David Avila,Mercedes,86.41,199.58,151.95,183.7,535.24,Single-ply,SBD,M
Boys,89.81,12,Jose Melendez,Pharr Valley View,83.91,197.31,108.86,208.65,514.83,Single-ply,SBD,M
Boys,89.81,13,Rick Sauceda,Brownsville Lopez,89.04,185.97,117.93,190.51,494.42,Single-ply,SBD,M
Boys,89.81,14,Jared Shineman,Harlingen South,84.37,170.1,113.4,181.44,464.93,Single-ply,SBD,M
Boys,89.81,15,Jesus Barrientes,Mercedes,85.73,158.76,102.06,161.03,421.84,Single-ply,SBD,M
Boys,89.81,16,Miguel Terran,Brownsville Pace,85.73,133.81,90.72,170.1,394.63,Single-ply,SBD,M
Boys,89.81,17,Juan Rodriguez,Brownsville Pace,83.91,102.06,88.45,108.86,299.37,Single-ply,SBD,M
Boys,89.81,DQ,Ricardo Guajardo,Raymondville,84.64,215.46,,,,Single-ply,SBD,M
Boys,99.79,1,Jacob Alaniz,Brownsville Veterans Memorial,99.79,294.84,165.56,272.16,732.55,Single-ply,SBD,M
Boys,99.79,2,Danny Cisneros,Brownsville Lopez,95.57,244.94,147.42,247.21,639.57,Single-ply,SBD,M
Boys,99.79,3,Jerry DeCanini,Weslaco East,98.61,242.67,131.54,244.94,619.15,Single-ply,SBD,M
Boys,99.79,4,Michael Alvarez,Brownsville Pace,91.85,249.48,136.08,197.31,582.87,Single-ply,SBD,M
Boys,99.79,5,Israel Torres,La Feria,98.88,217.72,138.35,224.53,580.6,Single-ply,SBD,M
Boys,99.79,6,Lalo Buenrostro,San Benito,90.26,217.72,122.47,229.06,569.26,Single-ply,SBD,M
Boys,99.79,7,Jesús Torres,Weslaco,92.08,210.92,131.54,219.99,562.45,Single-ply,SBD,M
Boys,99.79,8,Jose Gomez,Mercedes,93.44,219.99,133.81,206.38,560.19,Single-ply,SBD,M
Boys,99.79,9,Jimmy Cantu,Brownsville Veterans Memorial,91.72,204.12,138.35,208.65,551.11,Single-ply,SBD,M
Boys,99.79,10,Pedro Gonzalez,Brownsville Veterans Memorial,95.3,217.72,124.74,192.78,535.24,Single-ply,SBD,M
Boys,99.79,11,Rey Rodriguez,Pharr Valley View,92.99,224.53,104.33,176.9,505.76,Single-ply,SBD,M
Boys,99.79,12,Daneil Gonzalez,Brownsville Pace,93.89,163.29,97.52,151.95,412.77,Single-ply,SBD,M
Boys,99.79,13,Michael Gutierrez,Mercedes,92.53,151.95,90.72,163.29,405.97,Single-ply,SBD,M
Boys,99.79,14,Austin Rodriguez,Lyford,91.22,149.69,95.25,133.81,378.75,Single-ply,SBD,M
Boys,99.79,15,Matthew Felix,La Villa,93.08,133.81,113.4,113.4,360.61,Single-ply,SBD,M
Boys,99.79,DQ,Jonathan Ojeda,Brownsville Pace,93.03,120.2,,,,Single-ply,SBD,M
Boys,99.79,DQ,Marco Garcia,Rio Hondo,90.49,,,,,Single-ply,SBD,M
Boys,109.77,1,Jose Juarez,Weslaco,108.86,272.16,170.1,238.14,680.39,Single-ply,SBD,M
Boys,109.77,2,Armando Martinez,Weslaco East,108.23,265.35,136.08,242.67,644.1,Single-ply,SBD,M
Boys,109.77,3,Steven Rodriguez,San Benito,100.7,226.8,151.95,244.94,623.69,Single-ply,SBD,M
Boys,109.77,4,Marco Gutierrez,La Feria,105.69,240.4,158.76,217.72,616.89,Single-ply,SBD,M
Boys,109.77,5,Caleb Robertson,Rio Hondo,102.33,256.28,127.01,210.92,594.21,Single-ply,SBD,M
Boys,109.77,6,Bryan Lawrence,Brownsville Veterans Memorial,100.15,226.8,124.74,208.65,560.19,Single-ply,SBD,M
Boys,109.77,7,Alexis Rangel,Brownsville Hanna,109.68,208.65,111.13,235.87,555.65,Single-ply,SBD,M
Boys,124.74,8,Jose Encina,Brownsville Hanna,109.81,206.38,136.08,204.12,546.58,Single-ply,SBD,M
Boys,109.77,9,Robert Pyan,Brownsville Porter,100.47,219.99,108.86,215.46,544.31,Single-ply,SBD,M
Boys,109.77,10,Abel Villareal,Harlingen South,103.19,215.46,120.2,188.24,523.9,Single-ply,SBD,M
Boys,109.77,11,Matthew Trinidad,Brownsville Hanna,107.05,204.12,154.22,138.35,496.68,Single-ply,SBD,M
Boys,109.77,12,Manny Hernandez,Rio Hondo,100.92,215.46,97.52,154.22,467.2,Single-ply,SBD,M
Boys,124.74,13,Adrian Valle,Raymondville,110,170.1,79.38,124.74,374.21,Single-ply,SBD,M
Boys,109.77,DQ,German Lopez,Weslaco East,106.23,,,,,Single-ply,SBD,M
Boys,124.74,1,Bobby Gonzalez,Raymondville,113.4,365.14,226.8,265.35,857.29,Single-ply,SBD,M
Boys,124.74,2,Alex Briseno,Brownsville Rivera,119.98,340.19,219.99,249.48,809.66,Single-ply,SBD,M
Boys,124.74,3,Gabriel Rodriguez,Edcouch-Elsa,118.48,317.51,192.78,217.72,728.02,Single-ply,SBD,M
Boys,124.74,4,Josue Garzoria,Los Fresnos,121.79,249.48,192.78,260.82,703.07,Single-ply,SBD,M
Boys,124.74,5,Jesse Guzman,Brownsville Veterans Memorial,115.44,285.76,158.76,235.87,680.39,Single-ply,SBD,M
Boys,124.74,6,Robert Cervantes,Raymondville,114.31,272.16,145.15,215.46,632.76,Single-ply,SBD,M
Boys,124.74,7,Gonzalo Alegria,La Feria,119.98,272.16,127.01,213.19,612.35,Single-ply,SBD,M
Boys,124.74,8,Miguel Quintana,Edcouch-Elsa,112.85,258.55,136.08,192.78,587.4,Single-ply,SBD,M
Boys,124.74,9,Henry Flores,Harlingen South,115.44,272.16,111.13,188.24,571.53,Single-ply,SBD,M
Boys,124.74,10,Josh Castillo,Brownsville Pace,112.49,219.99,136.08,204.12,560.19,Single-ply,SBD,M
Boys,124.74,11,Rene Perez,Weslaco,111.36,229.06,142.88,185.97,557.92,Single-ply,SBD,M
Boys,124.74,12,Jaylon Grimaldo,Raymondville,110.45,226.8,120.2,208.65,555.65,Single-ply,SBD,M
Boys,124.74,13,Robert De Leon,Lyford,111.36,181.44,99.79,158.76,439.98,Single-ply,SBD,M
Boys,124.74,14,Justin Vela,Lyford,120.43,149.69,99.79,183.7,433.18,Single-ply,SBD,M
Boys,124.74,15,Francisco Hernandez,Port Isabel,119.25,172.37,106.59,142.88,421.84,Single-ply,SBD,M
Boys,124.74,16,Jose Guerrero,La Villa,119.34,156.49,102.06,158.76,417.3,Single-ply,SBD,M
Boys,124.74+,1,Jose Limon,Los Fresnos,139.93,335.66,163.29,283.5,782.45,Single-ply,SBD,M
Boys,124.74+,2,Sergio Morales,Weslaco East,150.14,281.23,188.24,288.03,757.5,Single-ply,SBD,M
Boys,124.74+,3,Rick Hinojosa,Mercedes,129.27,272.16,204.12,249.48,725.75,Single-ply,SBD,M
Boys,124.74+,4,Mando Castillo,Brownsville Lopez,132.68,274.42,156.49,249.48,680.39,Single-ply,SBD,M
Boys,124.74+,5,Gage Rivas,Brownsville Veterans Memorial,134.63,249.48,192.78,204.12,646.37,Single-ply,SBD,M
Boys,124.74+,6,Mario DeLeon,La Feria,129.27,249.48,161.03,219.99,630.49,Single-ply,SBD,M
Boys,124.74+,7,Mando Ruvio,Rio Hondo,125.42,219.99,127.01,204.12,551.11,Single-ply,SBD,M
Boys,124.74+,8,Victor Rodriguez,Brownsville Pace,131.31,174.63,92.99,165.56,433.18,Single-ply,SBD,M
