Division,WeightClassKg,Place,Name,Team,BodyweightKg,Best3SquatKg,Best3BenchKg,Best3DeadliftKg,TotalKg,Equipment,Event,Sex
Boys,51.71,1,Josue Leon,Sulphur Springs,48.35,117.93,56.7,136.08,310.71,Single-ply,SBD,M
Boys,51.71,2,Ashton Griffin,Lindale,51.26,88.45,63.5,111.13,263.08,Single-ply,SBD,M
Boys,51.71,3,Tristen Pratt,Texarkana Liberty-Eylau,45.63,83.91,47.63,92.99,224.53,Single-ply,SBD,M
Boys,51.71,4,Colton Cook,Caddo Mills,47.54,90.72,40.82,83.91,215.46,Single-ply,SBD,M
Boys,55.79,1,Thomas Howard,Texarkana Liberty-Eylau,55.52,138.35,90.72,156.49,385.55,Single-ply,SBD,M
Boys,55.79,2,Blake Mirowitz,Red Oak,54.88,147.42,74.84,158.76,381.02,Single-ply,SBD,M
Boys,55.79,3,Jage Smith,Kaufman,54.43,127.01,61.23,145.15,333.39,Single-ply,SBD,M
Boys,55.79,4,Justin Gunderson,Sulphur Springs,54.43,113.4,65.77,131.54,310.71,Single-ply,SBD,M
Boys,55.79,5,Kenny Roca,Venus,55.79,124.74,61.23,113.4,299.37,Single-ply,SBD,M
Boys,55.79,6,Dakota Monroe,Caddo Mills,55.43,113.4,61.23,115.67,290.3,Single-ply,SBD,M
Boys,55.79,7,Jake Magee,Caddo Mills,54.88,99.79,70.31,111.13,281.23,Single-ply,SBD,M
Boys,59.87,1,Riley Foshee,Lindale,59.33,145.15,65.77,147.42,358.34,Single-ply,SBD,M
Boys,59.87,2,Storm Bruner,Grapeland,58.33,97.52,61.23,127.01,285.76,Single-ply,SBD,M
Boys,59.87,3,Russ Garetson,Forney,58.51,90.72,68.04,120.2,278.96,Single-ply,SBD,M
Boys,59.87,DQ,Grant Leach,Fort Worth Western Hills,59.78,,,,,Single-ply,SBD,M
Boys,59.87,DQ,Cornelius Weaver,Grapeland,59.6,204.12,,,,Single-ply,SBD,M
Boys,59.87,DQ,Austin Serna,Overton,56.52,104.33,,,,Single-ply,SBD,M
Boys,59.87,DQ,Taylor Link,Sulphur Springs,58.33,,,,,Single-ply,SBD,M
Boys,67.13,DQ,Levi Mowles,Venus,60.1,113.4,,,,Single-ply,SBD,M
Boys,67.13,1,Marqus Newby,Caddo Mills,64.86,174.63,72.57,174.63,421.84,Single-ply,SBD,M
Boys,67.13,2,Joe Posigian,Kaufman,66.04,154.22,74.84,176.9,405.97,Single-ply,SBD,M
Boys,67.13,3,Tarance Glady,Terrell,60.6,158.76,86.18,158.76,403.7,Single-ply,SBD,M
Boys,67.13,4,De'Shun Brewer,Texarkana Liberty-Eylau,61.33,154.22,81.65,167.83,403.7,Single-ply,SBD,M
Boys,67.13,5,Justin Wilshusen,Grapeland,66.68,149.69,104.33,149.69,403.7,Single-ply,SBD,M
Boys,67.13,6,DeMarcus Lynch,Lindale,63.41,158.76,77.11,161.03,396.89,Single-ply,SBD,M
Boys,67.13,7,Jonny Sorey,Forney,62.14,142.88,83.91,167.83,394.63,Single-ply,SBD,M
Boys,67.13,8,Colin Jones,Forney,66.22,131.54,95.25,158.76,385.55,Single-ply,SBD,M
Boys,67.13,9,Adam Mangum,Texarkana Liberty-Eylau,64.95,138.35,79.38,158.76,376.48,Single-ply,SBD,M
Boys,67.13,10,Paul Blasingame,Nevada Community,65.5,151.95,88.45,136.08,376.48,Single-ply,SBD,M
Boys,67.13,11,Demetric Martin,Texarkana Liberty-Eylau,65.86,147.42,79.38,145.15,371.95,Single-ply,SBD,M
Boys,67.13,12,Willie Cooper,Texarkana Liberty-Eylau,65.77,129.27,83.91,142.88,356.07,Single-ply,SBD,M
Boys,67.13,13,Trevon Smith,Texarkana Liberty-Eylau,67.13,133.81,81.65,138.35,353.8,Single-ply,SBD,M
Boys,67.13,14,Rene Rivas,Venus,60.78,136.08,74.84,136.08,347,Single-ply,SBD,M
Boys,67.13,15,James Bickman,Forney,62.14,142.88,61.23,142.88,347,Single-ply,SBD,M
Boys,67.13,16,Kevin Harris,Fort Worth Western Hills,64.32,136.08,61.23,145.15,342.46,Single-ply,SBD,M
Boys,67.13,17,Tyler Murrey,Kaufman,64.68,131.54,79.38,124.74,335.66,Single-ply,SBD,M
Boys,67.13,18,Mathew Howard,Grapeland,63.14,115.67,79.38,129.27,324.32,Single-ply,SBD,M
Boys,67.13,DQ,Chris Marshall,Forney,61.69,,,,,Single-ply,SBD,M
Boys,67.13,DQ,Dylan Lantz,Overton,66.04,158.76,,,,Single-ply,SBD,M
Boys,74.84,1,Terran Cooper,Texarkana Liberty-Eylau,69.49,204.12,147.42,210.92,562.45,Single-ply,SBD,M
Boys,74.84,2,Caleb Skahan,Caddo Mills,69.67,213.19,120.2,204.12,537.51,Single-ply,SBD,M
Boys,74.84,3,Jonathan Hazley,Grapeland,73.12,192.78,102.06,188.24,483.08,Single-ply,SBD,M
Boys,74.84,4,John Robin Rivera,Sulphur Springs,68.13,170.1,102.06,197.31,469.47,Single-ply,SBD,M
Boys,74.84,5,Austin Davidson,Caddo Mills,69.13,181.44,106.59,176.9,464.93,Single-ply,SBD,M
Boys,74.84,6,Julio Rodriguez,Venus,73.12,158.76,129.27,172.37,460.4,Single-ply,SBD,M
Boys,74.84,7,Clay Price,Lindale,73.57,183.7,83.91,192.78,460.4,Single-ply,SBD,M
Boys,74.84,8,Hunter Morgan,Kaufman,74.84,174.63,102.06,167.83,444.52,Single-ply,SBD,M
Boys,74.84,9,Nees David,Lindale,74.84,174.63,90.72,174.63,439.98,Single-ply,SBD,M
Boys,82.1,10,Trent Tucker,Texarkana Liberty-Eylau,75.07,165.56,102.06,172.37,439.98,Single-ply,SBD,M
Boys,74.84,11,Jason Bethel,Red Oak,72.67,154.22,97.52,145.15,396.89,Single-ply,SBD,M
Boys,74.84,12,Chris Harris,Overton,71.76,145.15,74.84,145.15,365.14,Single-ply,SBD,M
Boys,74.84,13,Raymond Owens,Grapeland,69.13,131.54,90.72,140.61,362.87,Single-ply,SBD,M
Boys,74.84,14,Cameron Bawsley,Red Oak,71.94,127.01,83.91,136.08,347,Single-ply,SBD,M
Boys,74.84,15,Kody Kittrell,Venus,74.21,104.33,81.65,142.88,328.85,Single-ply,SBD,M
Boys,74.84,DQ,Hunter Hayes,Nevada Community,74.21,136.08,,,,Single-ply,SBD,M
Boys,74.84,DQ,Marcio Velasquez,Nevada Community,69.31,,,,,Single-ply,SBD,M
Boys,74.84,DQ,Kiante Boyde,Texarkana Liberty-Eylau,71.03,102.06,,,,Single-ply,SBD,M
Boys,74.84,DQ,Jason Hailey,Texarkana Liberty-Eylau,73.3,147.42,79.38,,,Single-ply,SBD,M
Boys,74.84,DQ,Steven Amend,Forney,73.94,151.95,,,,Single-ply,SBD,M
Boys,82.1,1,Keondre Jermany,Nevada Community,80.92,215.46,120.2,217.72,553.38,Single-ply,SBD,M
Boys,82.1,2,Hollis Webster,Texarkana Liberty-Eylau,78.29,197.31,124.74,224.53,546.58,Single-ply,SBD,M
Boys,82.1,3,Cody Dobiyanski,Lindale,79.74,210.92,108.86,219.99,539.77,Single-ply,SBD,M
Boys,82.1,4,Terronce Johnson,Lindale,80.74,190.51,120.2,222.26,532.97,Single-ply,SBD,M
Boys,82.1,5,Chase Webb,Texarkana Liberty-Eylau,77.2,188.24,97.52,176.9,462.66,Single-ply,SBD,M
Boys,82.1,6,Adrian Oliver,Terrell,76.38,161.03,102.06,181.44,444.52,Single-ply,SBD,M
Boys,82.1,7,Kendrick Holmes,Texarkana Liberty-Eylau,77.2,165.56,83.91,174.63,424.11,Single-ply,SBD,M
Boys,82.1,8,Trevor Curbo,Kaufman,79.92,167.83,92.99,147.42,408.23,Single-ply,SBD,M
Boys,82.1,9,Jontaven King,Fort Worth Western Hills,78.93,142.88,97.52,165.56,405.97,Single-ply,SBD,M
Boys,82.1,10,Adam Strickland,Nevada Community,76.29,156.49,97.52,149.69,403.7,Single-ply,SBD,M
Boys,82.1,11,Ishmael Harrison,Red Oak,79.2,142.88,99.79,158.76,401.43,Single-ply,SBD,M
Boys,89.81,12,Alex Bazan,Red Oak,82.19,145.15,97.52,151.95,394.63,Single-ply,SBD,M
Boys,82.1,13,Dj Ware,Texarkana Liberty-Eylau,76.38,138.35,74.84,142.88,356.07,Single-ply,SBD,M
Boys,82.1,DQ,Chris Sorley,Sulphur Springs,80.29,158.76,,,,Single-ply,SBD,M
Boys,82.1,DQ,Kyle Owens,Lindale,78.38,,,,,Single-ply,SBD,M
Boys,89.81,1,Cantrell McKinley,Texarkana Liberty-Eylau,86.91,226.8,115.67,247.21,589.67,Single-ply,SBD,M
Boys,89.81,2,Nelson Welk,Caddo Mills,88.09,226.8,127.01,199.58,553.38,Single-ply,SBD,M
Boys,89.81,3,Jose Ortiz,Forney,89.36,195.04,122.47,195.04,512.56,Single-ply,SBD,M
Boys,89.81,4,Victor Rincon,Kaufman,84.73,174.63,117.93,195.04,487.61,Single-ply,SBD,M
Boys,89.81,5,John Ryzman,Lindale,84.28,167.83,111.13,199.58,478.54,Single-ply,SBD,M
Boys,89.81,6,Cameron Caldwell,Nevada Community,83.82,172.37,111.13,181.44,464.93,Single-ply,SBD,M
Boys,89.81,7,Seth Savage,Sulphur Springs,85.46,172.37,111.13,165.56,449.06,Single-ply,SBD,M
Boys,89.81,8,Jimmy Hill,Caddo Mills,88.45,179.17,104.33,165.56,449.06,Single-ply,SBD,M
Boys,89.81,9,Anthony Hambric,Forney,84.82,172.37,102.06,165.56,439.98,Single-ply,SBD,M
Boys,89.81,10,Colton Oliver,Forney,89.36,165.56,97.52,174.63,437.72,Single-ply,SBD,M
Boys,89.81,11,Aaron Stewart,Nevada Community,86.45,163.29,102.06,170.1,435.45,Single-ply,SBD,M
Boys,89.81,12,Zach Ford,Texarkana Liberty-Eylau,84.19,165.56,88.45,172.37,426.38,Single-ply,SBD,M
Boys,89.81,13,Jason Neal,Kaufman,84.91,163.29,88.45,172.37,424.11,Single-ply,SBD,M
Boys,89.81,14,Derrek Brister,Grapeland,88.36,140.61,92.99,172.37,405.97,Single-ply,SBD,M
Boys,89.81,15,Quinton Slaughter,Red Oak,88.63,149.69,83.91,147.42,381.02,Single-ply,SBD,M
Boys,89.81,16,Stephen Warton,Terrell,88.72,174.63,,,174.63,Single-ply,S,M
Boys,89.81,DQ,Louis Perez,Forney,88.9,156.49,,,,Single-ply,S,M
Boys,99.79,1,Keith Moore,Lindale,97.79,229.06,129.27,260.82,619.15,Single-ply,SBD,M
Boys,99.79,2,Terry Bradshaw,Terrell,95.35,242.67,131.54,226.8,601.01,Single-ply,SBD,M
Boys,99.79,3,Jarvis Lollis,Texarkana Liberty-Eylau,98.7,231.33,147.42,213.19,591.94,Single-ply,SBD,M
Boys,99.79,4,Eric Ray,Red Oak,96.25,206.38,124.74,195.04,526.17,Single-ply,SBD,M
Boys,99.79,5,Carnelus Taylor,Grapeland,99.43,204.12,95.25,226.8,526.17,Single-ply,SBD,M
Boys,99.79,6,Austin Warren,Kaufman,98.16,188.24,117.93,201.85,508.02,Single-ply,SBD,M
Boys,99.79,7,Seth Warren,Forney,97.98,208.65,108.86,188.24,505.76,Single-ply,SBD,M
Boys,99.79,8,Cale Wardlan,Terrell,99.34,197.31,120.2,188.24,505.76,Single-ply,SBD,M
Boys,99.79,9,Jason Poole,Fort Worth Western Hills,93.17,183.7,92.99,215.46,492.15,Single-ply,SBD,M
Boys,99.79,10,Kobi Dawn,Texarkana Liberty-Eylau,91.53,183.7,115.67,172.37,471.74,Single-ply,SBD,M
Boys,99.79,11,Jacob Wilson,Nevada Community,93.44,163.29,104.33,199.58,467.2,Single-ply,SBD,M
Boys,99.79,12,Logan Finch,Red Oak,97.16,170.1,111.13,170.1,451.32,Single-ply,SBD,M
Boys,99.79,13,Billy Howard,Terrell,94.89,170.1,106.59,161.03,437.72,Single-ply,SBD,M
Boys,99.79,14,Cam McGuire,Red Oak,93.08,151.95,86.18,154.22,392.36,Single-ply,SBD,M
Boys,99.79,DQ,Tim Smith,Nevada Community,91.53,,,,,Single-ply,SBD,M
Boys,99.79,DQ,Johnny Vanhnarath,Venus,94.53,,,,,Single-ply,SBD,M
Boys,99.79,DQ,James Davis,Forney,97.07,142.88,,,,Single-ply,SBD,M
Boys,109.77,1,Josh Webster,Texarkana Liberty-Eylau,106.5,258.55,167.83,226.8,653.17,Single-ply,SBD,M
Boys,109.77,2,Juan Santoyo,Kaufman,103.6,229.06,158.76,213.19,601.01,Single-ply,SBD,M
Boys,109.77,3,JaDarrian Vinson,Terrell,104.69,197.31,161.03,226.8,585.13,Single-ply,SBD,M
Boys,109.77,4,Cameron Bradbury,Lindale,101.7,226.8,122.47,229.06,578.33,Single-ply,SBD,M
Boys,109.77,5,Levi West,Overton,107.41,183.7,136.08,215.46,535.24,Single-ply,SBD,M
Boys,109.77,6,Billy Amend,Forney,103.42,190.51,111.13,204.12,505.76,Single-ply,SBD,M
Boys,109.77,7,Chad Evans,Sulphur Springs,107.14,181.44,108.86,192.78,483.08,Single-ply,SBD,M
Boys,109.77,8,Sam Jenkins,Red Oak,105.14,185.97,102.06,185.97,474,Single-ply,SBD,M
Boys,109.77,9,Aaron Hatton,Grapeland,106.59,176.9,99.79,165.56,442.25,Single-ply,SBD,M
Boys,109.77,10,Jason Guinn,Nevada Community,109.68,183.7,120.2,136.08,439.98,Single-ply,SBD,M
Boys,109.77,11,Lawrence Duval,Grapeland,109.77,170.1,97.52,158.76,426.38,Single-ply,SBD,M
Boys,109.77,12,Blake Parnell,Sulphur Springs,105.78,129.27,92.99,165.56,387.82,Single-ply,SBD,M
Boys,124.74,13,Victor Rogers,Red Oak,109.86,131.54,106.59,145.15,383.29,Single-ply,SBD,M
Boys,109.77,14,Jody Thomson,Kaufman,106.32,154.22,83.91,140.61,378.75,Single-ply,SBD,M
Boys,124.74,DQ,Walker Hargrove,Venus,110,,,,,Single-ply,SBD,M
Boys,109.77,DQ,Dakota Larson,Venus,108.68,113.4,,,,Single-ply,SBD,M
Boys,124.74,1,Rishaad Wimbley,Forney,124.28,272.16,181.44,272.16,725.75,Single-ply,SBD,M
Boys,124.74,2,Andrew Burton,Sulphur Springs,118.3,269.89,172.37,272.16,714.41,Single-ply,SBD,M
Boys,124.74,3,Justin Reader,Caddo Mills,120.29,283.5,172.37,235.87,691.73,Single-ply,SBD,M
Boys,124.74,4,Jacob Alford,Lindale,120.47,272.16,156.49,217.72,646.37,Single-ply,SBD,M
Boys,124.74,5,Perry Bodine,Terrell,124.01,249.48,136.08,210.92,596.47,Single-ply,SBD,M
Boys,124.74,6,Chris Ramos,Forney,121.56,219.99,142.88,219.99,582.87,Single-ply,SBD,M
Boys,124.74,7,Dylan Pasley,Kaufman,114.49,190.51,122.47,195.04,508.02,Single-ply,SBD,M
Boys,124.74,8,Tauian Taylor,Terrell,118.66,219.99,120.2,163.29,503.49,Single-ply,SBD,M
Boys,124.74,9,Paul Kling,Lindale,119.57,195.04,113.4,185.97,494.42,Single-ply,SBD,M
Boys,124.74,10,Jason Cortez,Fort Worth Western Hills,116.85,179.17,106.59,165.56,451.32,Single-ply,SBD,M
Boys,124.74+,1,Tommy Harwell,Nevada Community,128.73,213.19,149.69,213.19,576.06,Single-ply,SBD,M
Boys,124.74+,2,Jeremy Reader,Caddo Mills,150.68,235.87,131.54,188.24,555.65,Single-ply,SBD,M
Boys,124.74+,3,Chris Whitaker,Caddo Mills,128.09,215.46,136.08,190.51,542.04,Single-ply,SBD,M
Boys,124.74+,4,Ryan Burgess,Lindale,160.03,229.06,122.47,181.44,532.97,Single-ply,SBD,M
Boys,124.74+,5,Jaylon Deckard,Terrell,159.85,197.31,127.01,183.7,508.02,Single-ply,SBD,M
Boys,124.74+,6,Jordan Baxley,Sulphur Springs,133.45,183.7,104.33,176.9,464.93,Single-ply,SBD,M
Boys,124.74+,7,Mike Livingston,Kaufman,137.8,181.44,106.59,170.1,458.13,Single-ply,SBD,M
Boys,124.74+,8,Daniel Bookman,Forney,143.79,183.7,83.91,190.51,458.13,Single-ply,SBD,M
Boys,124.74+,9,Marquan Edmond,Texarkana Liberty-Eylau,153.86,181.44,115.67,154.22,451.32,Single-ply,SBD,M
Boys,124.74+,DQ,Sidney Price,Texarkana Liberty-Eylau,159.3,,,,,Single-ply,SBD,M
