Division,WeightClassKg,Place,Name,Team,BodyweightKg,Best3SquatKg,Best3BenchKg,Best3DeadliftKg,TotalKg,Equipment,Event,Sex
Boys,59.87,1,Hunter Martin,Azle,58.51,151.95,81.65,163.29,396.89,Single-ply,SBD,M
Boys,59.87,2,Michael Saldana,Northwest Nelson,58.97,142.88,79.38,149.69,371.95,Single-ply,SBD,M
Boys,59.87,3,Aric Wood,Northwest Eaton,58.06,108.86,65.77,108.86,283.5,Single-ply,SBD,M
Boys,67.13,1,Houston Buckner,Northwest Nelson,65.77,142.88,86.18,158.76,387.82,Single-ply,SBD,M
Boys,67.13,2,Issac Bohls,Justin Northwest,67.13,136.08,86.18,142.88,365.14,Single-ply,SBD,M
Boys,67.13,3,Mike Jones,Northwest Nelson,63.5,108.86,68.04,149.69,326.59,Single-ply,SBD,M
Boys,67.13,4,Jason Lastor,Justin Northwest,66.22,113.4,63.5,124.74,301.64,Single-ply,SBD,M
Boys,67.13,5,Marcus Carillo,Justin Northwest,61.23,102.06,58.97,104.33,265.35,Single-ply,SBD,M
Boys,74.84,1,CJ van Slyke,Azle,73.94,176.9,97.52,183.7,458.13,Single-ply,SBD,M
Boys,74.84,2,Avery Crawford,Northwest Nelson,70.76,181.44,92.99,174.63,449.06,Single-ply,SBD,M
Boys,74.84,3,Cooper Stillwell,Northwest Nelson,68.49,154.22,83.91,158.76,396.89,Single-ply,SBD,M
Boys,74.84,4,Reed Leonard,Northwest Nelson,72.57,142.88,92.99,158.76,394.63,Single-ply,SBD,M
Boys,74.84,5,Paul Collazo,Northwest Eaton,72.12,147.42,95.25,145.15,387.82,Single-ply,SBD,M
Boys,74.84,6,Jahbez Hawkins,Northwest Eaton,67.36,149.69,81.65,142.88,374.21,Single-ply,SBD,M
Boys,74.84,7,Jack Poe,Justin Northwest,72.57,138.35,83.91,151.95,374.21,Single-ply,SBD,M
Boys,74.84,8,Brady Perez,Justin Northwest,73.94,113.4,68.04,124.74,306.17,Single-ply,SBD,M
Boys,74.84,9,Julian Fadul,Justin Northwest,71.67,108.86,63.5,104.33,276.69,Single-ply,SBD,M
Boys,82.1,1,Max Modeste,Northwest Nelson,82.1,192.78,102.06,204.12,498.95,Single-ply,SBD,M
Boys,82.1,2,Jeremiah Armstrong,Northwest Nelson,80.29,170.1,104.33,163.29,437.72,Single-ply,SBD,M
Boys,82.1,3,Kaleth Polanco-Pinto,Northwest Eaton,78.47,170.1,99.79,158.76,428.64,Single-ply,SBD,M
Boys,82.1,4,Ibrahim Durodge,Justin Northwest,77.11,95.25,86.18,136.08,317.51,Single-ply,SBD,M
Boys,82.1,5,Micah Thomas,Justin Northwest,79.38,104.33,72.57,124.74,301.64,Single-ply,SBD,M
Boys,82.1,DQ,Grant Winniger,Northwest Eaton,78.47,,,,,Single-ply,SBD,M
Boys,89.81,1,Evan Sharpe,Northwest Eaton,87.54,185.97,108.86,181.44,476.27,Single-ply,SBD,M
Boys,89.81,2,Johnathan Lester,Azle,86.64,181.44,115.67,154.22,451.32,Single-ply,SBD,M
Boys,89.81,3,Daniel Busch,Northwest Eaton,83.01,158.76,97.52,170.1,426.38,Single-ply,SBD,M
Boys,89.81,4,Carson Campbell,Justin Northwest,89.36,156.49,92.99,163.29,412.77,Single-ply,SBD,M
Boys,89.81,5,Cameron Langley,Justin Northwest,84.82,136.08,86.18,158.76,381.02,Single-ply,SBD,M
Boys,89.81,6,Martin Luna,Northwest Eaton,85.73,129.27,90.72,149.69,369.68,Single-ply,SBD,M
Boys,89.81,7,Braden St Ama,Northwest Eaton,86.64,136.08,81.65,138.35,356.07,Single-ply,SBD,M
Boys,89.81,8,Noah Knotts,Northwest Nelson,87.09,124.74,83.91,136.08,344.73,Single-ply,SBD,M
Boys,89.81,9,Clinton Ngum,Justin Northwest,87.09,106.59,65.77,120.2,292.57,Single-ply,SBD,M
Boys,89.81,DQ,David Ramsey,Justin Northwest,86.18,113.4,,,,Single-ply,SBD,M
Boys,99.79,1,Hayden Talley,Northwest Eaton,97.98,249.48,129.27,226.8,605.55,Single-ply,SBD,M
Boys,99.79,2,Caanan Revelle,Azle,98.88,210.92,129.27,197.31,537.51,Single-ply,SBD,M
Boys,99.79,3,Caden Gillespie,Northwest Eaton,95.71,174.63,90.72,181.44,446.79,Single-ply,SBD,M
Boys,99.79,4,Amari Blount,Northwest Eaton,90.72,165.56,104.33,172.37,442.25,Single-ply,SBD,M
Boys,99.79,5,Anthony Immon,Northwest Nelson,90.26,154.22,104.33,181.44,439.98,Single-ply,SBD,M
Boys,99.79,6,Ethan Livingstone,Northwest Nelson,99.79,165.56,99.79,174.63,439.98,Single-ply,SBD,M
Boys,99.79,7,Jayden Gray,Northwest Eaton,92.08,165.56,90.72,172.37,428.64,Single-ply,SBD,M
Boys,99.79,8,Ethan Avery,Northwest Nelson,95.71,136.08,108.86,163.29,408.23,Single-ply,SBD,M
Boys,99.79,9,Caeb Sullard,Northwest Nelson,93.89,142.88,90.72,156.49,390.09,Single-ply,SBD,M
Boys,99.79,10,Cal Abdulky,Northwest Nelson,93.89,145.15,79.38,154.22,378.75,Single-ply,SBD,M
Boys,99.79,11,Jackson Jerrard,Justin Northwest,91.17,115.67,79.38,136.08,331.12,Single-ply,SBD,M
Boys,109.77,1,Austin Moore,Northwest Nelson,105.23,192.78,102.06,197.31,492.15,Single-ply,SBD,M
Boys,109.77,2,Marcello Deanda,Azle,107.5,181.44,136.08,163.29,480.81,Single-ply,SBD,M
Boys,109.77,3,Eric Sharpe,Northwest Eaton,101.15,179.17,108.86,181.44,469.47,Single-ply,SBD,M
Boys,109.77,4,Jacob Alford,Justin Northwest,105.23,106.59,83.91,124.74,315.25,Single-ply,SBD,M
Boys,109.77,DQ,Enrique Canales,Northwest Nelson,101.15,151.95,,,,Single-ply,SBD,M
Boys,124.74,1,Brent Self,Northwest Nelson,117.93,226.8,136.08,229.06,591.94,Single-ply,SBD,M
Boys,124.74,2,Femi Sakiri,Northwest Nelson,123.83,190.51,113.4,199.58,503.49,Single-ply,SBD,M
Boys,124.74,3,Grant Koehler,Northwest Eaton,113.85,174.63,142.88,183.7,501.22,Single-ply,SBD,M
Boys,124.74,4,Cyril Etim,Northwest Eaton,115.67,199.58,117.93,181.44,498.95,Single-ply,SBD,M
Boys,124.74,5,Caden Bogan,Northwest Nelson,115.21,174.63,102.06,183.7,460.4,Single-ply,SBD,M
Boys,124.74,6,Caden Barnett,Justin Northwest,119.29,165.56,106.59,188.24,460.4,Single-ply,SBD,M
Boys,124.74,7,Brady Blankenship,Northwest Eaton,122.92,170.1,115.67,167.83,453.59,Single-ply,SBD,M
Boys,124.74,8,Braedon Koiner,Northwest Nelson,110.68,165.56,90.72,147.42,403.7,Single-ply,SBD,M
Boys,124.74,9,Mike Nichols,Justin Northwest,110.22,136.08,102.06,149.69,387.82,Single-ply,SBD,M
Boys,124.74,10,Zen Jankowski,Justin Northwest,120.2,136.08,102.06,147.42,385.55,Single-ply,SBD,M
Boys,124.74,11,Adon Ruiz,Justin Northwest,113.4,102.06,79.38,65.77,247.21,Single-ply,SBD,M
Boys,124.74+,1,Cooper Moormanm,Azle,137.44,244.94,145.15,204.12,594.21,Single-ply,SBD,M
Boys,124.74+,2,Tadd McGaughy,Northwest Nelson,127.46,183.7,104.33,190.51,478.54,Single-ply,SBD,M
Boys,124.74+,3,Josh Garza,Northwest Eaton,127.91,181.44,113.4,181.44,476.27,Single-ply,SBD,M
Boys,124.74+,DQ,Zane Brewster,Justin Northwest,127.01,229.06,,,,Single-ply,SBD,M
