Name,Age,Division,BodyweightKg,WeightClassKg,Squat1Kg,Squat2Kg,Squat3Kg,Best3SquatKg,Bench1Kg,Bench2Kg,Bench3Kg,Bench4Kg,Best3BenchKg,Deadlift1Kg,Deadlift2Kg,Deadlift3Kg,Deadlift4Kg,Best3DeadliftKg,TotalKg,Place,Event,Sex,Equipment
Carol Krochmal,59,F_MR_4_APF,46.6,48,,,,,45,47.5,50,52.5,50,,,,,,50,1,B,F,Raw
Reba Shinn,16,F_TR_2_APF,50.3,52,,,,,52.5,57.5,-60,,57.5,,,,,,57.5,1,B,F,Raw
Ashley Crawford,29,F_OR_APF,73.85,75,,,,,90,,,,90,,,,,,90,1,B,F,Raw
Ronald Crawford,83,M_MR_9_APF,52.5,56,,,,,57.5,60,-65,,60,,,,,,60,1,B,M,Raw
Leon Barry,76,M_MR_8_APF,95.5,100,,,,,115,125,-137.5,,125,,,,,,125,1,B,M,Raw
Lee Lichtle,72,M_MR_7_APF,81.5,82.5,,,,,117.5,122.5,-128,,122.5,,,,,,122.5,1,B,M,Raw
Richard Bretz,68,M_MR_6_APF,94.2,100,,,,,127.5,-160,-160,,127.5,,,,,,127.5,1,B,M,Raw
Dan Martin,60,M_MR_5_APF,98,100,,,,,145,160,-170,,160,,,,,,160,1,B,M,Raw
Dennis Alba,55,M_MR_4_APF,73.15,75,,,,,132.5,145,147.5,150,147.5,,,,,,147.5,1,B,M,Raw
Scott C Wilson,55,M_MR_4_APF,73.95,75,,,,,90,-97.5,-97.5,,90,,,,,,90,2,B,M,Raw
Wally Stamper,55,M_MR_4_APF,99.4,100,,,,,165,-177.5,177.5,,177.5,,,,,,177.5,1,B,M,Raw
Mike Guerra,50,M_MR_3_APF,73.6,75,,,,,92.5,,,,92.5,,,,,,92.5,1,B,M,Raw
Brian Burritt,50,M_MR_3_APF,83.4,90,,,,,-177.5,177.5,-190,,177.5,,,,,,177.5,1,B,M,Raw
Don Waltz,54,M_MR_3_APF,95.2,100,,,,,110,115,-120,,115,,,,,,115,1,B,M,Raw
Kent Spires,46,M_MR_2_APF,90,90,,,,,190,197.5,205,,205,,,,,,205,1,B,M,Raw
Dickie Spiroff,47,M_MR_2_APF,103,110,,,,,190,197.5,205,,205,,,,,,205,1,B,M,Raw
Martin Green,49,M_MR_2_APF,108.45,110,,,,,182.5,-190,-190,,182.5,,,,,,182.5,2,B,M,Raw
Josh Turner,33,M_SR_APF,66.7,67.5,,,,,102.5,112.5,125,-133,125,,,,,,125,1,B,M,Raw
Willis Blackwell,38,M_SR_APF,99.4,100,,,,,147.5,-155,155,,155,,,,,,155,1,B,M,Raw
Brandon McKnight,19,M_TR_3_APF,91.8,100,,,,,-192.5,-192.5,192.5,-203,192.5,,,,,,192.5,1,B,M,Raw
Monquil Parks,40,M_OR_APF,79.35,82.5,,,,,182.5,-187.5,-187.5,,182.5,,,,,,182.5,1,B,M,Raw
Kent Spires,46,M_OR_APF,90,90,,,,,190,197.5,205,,205,,,,,,205,1,B,M,Raw
Brian Burritt,50,M_OR_APF,83.4,90,,,,,-177.5,177.5,-190,,177.5,,,,,,177.5,2,B,M,Raw
Ashley Crawford,29,F_OR_APF,73.85,75,,,,,,,,,,185,200,-213,,200,200,1,D,F,Raw
Lee Lichtle,72,M_MR_7_APF,81.5,82.5,,,,,,,,,,165,175,185.5,190,185.5,185.5,1,D,M,Raw
Terry Cruce,60,M_MR_5_APF,75.6,82.5,,,,,,,,,,200,210,-215,,210,210,1,D,M,Raw
Willis Blackwell,38,M_SR_APF,99.4,100,,,,,,,,,,230,247.5,-255,,247.5,247.5,1,D,M,Raw
Yvette Fox,58,F_MCR_4_APF,58,60,,,,,,,,,,100,112.5,125,,125,125,1,D,F,Raw
Kelley Collier,68,M_MCR_6_APF,81.85,82.5,140,147.5,155,155,97.5,-105,105,,105,-185,,,,,,DQ,SBD,M,Wraps
William Vanderstine,65,M_MCR_6_APF,85.3,90,110,-117.5,-117.5,110,112.5,-117.5,-120,,112.5,172.5,180,-192.5,,180,402.5,1,SBD,M,Wraps
Steve Kylis,64,M_MCR_5_APF,88.9,90,-200,-200,-200,,,,,,,,,,,,,DQ,SBD,M,Wraps
Greg Ripley,56,M_MCR_4_APF,80.75,82.5,160,-175,183,183,112.5,122.5,133,137.5,133,102.5,,,,102.5,418.5,1,SBD,M,Wraps
Terry Lane Jacobs,55,M_MCR_4_APF,95.2,100,185,227.5,240,240,125,137.5,142.5,,142.5,227.5,-250,-250,,227.5,610,1,SBD,M,Wraps
Dennis Affinati,53,M_MCR_3_APF,94.35,100,165,185,187.5,187.5,120,125,127.5,,127.5,185,-200,200,,200,515,1,SBD,M,Wraps
David Earp,53,M_MCR_3_APF,126.35,140,205,230,237.5,237.5,145,162.5,172.5,,172.5,230,257.5,-262.5,,257.5,667.5,1,SBD,M,Wraps
Norman Rice,51,M_MCR_3_APF,164.3,140+,230,260,280,280,150,185,195,,195,230,265,-280,,265,740,1,SBD,M,Wraps
Shawn Roop,46,M_MCR_2_APF,99.75,100,-205,205,227.5,227.5,-182.5,182.5,-200.5,,182.5,272.5,303,-305,,303,713,1,SBD,M,Wraps
John Sailer Jr,47,M_MCR_2_APF,98.3,100,-192.5,192.5,-202.5,192.5,130,137.5,-142.5,,137.5,192.5,205,217.5,,217.5,547.5,2,SBD,M,Wraps
Chester Merrill,43,M_MCR_1_APF,89.25,90,180,185,,185,-130,-130,,,,,,,,,,DQ,SBD,M,Wraps
Aaron Lundgaard,42,M_MCR_1_APF,109.15,110,230,250,-272.5,250,182.5,192.5,-205,,192.5,265,-277.5,-277.5,,265,707.5,1,SBD,M,Wraps
Terel Monroe,21,M_JCR_APF,64.6,67.5,152.5,170,-182.5,170,120,-127.5,-132.5,,120,247.5,250,265,-270,265,555,1,SBD,M,Wraps
Blake Kolberg,23,M_JCR_APF,80.2,82.5,182.5,195,202.5,202.5,145,162.5,-175,,162.5,225,232.5,240,,240,605,1,SBD,M,Wraps
David Irving,34,M_OCR_APF,72.5,75,-140,-140,-140,,,,,,,,,,,,,DQ,SBD,M,Wraps
Yvette Fox,58,F_MCR_4_APF,58,60,62.5,72.5,-77.5,72.5,45,50,-55,,50,100,112.5,125,,125,247.5,1,SBD,F,Wraps
Toni Lee Cabral,29,F_OCR_APF,46.9,48,82.5,90,95,95,57.5,62.5,65,,65,92.5,100,105,,105,265,1,SBD,F,Wraps
Jake Baker,36,M_SCR_APF,123.3,125,142.5,-165,175,175,125,-142.5,-142.5,,125,170,192.5,-205,,192.5,492.5,1,SBD,M,Wraps
Scott Kiser,28,M_OCR_APF,99.45,100,160,177.5,187.5,187.5,122.5,137.5,142.5,,142.5,200,220,227.5,,227.5,557.5,1,SBD,M,Wraps
Chris Danner,30,M_OCR_APF,109.75,110,185,210,220,220,165,182.5,-187.5,,182.5,272.5,282.5,-295,,282.5,685,1,SBD,M,Wraps
Chad Robinson,29,M_OCR_APF,119,125,220,-225,,220,185,197.5,205,,205,265,-290,-290,,265,690,1,SBD,M,Wraps
Dejuan Garland,35,M_OCR_APF,140.85,140+,-250,257.5,267.5,267.5,182.5,190,-200,,190,275,-295,-295,,275,732.5,1,SBD,M,Wraps
