Division,WeightClassKg,Place,Name,Team,BodyweightKg,Best3SquatKg,Best3BenchKg,Best3DeadliftKg,TotalKg,Equipment,Event,Sex
Girls,44.23,1,Samantha Sanchez,Natalia,44.09,117.93,61.23,111.13,290.3,Single-ply,SBD,F
Girls,44.23,2,Arely Ortega,Edinburg Quest College Prep,44,108.86,63.5,115.67,288.03,Single-ply,SBD,F
Girls,44.23,3,Valery Cano,Edinburg Idea College Prep,42.18,117.93,45.36,111.13,274.42,Single-ply,SBD,F
Girls,44.23,4,Amber Gallegos,San Diego,41.73,95.25,54.43,99.79,249.48,Single-ply,SBD,F
Girls,44.23,5,Destiny Barrientez,Kenedy,44.18,83.91,45.36,111.13,240.4,Single-ply,SBD,F
Girls,44.23,6,Aleah Bustamante,Cotulla,43.64,92.99,47.63,92.99,233.6,Single-ply,SBD,F
Girls,44.23,7,Victoria Ruiz,Hebbronville,43.54,86.18,47.63,95.25,229.06,Single-ply,SBD,F
Girls,44.23,8,Caitlyn Luarca,Freer,43.82,92.99,38.56,86.18,217.72,Single-ply,SBD,F
Girls,44.23,9,Natalia Garza,Dilley,40.82,68.04,40.82,97.52,206.38,Single-ply,SBD,F
Girls,44.23,10,Feliciana Pena,Mathis,42.73,74.84,40.82,88.45,204.12,Single-ply,SBD,F
Girls,44.23,11,Allison Luna,Agua Dulce,44,68.04,31.75,86.18,185.97,Single-ply,SBD,F
Girls,44.23,12,Denea Garcia,Karnes City,41.46,61.23,24.95,72.57,158.76,Single-ply,SBD,F
Girls,47.85,1,Reina de la Paz,Santa Gertrudis Academy,46.81,122.47,58.97,140.61,322.05,Single-ply,SBD,F
Girls,47.85,2,Jacqueline Pena,Edinburg Idea College Prep,47.08,133.81,61.23,127.01,322.05,Single-ply,SBD,F
Girls,47.85,3,Megan Bailey,Karnes City,45.9,127.01,68.04,122.47,317.51,Single-ply,SBD,F
Girls,47.85,4,Brandy Deleon,Mathis,47.63,120.2,58.97,113.4,292.57,Single-ply,SBD,F
Girls,47.85,5,Marissa Rios,Runge,47.81,104.33,61.23,124.74,290.3,Single-ply,SBD,F
Girls,47.85,6,Meg Martinez,Natalia,47.26,115.67,70.31,102.06,288.03,Single-ply,SBD,F
Girls,47.85,7,Kaylee Garza,Cotulla,46.99,104.33,52.16,127.01,283.5,Single-ply,SBD,F
Girls,47.85,8,Lesette Munoz,Mathis,47.4,106.59,63.5,113.4,283.5,Single-ply,SBD,F
Girls,47.85,9,Julia Owens,Natalia,47.72,108.86,58.97,115.67,283.5,Single-ply,SBD,F
Girls,47.85,10,Jennifer Valdez,Goliad,46.18,106.59,47.63,111.13,265.35,Single-ply,SBD,F
Girls,47.85,11,Araceli Lopez,Falfurrias,47.81,111.13,49.9,102.06,263.08,Single-ply,SBD,F
Girls,47.85,12,Joanna Flores,Agua Dulce,47.08,88.45,43.09,92.99,224.53,Single-ply,SBD,F
Girls,47.85,DQ,Monique Covarrubias,Lytle,47.63,,,,,Single-ply,SBD,F
Girls,51.94,1,Liszette Rosado,San Antonio Jubilee,51.17,154.22,113.4,145.15,412.77,Single-ply,SBD,F
Girls,51.94,2,Mariah Alaniz,Freer,51.44,136.08,63.5,138.35,337.93,Single-ply,SBD,F
Girls,51.94,3,Dashae Atkinson,Hebbronville,51.07,113.4,72.57,120.2,306.17,Single-ply,SBD,F
Girls,51.94,4,Makayla Cano,Freer,49.62,111.13,45.36,113.4,269.89,Single-ply,SBD,F
Girls,51.94,5,Mariah Luna,Cotulla,50.98,102.06,49.9,117.93,269.89,Single-ply,SBD,F
Girls,51.94,6,Raven Boissiere,Universal City Randolph,50.8,95.25,52.16,117.93,265.35,Single-ply,SBD,F
Girls,51.94,7,Alaiyza Jones,Altair Rice,50.44,97.52,45.36,113.4,256.28,Single-ply,SBD,F
Girls,51.94,8,Jaslyn Ochoa,Dilley,51.07,81.65,43.09,108.86,233.6,Single-ply,SBD,F
Girls,51.94,DQ,Kristal Rodriguez,Dilley,51.89,,,,,Single-ply,SBD,F
Girls,51.94,DQ,Daniella Aguilar,Hebbronville,51.53,,,,,Single-ply,SBD,F
Girls,51.94,DQ,Regan Boissiere,Universal City Randolph,50.89,117.93,58.97,,,Single-ply,SBD,F
Girls,51.94,DQ,Edna Herschberger,Pettus,51.53,,,,,Single-ply,SBD,F
Girls,56.02,1,Caitlin Berry,Bishop,53.16,158.76,95.25,145.15,399.16,Single-ply,SBD,F
Girls,56.02,2,Phaidra Malcher,Poth,54.16,138.35,90.72,142.88,371.95,Single-ply,SBD,F
Girls,56.02,3,Amy Jo Wick,Weimar,54.34,136.08,72.57,142.88,351.53,Single-ply,SBD,F
Girls,56.02,4,Madison Salinas,Hebbronville,55.7,129.27,63.5,140.61,333.39,Single-ply,SBD,F
Girls,56.02,5,Viviana Hernandez,Goliad,55.97,127.01,70.31,136.08,333.39,Single-ply,SBD,F
Girls,56.02,6,Yesenia Rocha,San Antonio Cole,54.07,111.13,61.23,133.81,306.17,Single-ply,SBD,F
Girls,56.02,7,Serenity Alaniz,Karnes City,54.79,115.67,54.43,129.27,299.37,Single-ply,SBD,F
Girls,56.02,DQ,Angelica Padilla,Natalia,54.16,142.88,,,,Single-ply,SBD,F
Girls,56.02,DQ,Angelina Zapata,Natalia,54.79,136.08,,,,Single-ply,SBD,F
Girls,56.02,DQ,Alyzza Ortiz,Edinburg Quest College Prep,54.43,,,,,Single-ply,SBD,F
Girls,56.02,DQ,Taeecija Vickmark,Edinburg Quest College Prep,55.79,113.4,,,,Single-ply,SBD,F
Girls,56.02,DQ,Lauren Garza,Freer,53.34,131.54,63.5,,,Single-ply,SBD,F
Girls,60.1,1,Marissa Olvera,Center Point,59.96,151.95,81.65,142.88,376.48,Single-ply,SBD,F
Girls,60.1,2,Isis Sandiford,Edinburg Idea College Prep,59.33,149.69,77.11,142.88,369.68,Single-ply,SBD,F
Girls,60.1,3,Raina Rivera,Bishop,59.06,147.42,68.04,147.42,362.87,Single-ply,SBD,F
Girls,60.1,4,Makayla Salaiz,San Diego,59.06,149.69,83.91,127.01,360.61,Single-ply,SBD,F
Girls,60.1,5,Brittany Kelley,Karnes City,59.24,151.95,61.23,138.35,351.53,Single-ply,SBD,F
Girls,60.1,6,Jerrilyn Gonzales,Karnes City,59.51,145.15,61.23,145.15,351.53,Single-ply,SBD,F
Girls,60.1,7,Emma Johnson,Poth,57.97,129.27,74.84,136.08,340.19,Single-ply,SBD,F
Girls,60.1,8,Brooke Gisler,Karnes City,59.33,142.88,68.04,120.2,331.12,Single-ply,SBD,F
Girls,60.1,9,Jessica Ayala,Stockdale,57.79,117.93,74.84,131.54,324.32,Single-ply,SBD,F
Girls,60.1,10,Brinlee Freeman,Altair Rice,60.06,127.01,61.23,136.08,324.32,Single-ply,SBD,F
Girls,60.1,11,Madison Lopez,Hebbronville,60.06,131.54,65.77,117.93,315.25,Single-ply,SBD,F
Girls,60.1,12,Lizzy Bustamante,Center Point,59.33,122.47,56.7,102.06,281.23,Single-ply,SBD,F
Girls,60.1,DQ,Stephanie Benavidez,Cotulla,60.06,154.22,74.84,,,Single-ply,SBD,F
Girls,67.36,1,Ellie Carrillo,San Diego,66.59,172.37,99.79,158.76,430.91,Single-ply,SBD,F
Girls,67.36,2,Estefania Hernandez,Mathis,66.32,163.29,83.91,131.54,378.75,Single-ply,SBD,F
Girls,67.36,3,Meranda Segura,Karnes City,66.32,158.76,74.84,140.61,374.21,Single-ply,SBD,F
Girls,67.36,4,Lee Ramirez,Karnes City,66.13,136.08,72.57,142.88,351.53,Single-ply,SBD,F
Girls,67.36,5,Brenda Macklin,Center Point,67.31,156.49,65.77,124.74,347,Single-ply,SBD,F
Girls,67.36,6,Tressa Reading,Knippa,63.59,136.08,83.91,120.2,340.19,Single-ply,SBD,F
Girls,67.36,7,Kylie Bosquez,Jourdanton,62.51,147.42,63.5,127.01,337.93,Single-ply,SBD,F
Girls,67.36,8,Isabella Rodriguez,Stockdale,65.77,124.74,63.5,147.42,335.66,Single-ply,SBD,F
Girls,67.36,9,Kaylin Yanta,Poth,65.59,122.47,74.84,136.08,333.39,Single-ply,SBD,F
Girls,67.36,10,Sindy Garcia,Edinburg Idea College Prep,66.13,147.42,68.04,117.93,333.39,Single-ply,SBD,F
Girls,67.36,11,Analiese Andersen,Marion,65.41,122.47,68.04,133.81,324.32,Single-ply,SBD,F
Girls,67.36,12,Kirstyn Garza,Agua Dulce,64.68,117.93,56.7,120.2,294.84,Single-ply,SBD,F
Girls,75.07,1,Mercedes Rodriguez,San Diego,72.57,181.44,88.45,174.63,444.52,Single-ply,SBD,F
Girls,75.07,2,Dezarae Perez,Natalia,71.03,158.76,97.52,161.03,417.3,Single-ply,SBD,F
Girls,75.07,3,Monica Villalobos,Center Point,72.94,165.56,74.84,147.42,387.82,Single-ply,SBD,F
Girls,75.07,4,Beatrice Garcia,Bishop,73.75,158.76,68.04,154.22,381.02,Single-ply,SBD,F
Girls,75.07,5,Faith Rios,Mathis,69.94,161.03,68.04,147.42,376.48,Single-ply,SBD,F
Girls,75.07,6,Kinley Liska,Karnes City,72.21,149.69,79.38,145.15,374.21,Single-ply,SBD,F
Girls,75.07,7,Gabrielle Santoya,Natalia,75.02,142.88,88.45,142.88,374.21,Single-ply,SBD,F
Girls,75.07,8,Karaleena Ruiz,Hebbronville,74.93,149.69,72.57,147.42,369.68,Single-ply,SBD,F
Girls,75.07,9,Lexi Ramirez,Dilley,74.16,149.69,68.04,136.08,353.8,Single-ply,SBD,F
Girls,75.07,10,Analeigha Salinas,Freer,74.21,133.81,70.31,129.27,333.39,Single-ply,SBD,F
Girls,75.07,11,Mayra Mendoza,Center Point,68.04,136.08,65.77,113.4,315.25,Single-ply,SBD,F
Girls,75.07,12,Andrea Ruiz,Rocksprings,74.12,120.2,65.77,117.93,303.91,Single-ply,SBD,F
Girls,75.07,DQ,Aylin Navarro,Ben Bolt-Palito Blanco,72.48,,,,,Single-ply,SBD,F
Girls,82.33,1,Cassie Castro,Poth,78.29,174.63,83.91,147.42,405.97,Single-ply,SBD,F
Girls,82.33,2,Samantha Gonzalez,Edinburg Idea College Prep,81.19,158.76,81.65,154.22,394.63,Single-ply,SBD,F
Girls,82.33,3,Larissa Miller,Kenedy,80.74,136.08,79.38,163.29,378.75,Single-ply,SBD,F
Girls,82.33,4,Makayla Johnson,Santa Gertrudis Academy,82.19,145.15,79.38,147.42,371.95,Single-ply,SBD,F
Girls,82.33,5,Lonna Gonzalez,San Diego,80.01,167.83,72.57,122.47,362.87,Single-ply,SBD,F
Girls,82.33,6,Sasha Garcia,Edinburg Quest College Prep,81.56,149.69,63.5,131.54,344.73,Single-ply,SBD,F
Girls,82.33,7,Zita Perez,Natalia,79.38,142.88,68.04,124.74,335.66,Single-ply,SBD,F
Girls,82.33,8,Zoe Urrea,Banquete,79.47,129.27,61.23,142.88,333.39,Single-ply,SBD,F
Girls,82.33,9,Megan Frerich,Odem,77.93,127.01,68.04,129.27,324.32,Single-ply,SBD,F
Girls,82.33,10,Daniela Quintero,Cotulla,81.1,122.47,72.57,127.01,322.05,Single-ply,SBD,F
Girls,82.33,11,Kristin Center,Lytle,81.47,120.2,56.7,120.2,297.1,Single-ply,SBD,F
Girls,82.33,DQ,Brianna Lozano,Edinburg Quest College Prep,80.92,,,,,Single-ply,SBD,F
Girls,90.04,1,Alexis Gallegos,San Diego,83.01,199.58,124.74,156.49,480.81,Single-ply,SBD,F
Girls,90.04,2,Harlie Guerra,Bishop,86.73,195.04,95.25,163.29,453.59,Single-ply,SBD,F
Girls,90.04,3,Jasmine Ramon,Natalia,86.45,188.24,77.11,156.49,421.84,Single-ply,SBD,F
Girls,90.04,4,Amberosia Aleman,Kenedy,88.09,156.49,90.72,163.29,410.5,Single-ply,SBD,F
Girls,90.04,5,Alexandra Hall,Edinburg Quest College Prep,89.04,165.56,90.72,142.88,399.16,Single-ply,SBD,F
Girls,90.04,6,Jessica Morales,Odem,87.54,163.29,63.5,147.42,374.21,Single-ply,SBD,F
Girls,90.04,7,Marivel Perez,Mathis,85.73,149.69,79.38,142.88,371.95,Single-ply,SBD,F
Girls,90.04,8,Lekzi Lopez,San Diego,88.36,167.83,79.38,122.47,369.68,Single-ply,SBD,F
Girls,90.04,9,Brianna Leal,Freer,85.46,138.35,88.45,138.35,365.14,Single-ply,SBD,F
Girls,90.04,10,Analiza Noguez,Stockdale,85,138.35,70.31,151.95,360.61,Single-ply,SBD,F
Girls,90.04,11,Emili Oliver,Lytle,87.36,147.42,54.43,127.01,328.85,Single-ply,SBD,F
Girls,90.04,DQ,Kristin Salaiz,Ben Bolt-Palito Blanco,87.63,,,,,Single-ply,SBD,F
Girls,100.02,1,Raschel Lerma,Freer,95.44,156.49,79.38,154.22,390.09,Single-ply,SBD,F
Girls,100.02,2,Regina Seidel,Cotulla,92.26,154.22,79.38,151.95,385.55,Single-ply,SBD,F
Girls,100.02,3,Olivia Monsevais,Karnes City,91.26,163.29,79.38,140.61,383.29,Single-ply,SBD,F
Girls,100.02,4,Elia Soliz,San Diego,95.71,124.74,83.91,142.88,351.53,Single-ply,SBD,F
Girls,100.02,5,Chasity Holt,Center Point,90.81,142.88,72.57,124.74,340.19,Single-ply,SBD,F
Girls,100.02,6,Tereza Valdez,Monte Alto,93.17,145.15,63.5,127.01,335.66,Single-ply,SBD,F
Girls,100.02,7,Danae Caro,Falfurrias,94.17,136.08,79.38,120.2,335.66,Single-ply,SBD,F
Girls,100.02,8,Jasmine Tumilson,Freer,90.08,133.81,56.7,120.2,310.71,Single-ply,SBD,F
Girls,100.02,9,Zuri Garcia,Cotulla,93.98,115.67,65.77,111.13,292.57,Single-ply,SBD,F
Girls,100.02,DQ,Katrina Marshall,Hebbronville,96.34,,,,,Single-ply,SBD,F
Girls,100.02,DQ,Jewelyanna Rivera,La Villa,95.71,,,,,Single-ply,SBD,F
Girls,117.71,1,Ebony Vega,Mathis,115.21,238.14,90.72,170.1,498.95,Single-ply,SBD,F
Girls,117.71,2,Sierra Caro,Falfurrias,104.51,213.19,88.45,158.76,460.4,Single-ply,SBD,F
Girls,117.71,3,Nikki Rangel,Rocksprings,106.32,197.31,92.99,170.1,460.4,Single-ply,SBD,F
Girls,117.71,4,Jackie Salazar,Ben Bolt-Palito Blanco,112.4,208.65,97.52,151.95,458.13,Single-ply,SBD,F
Girls,117.71,5,Jodi Linscomb,Freer,109.41,179.17,70.31,174.63,424.11,Single-ply,SBD,F
Girls,117.71,6,Emily Casillas,Center Point,101.06,183.7,83.91,129.27,396.89,Single-ply,SBD,F
Girls,117.71,7,Saylene Torres,Dilley,104.96,108.86,61.23,142.88,312.98,Single-ply,SBD,F
Girls,117.71,8,Arianna Nunez,Yorktown,106.14,122.47,54.43,113.4,290.3,Single-ply,SBD,F
Girls,117.71,DQ,Esmeralda Rojas,Yoakum,107.95,,,,,Single-ply,SBD,F
Girls,117.71,DQ,Charity Holland,Universal City Randolph,105.69,,,,,Single-ply,SBD,F
Girls,117.71,DQ,Katie Gonzales,Mathis,100.06,115.67,,,,Single-ply,SBD,F
Girls,117.71+,1,Victoria Gonzalez,Cotulla,131.09,231.33,127.01,185.97,544.31,Single-ply,SBD,F
Girls,117.71+,2,Bethany Gonzales,Santa Gertrudis Academy,146.96,174.63,113.4,183.7,471.74,Single-ply,SBD,F
Girls,117.71+,3,Jazmine Esquivel,Altair Rice,119.57,210.92,81.65,149.69,442.25,Single-ply,SBD,F
Girls,117.71+,4,Aracely Nieto,George West,124.47,156.49,61.23,151.95,369.68,Single-ply,SBD,F
Girls,117.71+,5,Kendra Garcia,Three Rivers,119.39,161.03,74.84,127.01,362.87,Single-ply,SBD,F
Girls,117.71+,6,Brandy Moses,Hallettsville,121.56,127.01,63.5,140.61,331.12,Single-ply,SBD,F
Girls,117.71+,7,Katelyn Pratz,Mathis,132.63,117.93,52.16,65.77,235.87,Single-ply,SBD,F
Girls,117.71+,DQ,Aunriette Davis,Goliad,142.43,158.76,104.33,,,Single-ply,SBD,F
