Division,WeightClassKg,Place,Name,Team,BodyweightKg,Best3SquatKg,Best3BenchKg,Best3DeadliftKg,TotalKg,Equipment,Event,Sex
Boys,51.71,1,Matthew Palmer,Bonham,51.07,133.81,77.11,136.08,347,Single-ply,SBD,M
Boys,55.79,2,Marco Hernandez,Bonham,51.8,108.86,63.5,122.47,294.84,Single-ply,SBD,M
Boys,51.71,3,Danny Rivera,Ponder,50.08,111.13,61.23,117.93,290.3,Single-ply,SBD,M
Boys,51.71,4,Daniel Loredo,Bonham,50.53,102.06,54.43,129.27,285.76,Single-ply,SBD,M
Boys,51.71,5,Juan Salazar,Bonham,50.8,99.79,58.97,124.74,283.5,Single-ply,SBD,M
Boys,55.79,6,Isai Cerritos,Sanger,51.89,83.91,70.31,113.4,267.62,Single-ply,SBD,M
Boys,51.71,7,Ryan Slagle,Pottsboro,51.07,102.06,45.36,102.06,249.48,Single-ply,SBD,M
Boys,51.71,8,Alex Rushing,Whitewright,51.62,90.72,56.7,99.79,247.21,Single-ply,SBD,M
Boys,51.71,9,Derek Thacker,Valley View,47.36,95.25,45.36,97.52,238.14,Single-ply,SBD,M
Boys,55.79,10,Brendan Collum,Sadler S & S Cons,51.85,86.18,45.36,104.33,235.87,Single-ply,SBD,M
Boys,51.71,11,Kenneth Neskorik,Aubrey,49.62,102.06,,104.33,206.38,Single-ply,SD,M
Boys,51.71,12,Tanner Heathcock,Bells,50.17,70.31,47.63,88.45,206.38,Single-ply,SBD,M
Boys,55.79,13,Cody Crowe,Whitesboro,51.8,77.11,38.56,86.18,201.85,Single-ply,SBD,M
Boys,55.79,1,Russell Wilcox,Leonard,52.89,151.95,72.57,161.03,385.55,Single-ply,SBD,M
Boys,55.79,2,Kenieth Dodson,Pottsboro,52.07,131.54,86.18,136.08,353.8,Single-ply,SBD,M
Boys,55.79,3,Sebastian Guerra,Pilot Point,55.61,145.15,79.38,129.27,353.8,Single-ply,SBD,M
Boys,55.79,4,Jorge Solano,Bonham,54.98,131.54,63.5,145.15,340.19,Single-ply,SBD,M
Boys,55.79,5,Raymond Bhikhai,Pilot Point,52.98,115.67,54.43,133.81,303.91,Single-ply,SBD,M
Boys,55.79,6,Rj Gilbert,Sanger,54.16,108.86,63.5,131.54,303.91,Single-ply,SBD,M
Boys,55.79,7,Lane Morgan,Van Alstyne,54.52,102.06,63.5,136.08,301.64,Single-ply,SBD,M
Boys,55.79,8,Steven Keenan,Bonham,55.79,102.06,65.77,131.54,299.37,Single-ply,SBD,M
Boys,55.79,9,Bailey Belcher,Gunter,55.34,106.59,63.5,120.2,290.3,Single-ply,SBD,M
Boys,59.87,10,Lane Serna,Krum,55.97,111.13,54.43,108.86,274.42,Single-ply,SBD,M
Boys,59.87,11,Dylan Babbitt,Bells,55.88,81.65,49.9,113.4,244.94,Single-ply,SBD,M
Boys,59.87,12,Kordan Ward,Callisburg,56.02,106.59,52.16,,158.76,Single-ply,SB,M
Boys,59.87,DQ,Erik Torres,Celina,55.97,145.15,92.99,133.81,,Single-ply,SBD,M
Boys,59.87,1,Kyle Garner,Gunter,59.06,158.76,97.52,170.1,426.38,Single-ply,SBD,M
Boys,67.13,2,Robert Schilling,Bonham,60.06,151.95,86.18,176.9,415.04,Single-ply,SBD,M
Boys,67.13,3,Kaleb Beck,Howe,59.96,136.08,74.84,167.83,378.75,Single-ply,SBD,M
Boys,59.87,4,Grant Carter,Sanger,56.25,133.81,86.18,151.95,371.95,Single-ply,SBD,M
Boys,59.87,5,Koby Parker,Pottsboro,58.97,142.88,92.99,136.08,371.95,Single-ply,SBD,M
Boys,59.87,6,Austin Caldwell,Callisburg,58.79,138.35,70.31,149.69,358.34,Single-ply,SBD,M
Boys,59.87,7,Josh Secrest,Sanger,59.33,136.08,65.77,140.61,342.46,Single-ply,SBD,M
Boys,59.87,8,Justin Keeton,Anna,59.33,102.06,61.23,138.35,301.64,Single-ply,SBD,M
Boys,59.87,9,Josh Beck,Howe,59.42,127.01,,127.01,254.01,Single-ply,SD,M
Boys,59.87,10,Scott Crum,Anna,58.97,111.13,,129.27,240.4,Single-ply,SD,M
Boys,67.13,11,Martin Mijares,Bells,60.06,102.06,,127.01,229.06,Single-ply,SD,M
Boys,59.87,12,Chase Smith,Van Alstyne,57.24,79.38,45.36,102.06,226.8,Single-ply,SBD,M
Boys,67.13,DQ,Jonathan Juarez,Celina,60.06,172.37,,,,Single-ply,SBD,M
Boys,59.87,DQ,Clay Hobbs,Howe,59.42,,,,,Single-ply,SBD,M
Boys,67.13,DQ,Questin Stumpft,Pottsboro,60.06,117.93,,,,Single-ply,SBD,M
Boys,59.87,DQ,Marcus Sampson,Ponder,59.15,117.93,,,,Single-ply,SBD,M
Boys,67.13,1,Will Carter,Sanger,65.95,185.97,124.74,206.38,517.1,Single-ply,SBD,M
Boys,67.13,2,Dylan Serna,Krum,66.5,192.78,108.86,206.38,508.02,Single-ply,SBD,M
Boys,67.13,3,Stephen Steele,Pottsboro,66.22,183.7,122.47,195.04,501.22,Single-ply,SBD,M
Boys,67.13,4,Ty Slaughter,Whitesboro,66.68,188.24,106.59,197.31,492.15,Single-ply,SBD,M
Boys,67.13,5,Ian Concepcion,Krum,65.32,185.97,90.72,201.85,478.54,Single-ply,SBD,M
Boys,67.13,6,Ramon Fierro,Howe,66.5,179.17,90.72,201.85,471.74,Single-ply,SBD,M
Boys,67.13,7,Mason Thompson,Whitewright,66.5,172.37,102.06,163.29,437.72,Single-ply,SBD,M
Boys,67.13,8,Stormy Box,Pilot Point,66.04,151.95,92.99,172.37,417.3,Single-ply,SBD,M
Boys,67.13,9,Tyler Nicholson,Howe,65.14,158.76,77.11,161.03,396.89,Single-ply,SBD,M
Boys,67.13,10,Trent Nolan,Sadler S & S Cons,65.86,129.27,83.91,181.44,394.63,Single-ply,SBD,M
Boys,67.13,11,Daylan Lott,Celina,65.86,133.81,113.4,142.88,390.09,Single-ply,SBD,M
Boys,67.13,12,Jake Haker,Van Alstyne,67.13,142.88,81.65,149.69,374.21,Single-ply,SBD,M
Boys,67.13,13,Tristan Coglon,Bells,62.41,133.81,79.38,156.49,369.68,Single-ply,SBD,M
Boys,67.13,14,Rodrigo Castillo,Farmersville,64.77,136.08,74.84,158.76,369.68,Single-ply,SBD,M
Boys,67.13,15,Roy Riggins,Van Alstyne,63.5,142.88,74.84,136.08,353.8,Single-ply,SBD,M
Boys,67.13,16,Tyler Williams,Aubrey,62.14,142.88,70.31,136.08,349.27,Single-ply,SBD,M
Boys,67.13,17,Justin Sorenson,Aubrey,65.59,136.08,70.31,136.08,342.46,Single-ply,SBD,M
Boys,67.13,18,Preston Jones,Melissa,64.5,127.01,79.38,131.54,337.93,Single-ply,SBD,M
Boys,67.13,19,Kirk Charles,Gainesville,61.87,122.47,72.57,120.2,315.25,Single-ply,SBD,M
Boys,67.13,20,Clayton Gillard,Anna,66.22,104.33,63.5,147.42,315.25,Single-ply,SBD,M
Boys,67.13,21,Paul Lutz,Leonard,63.5,117.93,54.43,133.81,306.17,Single-ply,SBD,M
Boys,67.13,22,Dakota Shields,Pottsboro,65.14,102.06,61.23,113.4,276.69,Single-ply,SBD,M
Boys,67.13,23,Michael Vest,Celina,66.68,158.76,106.59,,265.35,Single-ply,SB,M
Boys,67.13,24,Marshall Roesler,Bells,64.23,,72.57,,72.57,Single-ply,B,M
Boys,74.84,1,Brice Chaney,Whitesboro,73.3,195.04,111.13,235.87,542.04,Single-ply,SBD,M
Boys,74.84,2,Joaquin Lopez,Howe,71.58,204.12,111.13,217.72,532.97,Single-ply,SBD,M
Boys,74.84,3,Tanner Johnson,Whitesboro,70.31,190.51,102.06,195.04,487.61,Single-ply,SBD,M
Boys,74.84,4,Jarrett Wilson,Pilot Point,74.39,195.04,136.08,154.22,485.34,Single-ply,SBD,M
Boys,74.84,5,Austin Vaden,Celina,73.39,183.7,117.93,174.63,476.27,Single-ply,SBD,M
Boys,74.84,6,Dalton Wheeler,Whitesboro,70.13,190.51,102.06,179.17,471.74,Single-ply,SBD,M
Boys,74.84,7,Jody Price,Callisburg,71.85,170.1,99.79,192.78,462.66,Single-ply,SBD,M
Boys,74.84,8,Hunter Hall,Gainesville,69.22,170.1,83.91,181.44,435.45,Single-ply,SBD,M
Boys,74.84,9,Brendan Beach,Ponder,73.03,163.29,102.06,161.03,426.38,Single-ply,SBD,M
Boys,74.84,10,Chase Pinion,Anna,73.03,149.69,104.33,167.83,421.84,Single-ply,SBD,M
Boys,74.84,11,Cody Woolsey,Whitesboro,69.67,151.95,83.91,174.63,410.5,Single-ply,SBD,M
Boys,74.84,12,Chris de la Cruz,Pottsboro,72.39,154.22,86.18,154.22,394.63,Single-ply,SBD,M
Boys,74.84,13,Magnum Sampson,Ponder,73.48,147.42,88.45,154.22,390.09,Single-ply,SBD,M
Boys,74.84,14,Clay Kelley,Aubrey,69.94,136.08,90.72,161.03,387.82,Single-ply,SBD,M
Boys,74.84,15,Mark Steinhoff,Aubrey,72.12,136.08,83.91,163.29,383.29,Single-ply,SBD,M
Boys,74.84,16,Terry Lawrence,Van Alstyne,69.49,151.95,83.91,142.88,378.75,Single-ply,SBD,M
Boys,82.1,17,Kyle Rousten,Farmersville,75.02,136.08,83.91,158.76,378.75,Single-ply,SBD,M
Boys,74.84,18,Adam White,Van Alstyne,74.75,120.2,83.91,167.83,371.95,Single-ply,SBD,M
Boys,74.84,19,Jaret Keeton,Anna,74.39,127.01,65.77,147.42,340.19,Single-ply,SBD,M
Boys,82.1,20,Joshua Bejarano,Valley View,75.02,127.01,77.11,124.74,328.85,Single-ply,SBD,M
Boys,74.84,21,Jacob Baker,Pottsboro,69.94,124.74,70.31,129.27,324.32,Single-ply,SBD,M
Boys,74.84,22,Trey Henderson,Whitewright,68.04,113.4,61.23,113.4,288.03,Single-ply,SBD,M
Boys,74.84,23,Chad Schandelmeier,Melissa,73.84,97.52,,,97.52,Single-ply,S,M
Boys,82.1,1,John Groff,Pilot Point,81.28,204.12,131.54,229.06,564.72,Single-ply,SBD,M
Boys,82.1,2,Luis Erives,Sadler S & S Cons,80.74,176.9,117.93,226.8,521.63,Single-ply,SBD,M
Boys,82.1,3,Kenton Manis,Bonham,78.74,206.38,102.06,208.65,517.1,Single-ply,SBD,M
Boys,82.1,4,Stephen Duncan,Celina,79.02,174.63,111.13,197.31,483.08,Single-ply,SBD,M
Boys,82.1,5,Foster Frisk,Celina,76.57,183.7,97.52,183.7,464.93,Single-ply,SBD,M
Boys,89.81,6,Justin Bennett,Leonard,82.19,156.49,108.86,192.78,458.13,Single-ply,SBD,M
Boys,82.1,7,Brandon Dodson,Ponder,76.93,181.44,90.72,167.83,439.98,Single-ply,SBD,M
Boys,82.1,8,Brady Smith,Howe,75.84,136.08,106.59,192.78,435.45,Single-ply,SBD,M
Boys,82.1,9,Daniel Tarlton,Gunter,81.28,142.88,90.72,181.44,415.04,Single-ply,SBD,M
Boys,82.1,10,Clark Sulivant,Sadler S & S Cons,81.1,131.54,95.25,176.9,403.7,Single-ply,SBD,M
Boys,82.1,11,Garrett McLean,Bells,79.47,154.22,81.65,163.29,399.16,Single-ply,SBD,M
Boys,82.1,12,Camden Brown,Leonard,80.38,145.15,72.57,158.76,376.48,Single-ply,SBD,M
Boys,82.1,13,Chancey Hall,Aubrey,78.93,124.74,90.72,158.76,374.21,Single-ply,SBD,M
Boys,82.1,14,Edgar Ramirez,Gainesville,75.66,131.54,70.31,133.81,335.66,Single-ply,SBD,M
Boys,89.81,15,Anthony Aguilar,Anna,82.19,124.74,65.77,145.15,335.66,Single-ply,SBD,M
Boys,82.1,16,Dylan Shaw,Bells,77.56,122.47,61.23,136.08,319.78,Single-ply,SBD,M
Boys,82.1,17,Brad Hull,Krum,79.38,142.88,,161.03,303.91,Single-ply,SD,M
Boys,82.1,18,Jacoby Christian,Gainesville,75.3,113.4,,142.88,256.28,Single-ply,SD,M
Boys,89.81,19,Zach LaRue,Callisburg,82.28,151.95,,,151.95,Single-ply,S,M
Boys,82.1,20,Jake Parker,Callisburg,77.47,,92.99,,92.99,Single-ply,B,M
Boys,82.1,DQ,Juan Martinez,Leonard,78.11,113.4,86.18,,,Single-ply,SB,M
Boys,82.1,DQ,Brennan Sooter,Ponder,76.93,238.14,,,,Single-ply,SB,M
Boys,99.79,1,Jeremiah Bottoms,Celina,89.99,256.28,142.88,201.85,601.01,Single-ply,SBD,M
Boys,89.81,2,Freddie Roman,Pilot Point,83.1,204.12,158.76,215.46,578.33,Single-ply,SBD,M
Boys,89.81,3,Derek Shelby,Sanger,86.45,215.46,136.08,217.72,569.26,Single-ply,SBD,M
Boys,89.81,4,Arnold Contreras,Leonard,83.19,195.04,113.4,181.44,489.88,Single-ply,SBD,M
Boys,89.81,5,Chris White,Gainesville,87.18,185.97,120.2,179.17,485.34,Single-ply,SBD,M
Boys,89.81,6,Dalton Scott,Pilot Point,88.54,190.51,117.93,176.9,485.34,Single-ply,SBD,M
Boys,89.81,7,Caleb Hill,Bonham,88.09,199.58,88.45,195.04,483.08,Single-ply,SBD,M
Boys,89.81,8,Collin Kilcrease,Whitesboro,86.91,158.76,108.86,190.51,458.13,Single-ply,SBD,M
Boys,89.81,9,Jack Verltuet,Aubrey,87.91,170.1,90.72,181.44,442.25,Single-ply,SBD,M
Boys,89.81,10,Garrett Lansford,Anna,88.36,231.33,,208.65,439.98,Single-ply,SD,M
Boys,89.81,11,Bryce Himmelreich,Van Alstyne,88.63,147.42,117.93,170.1,435.45,Single-ply,SBD,M
Boys,99.79,12,Jd Patterson,Howe,89.99,149.69,108.86,158.76,417.3,Single-ply,SBD,M
Boys,89.81,13,Blake Stevens,Aubrey,84.55,147.42,81.65,181.44,410.5,Single-ply,SBD,M
Boys,89.81,14,Calvin Stang,Aubrey,88.18,158.76,81.65,158.76,399.16,Single-ply,SBD,M
Boys,89.81,15,Phillip Heintze,Whitewright,84.19,145.15,102.06,149.69,396.89,Single-ply,SBD,M
Boys,89.81,16,Kiefer Hansen,Whitewright,88.9,151.95,79.38,163.29,394.63,Single-ply,SBD,M
Boys,89.81,17,Allen Mullis,Ponder,89.63,145.15,99.79,145.15,390.09,Single-ply,SBD,M
Boys,89.81,18,Nick Davis,Farmersville,86.36,136.08,86.18,158.76,381.02,Single-ply,SBD,M
Boys,89.81,19,Hunter Montoya,Melissa,84.64,127.01,70.31,154.22,351.53,Single-ply,SBD,M
Boys,89.81,20,Tristan Torres,Sadler S & S Cons,88.9,131.54,61.23,136.08,328.85,Single-ply,SBD,M
Boys,89.81,21,Ian Mauldin,Leonard,86.55,102.06,74.84,142.88,319.78,Single-ply,SBD,M
Boys,89.81,22,Javier Venegas,Valley View,87.45,120.2,65.77,115.67,301.64,Single-ply,SBD,M
Boys,89.81,23,Jacob Shneider,Gainesville,86.82,102.06,70.31,104.33,276.69,Single-ply,SBD,M
Boys,89.81,DQ,Luke Hartman,Aubrey,84.82,,,,,Single-ply,SBD,M
Boys,99.79,1,Mikey Dobbles,Bonham,95.98,219.99,129.27,222.26,571.53,Single-ply,SBD,M
Boys,99.79,2,Thomas Morales,Whitesboro,95.89,208.65,131.54,195.04,535.24,Single-ply,SBD,M
Boys,99.79,3,James Kemp,Anna,93.08,204.12,111.13,199.58,514.83,Single-ply,SBD,M
Boys,99.79,4,Shawn Shugart,Callisburg,97.61,206.38,106.59,174.63,487.61,Single-ply,SBD,M
Boys,99.79,5,Alex Cole,Van Alstyne,90.72,156.49,124.74,190.51,471.74,Single-ply,SBD,M
Boys,99.79,6,Blake Barnett,Howe,92.35,176.9,88.45,181.44,446.79,Single-ply,SBD,M
Boys,99.79,7,Manny Semidey,Van Alstyne,91.81,161.03,113.4,170.1,444.52,Single-ply,SBD,M
Boys,99.79,8,Josh Melvin,Bells,98.52,158.76,111.13,163.29,433.18,Single-ply,SBD,M
Boys,99.79,9,Grayson Briney,Sanger,94.53,170.1,88.45,170.1,428.64,Single-ply,SBD,M
Boys,99.79,10,Nick Thompson,Ponder,97.16,156.49,97.52,163.29,417.3,Single-ply,SBD,M
Boys,99.79,11,Kelby Shaw,Whitewright,91.72,147.42,92.99,156.49,396.89,Single-ply,SBD,M
Boys,99.79,12,Justin Baker,Leonard,93.17,149.69,92.99,154.22,396.89,Single-ply,SBD,M
Boys,99.79,13,Brandon Gonzales,Krum,98.7,154.22,95.25,140.61,390.09,Single-ply,SBD,M
Boys,99.79,14,Justin Wagner,Ponder,98.97,147.42,86.18,136.08,369.68,Single-ply,SBD,M
Boys,99.79,15,Dakota Mason,Whitewright,95.44,136.08,86.18,140.61,362.87,Single-ply,SBD,M
Boys,99.79,16,Russell Carey,Whitesboro,94.89,111.13,72.57,136.08,319.78,Single-ply,SBD,M
Boys,99.79,17,Austin Jennings,Pottsboro,95.71,124.74,56.7,113.4,294.84,Single-ply,SBD,M
Boys,99.79,DQ,Bryce Berryman,Callisburg,91.99,181.44,92.99,,,Single-ply,SBD,M
Boys,99.79,DQ,Jared Boswell,Gainesville,97.52,183.7,102.06,,,Single-ply,SBD,M
Boys,99.79,DQ,Ryan Manor,Farmersville,97.89,102.06,68.04,,,Single-ply,SBD,M
Boys,99.79,DQ,Conner Barnes,Sanger,95.89,,,,,Single-ply,SBD,M
Boys,99.79,DQ,Jermemy Harolds,Celina,95.8,,97.52,129.27,,Single-ply,SBD,M
Boys,99.79,DQ,Joseph Romans,Gainesville,93.62,,88.45,136.08,,Single-ply,SBD,M
Boys,109.77,1,Riley Stottle,Pilot Point,101.7,258.55,195.04,226.8,680.39,Single-ply,SBD,M
Boys,109.77,2,Heber Hernandez,Sadler S & S Cons,109.5,226.8,140.61,260.82,628.23,Single-ply,SBD,M
Boys,109.77,3,Chris Aivaliotis,Ponder,107.14,251.74,145.15,226.8,623.69,Single-ply,SBD,M
Boys,109.77,4,Dawson Stewart,Howe,100.79,217.72,136.08,226.8,580.6,Single-ply,SBD,M
Boys,109.77,5,Ethan Lawson,Sadler S & S Cons,108.41,215.46,127.01,208.65,551.11,Single-ply,SBD,M
Boys,109.77,6,Sam Gillard,Anna,102.69,179.17,99.79,185.97,464.93,Single-ply,SBD,M
Boys,109.77,7,Ryan Langley,Sanger,100.79,188.24,104.33,158.76,451.32,Single-ply,SBD,M
Boys,109.77,8,Andrew Lee,Farmersville,103.51,170.1,95.25,174.63,439.98,Single-ply,SBD,M
Boys,109.77,9,Zach Walton,Pottsboro,100.24,149.69,81.65,154.22,385.55,Single-ply,SBD,M
Boys,109.77,DQ,Kent Haskett,Whitewright,105.23,136.08,,158.76,,Single-ply,SBD,M
Boys,124.74,1,Matt Poursoltani,Pilot Point,122.11,294.84,283.5,260.82,839.15,Single-ply,SBD,M
Boys,124.74,2,Ethan Watson,Bonham,121.93,263.08,154.22,233.6,650.91,Single-ply,SBD,M
Boys,124.74,3,Scott Blair,Anna,114.76,249.48,161.03,238.14,648.64,Single-ply,SBD,M
Boys,124.74,4,Bryan Townsend,Whitesboro,123.74,238.14,158.76,226.8,623.69,Single-ply,SBD,M
Boys,124.74,5,Kyle Scheffler,Sanger,122.56,217.72,156.49,226.8,601.01,Single-ply,SBD,M
Boys,124.74,6,Dillon Gage,Sadler S & S Cons,118.39,208.65,174.63,210.92,594.21,Single-ply,SBD,M
Boys,124.74,7,Cameron Adkins,Leonard,122.2,213.19,142.88,210.92,566.99,Single-ply,SBD,M
Boys,124.74,8,Colton Richards,Krum,120.93,219.99,102.06,204.12,526.17,Single-ply,SBD,M
Boys,124.74,9,Kasey Misenheimer,Whitesboro,116.8,210.92,115.67,190.51,517.1,Single-ply,SBD,M
Boys,124.74,10,Manny Rodriguez,Gainesville,111.67,190.51,111.13,183.7,485.34,Single-ply,SBD,M
Boys,124.74,11,Jordan Mitchell,Krum,124.1,185.97,108.86,167.83,462.66,Single-ply,SBD,M
Boys,124.74,12,Austin Reese,Melissa,112.94,174.63,113.4,170.1,458.13,Single-ply,SBD,M
Boys,124.74+,13,Brendan Eades,Leonard,124.96,147.42,92.99,145.15,385.55,Single-ply,SBD,M
Boys,124.74,14,Charles King,Valley View,114.67,127.01,102.06,142.88,371.95,Single-ply,SBD,M
Boys,124.74,15,Jacob Poole,Ponder,119.66,124.74,58.97,117.93,301.64,Single-ply,SBD,M
Boys,124.74,DQ,Casey Morse,Pottsboro,123.2,,,,,Single-ply,SBD,M
Boys,124.74,DQ,Logan Smithson,Callisburg,114.76,190.51,136.08,,,Single-ply,SBD,M
Boys,124.74+,1,Kaleb Espinoza,Howe,161.57,231.33,108.86,242.67,582.87,Single-ply,SBD,M
Boys,124.74+,2,Marcos Garcia,Gainesville,163.02,204.12,129.27,181.44,514.83,Single-ply,SBD,M
Boys,124.74+,3,Alec Dickinson,Bells,126.28,127.01,72.57,120.2,319.78,Single-ply,SBD,M
Boys,124.74+,DQ,Trey Sewell,Bonham,129.09,,,,,Single-ply,SBD,M
Boys,124.74+,DQ,Matt Herrera,Celina,145.33,,,,,Single-ply,SBD,M
Boys,124.74+,DQ,Jacob Barton,Callisburg,131.72,285.76,224.53,,,Single-ply,SBD,M
