Division,WeightClassKg,Place,Name,Team,BodyweightKg,Best3SquatKg,Best3BenchKg,Best3DeadliftKg,TotalKg,Equipment,Event,Sex
Boys,51.71,1,Therrance Soto,San Marcos,50.94,106.59,63.5,120.2,290.3,Single-ply,SBD,M
Boys,51.71,2,Andres Guevera,Manor,48.99,63.5,52.16,102.06,217.72,Single-ply,SBD,M
Boys,51.71,3,Joel Berrum,Austin Lake Travis,50.44,90.72,38.56,81.65,210.92,Single-ply,SBD,M
Boys,51.71,DQ,Christian Lopez,Manor,49.8,,,,,Single-ply,SBD,M
Boys,55.79,1,Ulysses Solis,San Antonio East Central,55.61,138.35,72.57,167.83,378.75,Single-ply,SBD,M
Boys,55.79,2,Adrian Yanez,Kyle Lehman,55.52,127.01,81.65,145.15,353.8,Single-ply,SBD,M
Boys,55.79,3,Luke Merchant,San Marcos,55.11,129.27,79.38,142.88,351.53,Single-ply,SBD,M
Boys,55.79,4,Joey Gonzalez,Buda Hays,52.71,131.54,72.57,133.81,337.93,Single-ply,SBD,M
Boys,55.79,5,Isaac Trejo,San Marcos,53.43,115.67,61.23,122.47,299.37,Single-ply,SBD,M
Boys,55.79,6,Elijah Hubbard,Elgin,54.07,113.4,56.7,113.4,283.5,Single-ply,SBD,M
Boys,59.87,1,Elijah Gonzales,San Antonio East Central,59.51,195.04,120.2,215.46,530.7,Single-ply,SBD,M
Boys,59.87,2,Leonardo Calderon,San Marcos,59.83,185.97,124.74,190.51,501.22,Single-ply,SBD,M
Boys,59.87,3,Jacob Esquivel,Seguin,58.97,172.37,117.93,188.24,478.54,Single-ply,SBD,M
Boys,59.87,4,Zeke Martinez,San Marcos,57.15,156.49,92.99,185.97,435.45,Single-ply,SBD,M
Boys,59.87,5,Nate Burnett,Lockhart,58.33,138.35,72.57,161.03,371.95,Single-ply,SBD,M
Boys,59.87,6,Happy Jones,Manor,56.34,133.81,77.11,142.88,353.8,Single-ply,SBD,M
Boys,59.87,7,Chris Velaszquez,Geronimo Navarro,56.25,129.27,81.65,117.93,328.85,Single-ply,SBD,M
Boys,59.87,8,David Wederstrandt,Geronimo Navarro,58.79,106.59,72.57,122.47,301.64,Single-ply,SBD,M
Boys,67.13,1,Brandon Palomares,Seguin,65.41,199.58,108.86,215.46,523.9,Single-ply,SBD,M
Boys,67.13,2,Sam Muniz,San Marcos,64.73,172.37,92.99,204.12,469.47,Single-ply,SBD,M
Boys,67.13,3,Jeremiah Lewis,San Antonio East Central,67.13,176.9,108.86,181.44,467.2,Single-ply,SBD,M
Boys,67.13,4,Trey Elkins,Austin Lake Travis,66.22,161.03,111.13,174.63,446.79,Single-ply,SBD,M
Boys,67.13,5,Cody Elizalde,Seguin,64.68,165.56,95.25,181.44,442.25,Single-ply,SBD,M
Boys,67.13,6,Austin Carrow,Austin Lake Travis,61.14,142.88,102.06,183.7,428.64,Single-ply,SBD,M
Boys,67.13,7,Julian Mata,Kyle Lehman,65.5,142.88,108.86,172.37,424.11,Single-ply,SBD,M
Boys,67.13,8,William Reyna,Geronimo Navarro,66.77,147.42,95.25,176.9,419.57,Single-ply,SBD,M
Boys,67.13,9,Chris Gomes,Austin Lake Travis,62.41,124.74,88.45,131.54,344.73,Single-ply,SBD,M
Boys,67.13,10,Jacob Neidig,Elgin,62.96,124.74,72.57,147.42,344.73,Single-ply,SBD,M
Boys,67.13,11,Heber Cordona,Gonzales,62.78,111.13,88.45,120.2,319.78,Single-ply,SBD,M
Boys,67.13,12,Camren Willwerth,Del Valle,66.95,111.13,72.57,136.08,319.78,Single-ply,SBD,M
Boys,74.84,1,Mark Saldana,San Antonio East Central,74.66,208.65,145.15,219.99,573.79,Single-ply,SBD,M
Boys,74.84,2,Isaac Johnson,Elgin,69.49,215.46,115.67,226.8,557.92,Single-ply,SBD,M
Boys,74.84,3,Ever Calderon,Buda Hays,73.12,195.04,117.93,215.46,528.44,Single-ply,SBD,M
Boys,74.84,4,Albian Leyva,San Marcos,72.12,183.7,117.93,213.19,514.83,Single-ply,SBD,M
Boys,74.84,5,Kevin Best,Manor,73.48,181.44,124.74,188.24,494.42,Single-ply,SBD,M
Boys,74.84,6,Kyle Peed,Buda Hays,74.03,185.97,124.74,181.44,492.15,Single-ply,SBD,M
Boys,74.84,7,Joel Hinojosa,Seguin,74.48,172.37,111.13,176.9,460.4,Single-ply,SBD,M
Boys,74.84,8,Jacob Gonzales,Lockhart,71.67,149.69,81.65,199.58,430.91,Single-ply,SBD,M
Boys,74.84,9,Eain Kennedy,Manor,72.3,158.76,90.72,163.29,412.77,Single-ply,SBD,M
Boys,74.84,10,Wesley Estrada-Lowe,Buda Hays,73.66,129.27,90.72,174.63,394.63,Single-ply,SBD,M
Boys,74.84,11,Joel Dominguez,Kyle Lehman,74.3,136.08,83.91,165.56,385.55,Single-ply,SBD,M
Boys,74.84,12,Sergio Torres,Gonzales,74.39,142.88,74.84,151.95,369.68,Single-ply,SBD,M
Boys,74.84,13,Jared Cooper,Geronimo Navarro,68.13,124.74,83.91,158.76,367.41,Single-ply,SBD,M
Boys,74.84,14,James Martinez,Gonzales,70.49,129.27,83.91,149.69,362.87,Single-ply,SBD,M
Boys,82.1,1,Prudencio Calderon,San Marcos,82.01,199.58,117.93,247.21,564.72,Single-ply,SBD,M
Boys,82.1,2,Robert Llanas,San Antonio East Central,82.01,208.65,131.54,222.26,562.45,Single-ply,SBD,M
Boys,82.1,3,Alex Rivas,Seguin,80.38,208.65,127.01,213.19,548.85,Single-ply,SBD,M
Boys,82.1,4,Jake Wright,Geronimo Navarro,81.83,185.97,113.4,215.46,514.83,Single-ply,SBD,M
Boys,82.1,5,Samuel Castillo,San Antonio East Central,81.47,183.7,142.88,183.7,510.29,Single-ply,SBD,M
Boys,82.1,6,Michael Joseph,Elgin,77.84,192.78,108.86,204.12,505.76,Single-ply,SBD,M
Boys,82.1,7,Ryan Leal,Buda Hays,79.29,208.65,122.47,172.37,503.49,Single-ply,SBD,M
Boys,82.1,8,Nicholas Vasquez,Del Valle,82.1,170.1,120.2,192.78,483.08,Single-ply,SBD,M
Boys,82.1,9,Luis Rodriguez,Geronimo Navarro,81.28,179.17,117.93,181.44,478.54,Single-ply,SBD,M
Boys,82.1,10,Manny Arguijo,Del Rio,77.02,170.1,106.59,190.51,467.2,Single-ply,SBD,M
Boys,82.1,11,Tre Moreno,Kyle Lehman,80.38,156.49,95.25,181.44,433.18,Single-ply,SBD,M
Boys,82.1,12,Michael Rodriguez,Del Rio,78.74,151.95,127.01,147.42,426.38,Single-ply,SBD,M
Boys,82.1,13,Nick Cruz,Lockhart,76.2,151.95,90.72,181.44,424.11,Single-ply,SBD,M
Boys,82.1,14,Luis Frausto,Del Rio,78.56,147.42,102.06,174.63,424.11,Single-ply,SBD,M
Boys,82.1,15,John Carranza,Lockhart,77.02,142.88,79.38,163.29,385.55,Single-ply,SBD,M
Boys,82.1,DQ,Cade Connors,Austin Lake Travis,81.37,111.13,95.25,,,Single-ply,SBD,M
Boys,82.1,DQ,Matt Rodriguez,Elgin,81.74,,,,,Single-ply,SBD,M
Boys,89.81,1,JC Castillo,Seguin,88.18,226.8,158.76,226.8,612.35,Single-ply,SBD,M
Boys,89.81,2,Jared Leal,Geronimo Navarro,86.82,226.8,129.27,249.48,605.55,Single-ply,SBD,M
Boys,89.81,3,Ashton Williams,San Antonio East Central,84.37,238.14,138.35,217.72,594.21,Single-ply,SBD,M
Boys,89.81,4,Brandon Atnipp,Del Rio,84.55,197.31,145.15,235.87,578.33,Single-ply,SBD,M
Boys,89.81,5,Tristan Rodriguez,San Antonio East Central,87.54,208.65,136.08,215.46,560.19,Single-ply,SBD,M
Boys,89.81,6,Justin Arismendez,Kyle Lehman,86.45,206.38,142.88,204.12,553.38,Single-ply,SBD,M
Boys,89.81,7,Rene Velasquez,San Marcos,87.36,188.24,115.67,183.7,487.61,Single-ply,SBD,M
Boys,89.81,8,Victor Martinez,San Marcos,83.46,158.76,122.47,197.31,478.54,Single-ply,SBD,M
Boys,89.81,9,Marcus Ortiz,Del Valle,87.09,170.1,104.33,188.24,462.66,Single-ply,SBD,M
Boys,89.81,10,Kyndal Johnson,Elgin,84.37,147.42,108.86,179.17,435.45,Single-ply,SBD,M
Boys,89.81,11,Abel Hernandez,Del Rio,89.72,145.15,113.4,170.1,428.64,Single-ply,SBD,M
Boys,89.81,12,Jose Rodriguez,Del Rio,88.54,149.69,86.18,151.95,387.82,Single-ply,SBD,M
Boys,89.81,13,Chase Whites,Austin Lake Travis,84.82,111.13,79.38,147.42,337.93,Single-ply,SBD,M
Boys,89.81,DQ,Olisa Uzuegbunam,Manor,87,201.85,,,,Single-ply,SBD,M
Boys,89.81,DQ,Joel Juarez,Lockhart,83.46,195.04,129.27,,,Single-ply,SBD,M
Boys,99.79,1,Adrian Hunter,Manor,98.7,226.8,136.08,272.16,635.03,Single-ply,SBD,M
Boys,99.79,2,Abel Longoria,Kyle Lehman,99.16,247.21,136.08,199.58,582.87,Single-ply,SBD,M
Boys,99.79,3,Demetrius Lino,San Antonio East Central,90.08,192.78,104.33,254.01,551.11,Single-ply,SBD,M
Boys,99.79,4,Trent Shauer,Gonzales,90.63,195.04,133.81,210.92,539.77,Single-ply,SBD,M
Boys,99.79,5,Richard Reyes,Buda Hays,94.53,226.8,111.13,201.85,539.77,Single-ply,SBD,M
Boys,99.79,6,Colton Barnett,Geronimo Navarro,96.89,185.97,113.4,188.24,487.61,Single-ply,SBD,M
Boys,99.79,7,Carl Ferguson,Kyle Lehman,96.16,174.63,131.54,174.63,480.81,Single-ply,SBD,M
Boys,99.79,8,Hunter York,Seguin,97.98,165.56,122.47,190.51,478.54,Single-ply,SBD,M
Boys,99.79,9,Jorge Riojas,San Marcos,99.56,174.63,97.52,204.12,476.27,Single-ply,SBD,M
Boys,99.79,10,Brayan Carrera,Del Valle,97.7,154.22,95.25,183.7,433.18,Single-ply,SBD,M
Boys,99.79,11,Gabino Barrera,Del Rio,92.53,161.03,111.13,156.49,428.64,Single-ply,SBD,M
Boys,99.79,12,Jaydon Jasso,Del Rio,98.79,124.74,83.91,206.38,415.04,Single-ply,SBD,M
Boys,99.79,13,Dizon Rodriguez,Del Rio,94.03,142.88,92.99,165.56,401.43,Single-ply,SBD,M
Boys,99.79,14,Brian Ortiz,Del Valle,94.98,104.33,83.91,151.95,340.19,Single-ply,SBD,M
Boys,99.79,DQ,Jose Mendoza,Del Rio,97.52,161.03,,,,Single-ply,SBD,M
Boys,99.79,DQ,Jeremy Fowler,Manor,99.43,,,,,Single-ply,SBD,M
Boys,109.77,1,Jeremy Rodriguez,Geronimo Navarro,108.95,317.51,192.78,244.94,755.23,Single-ply,SBD,M
Boys,109.77,2,Carlos Chester,Manor,108.32,272.16,181.44,281.23,734.82,Single-ply,SBD,M
Boys,109.77,3,Anthony Cantu,San Antonio East Central,109.23,267.62,124.74,226.8,619.15,Single-ply,SBD,M
Boys,109.77,4,Jose Hernandez,San Marcos,107.32,244.94,151.95,219.99,616.89,Single-ply,SBD,M
Boys,109.77,5,Jeramiah Cantu,Gonzales,108.68,219.99,136.08,217.72,573.79,Single-ply,SBD,M
Boys,109.77,6,Ramsey Tijerina,San Marcos,109.13,215.46,127.01,219.99,562.45,Single-ply,SBD,M
Boys,109.77,7,Emmanuel Galvan,Buda Hays,107.5,215.46,136.08,185.97,537.51,Single-ply,SBD,M
Boys,109.77,8,Armando Veliz,Del Rio,109.41,190.51,108.86,188.24,487.61,Single-ply,SBD,M
Boys,109.77,9,Keane Davis,Seguin,102.87,183.7,120.2,181.44,485.34,Single-ply,SBD,M
Boys,109.77,10,Logan Till,Lockhart,102.69,161.03,90.72,176.9,428.64,Single-ply,SBD,M
Boys,124.74,1,Seth Seale,Buda Hays,124.1,256.28,174.63,251.74,682.66,Single-ply,SBD,M
Boys,124.74,2,Marshall Crabb,Geronimo Navarro,118.75,233.6,138.35,224.53,596.47,Single-ply,SBD,M
Boys,124.74,3,Caleb Bishop,Lockhart,116.66,233.6,133.81,217.72,585.13,Single-ply,SBD,M
Boys,124.74,4,Terry Cook,Elgin,118.75,215.46,131.54,229.06,576.06,Single-ply,SBD,M
Boys,124.74,5,Andrew Gaitan,Seguin,115.94,215.46,117.93,215.46,548.85,Single-ply,SBD,M
Boys,124.74,6,Eliel Salazar,Elgin,122.56,192.78,138.35,192.78,523.9,Single-ply,SBD,M
Boys,124.74,7,Garrett Dietert,Geronimo Navarro,120.84,215.46,113.4,188.24,517.1,Single-ply,SBD,M
Boys,124.74,8,Javier Gallegos,Del Rio,123.83,192.78,120.2,183.7,496.68,Single-ply,SBD,M
Boys,124.74,9,Louis Salamanca,Seguin,114.31,190.51,131.54,172.37,494.42,Single-ply,SBD,M
Boys,124.74,10,Kadin Lawrence,Elgin,115.58,170.1,113.4,190.51,474,Single-ply,SBD,M
Boys,124.74,11,Koy Spano,Austin Lake Travis,115.03,165.56,113.4,183.7,462.66,Single-ply,SBD,M
Boys,124.74,12,Abe Hinojosa,Del Rio,118.75,151.95,86.18,170.1,408.23,Single-ply,SBD,M
Boys,124.74,13,Jose Martinez,Del Rio,121.65,145.15,97.52,142.88,385.55,Single-ply,SBD,M
Boys,124.74,14,CJ Benavidez,Del Rio,115.76,136.08,88.45,158.76,383.29,Single-ply,SBD,M
Boys,124.74,15,Josh Baggett,Lockhart,110.4,136.08,79.38,151.95,367.41,Single-ply,SBD,M
Boys,124.74,16,Brenden Jaimes,Austin Lake Travis,111.31,154.22,122.47,,276.69,Single-ply,SB,M
Boys,124.74,DQ,Nick Ramirez,Gonzales,112.58,,,,,Single-ply,SBD,M
Boys,124.74+,1,Marquis Gardner,Manor,148.05,317.51,181.44,238.14,737.09,Single-ply,SBD,M
Boys,124.74+,2,Edward Camacho,Lockhart,137.89,242.67,136.08,217.72,596.47,Single-ply,SBD,M
Boys,124.74+,3,Zach Hostetter,Seguin,127.46,170.1,151.95,226.8,548.85,Single-ply,SBD,M
Boys,124.74+,4,Imade Igeihon,Del Valle,146.69,210.92,122.47,215.46,548.85,Single-ply,SBD,M
Boys,124.74+,5,Joe Colurciello,Lockhart,130.36,201.85,117.93,208.65,528.44,Single-ply,SBD,M
Boys,124.74+,6,Carlos Morales,Kyle Lehman,143.24,183.7,131.54,183.7,498.95,Single-ply,SBD,M
Boys,124.74+,7,Chase Patterson,Austin Lake Travis,131.09,181.44,106.59,190.51,478.54,Single-ply,SBD,M
Boys,124.74+,8,Joseph Rodriguez,Del Rio,145.06,170.1,102.06,185.97,458.13,Single-ply,SBD,M
Boys,124.74+,DQ,Wesley Curry,Elgin,138.62,215.46,102.06,,,Single-ply,SBD,M
Boys,124.74+,DQ,Anthony Hill,Manor,163.29,219.99,120.2,,,Single-ply,SBD,M
Boys,124.74+,DQ,Nick Dela Rosa,San Marcos,146.06,,,,,Single-ply,SBD,M
