Division,WeightClassKg,Place,Name,Team,BodyweightKg,Best3SquatKg,Best3BenchKg,Best3DeadliftKg,TotalKg,Equipment,Event,Sex
Boys,51.71,1,Robert Gonzalez,Laredo Cigarroa,51.3,183.7,95.25,176.9,455.86,Single-ply,SBD,M
Boys,51.71,2,Ramiro Trevino,Laredo Nixon,47.63,127.01,74.84,147.42,349.27,Single-ply,SBD,M
Boys,51.71,3,Austin Hardy,Somerset,50.89,115.67,70.31,138.35,324.32,Single-ply,SBD,M
Boys,51.71,4,Nicko Perez,Lytle,50.53,124.74,68.04,113.4,306.17,Single-ply,SBD,M
Boys,51.71,5,Eddie Macias,Laredo Nixon,46.31,106.59,56.7,102.06,265.35,Single-ply,SBD,M
Boys,51.71,6,Gage Cross,Hondo,46.9,63.5,38.56,90.72,192.78,Single-ply,SBD,M
Boys,51.71,DQ,George Garcia,San Antonio Memorial,51.71,,,,,Single-ply,SBD,M
Boys,55.79,1,Adrian Garcia,Pearsall,55.07,165.56,95.25,185.97,446.79,Single-ply,SBD,M
Boys,55.79,2,Devyn Hernandez,Somerset,55.4,136.08,97.52,154.22,387.82,Single-ply,SBD,M
Boys,55.79,3,Mason Lavar,Marion,55.79,131.54,92.99,147.42,371.95,Single-ply,SBD,M
Boys,55.79,4,Justin Brady,Carrizo Springs,54.43,124.74,79.38,165.56,369.68,Single-ply,SBD,M
Boys,55.79,5,Demetrios Monreal,Devine,55.16,136.08,72.57,129.27,337.93,Single-ply,SBD,M
Boys,55.79,6,Joey Garcia,Marion,55.16,117.93,65.77,149.69,333.39,Single-ply,SBD,M
Boys,55.79,7,Alex Pinedo,San Antonio East Central,55.52,124.74,70.31,136.08,331.12,Single-ply,SBD,M
Boys,55.79,8,Kaden Hewitt,Bastrop,55.38,97.52,68.04,117.93,283.5,Single-ply,SBD,M
Boys,55.79,9,Michael Gonzales,San Antonio Memorial,53.16,83.91,45.36,127.01,256.28,Single-ply,SBD,M
Boys,59.87,1,Kevin Hernandez,Floresville,58.79,161.03,92.99,172.37,426.38,Single-ply,SBD,M
Boys,59.87,2,Luke Torres,Devine,58.42,158.76,92.99,172.37,424.11,Single-ply,SBD,M
Boys,59.87,3,Jacob Gonzales,Floresville,59.02,163.29,88.45,161.03,412.77,Single-ply,SBD,M
Boys,59.87,4,Maverick Graham,Lytle,56.88,151.95,81.65,163.29,396.89,Single-ply,SBD,M
Boys,59.87,5,Seth Aguinaga,Lytle,55.86,127.01,70.31,154.22,351.53,Single-ply,SBD,M
Boys,59.87,6,Sutton Lindsley,Bastrop,56.25,92.99,90.72,115.67,299.37,Single-ply,SBD,M
Boys,59.87,7,David Elizondo,Castroville Medina Valley,59.87,104.33,49.9,129.27,283.5,Single-ply,SBD,M
Boys,59.87,8,Hunter Young,Marion,58.69,79.38,79.38,95.25,254.01,Single-ply,SBD,M
Boys,59.87,DQ,Christian Anguiano,San Antonio Kennedy,59.87,,,,,Single-ply,SBD,M
Boys,59.87,DQ,Tristan Lowery,Lytle,59.87,,,,,Single-ply,SBD,M
Boys,59.87,DQ,Kevin Valdez,Castroville Medina Valley,57.06,97.52,,,,Single-ply,SBD,M
Boys,67.13,1,Josue Tobias,Laredo Nixon,65.82,231.33,136.08,240.4,607.81,Single-ply,SBD,M
Boys,67.13,2,Domingo Zapata,Somerset,64.47,224.53,142.88,183.7,551.11,Single-ply,SBD,M
Boys,67.13,3,Luis Perales,Carrizo Springs,66.32,204.12,124.74,199.58,528.44,Single-ply,SBD,M
Boys,67.13,4,Aaron Realme,Pearsall,66.95,204.12,99.79,208.65,512.56,Single-ply,SBD,M
Boys,67.13,5,Arturo Yturte,Somerset,66.74,204.12,106.59,190.51,501.22,Single-ply,SBD,M
Boys,67.13,6,Dustin Torres,Beeville Jones,65.68,199.58,111.13,183.7,494.42,Single-ply,SBD,M
Boys,67.13,7,Justin Clifton,Beeville Jones,65.05,190.51,90.72,204.12,485.34,Single-ply,SBD,M
Boys,67.13,8,Rodney Garcia,Carrizo Springs,60.42,183.7,97.52,185.97,467.2,Single-ply,SBD,M
Boys,67.13,9,Brandon Batot,Bastrop,65.68,185.97,92.99,188.24,467.2,Single-ply,SBD,M
Boys,67.13,10,Stephen Garza,Lytle,63.09,156.49,92.99,185.97,435.45,Single-ply,SBD,M
Boys,67.13,11,Steven Ramirez,Devine,65.23,163.29,102.06,170.1,435.45,Single-ply,SBD,M
Boys,67.13,12,Miguel Luna,Laredo Johnson,61.3,156.49,92.99,170.1,419.57,Single-ply,SBD,M
Boys,67.13,13,Jose Fargason,Devine,64.92,147.42,86.18,185.97,419.57,Single-ply,SBD,M
Boys,67.13,14,Jackie Pang,Brackettville Brackett,64.41,151.95,86.18,161.03,399.16,Single-ply,SBD,M
Boys,67.13,15,Felix Ruiz,Laredo Nixon,65.82,147.42,88.45,151.95,387.82,Single-ply,SBD,M
Boys,67.13,16,Garrett Ralph,Lytle,67,131.54,81.65,147.42,360.61,Single-ply,SBD,M
Boys,67.13,17,David Ortega,Lytle,64.14,117.93,74.84,165.56,358.34,Single-ply,SBD,M
Boys,67.13,18,Josh Pawlik,Pearsall,64.59,124.74,68.04,165.56,358.34,Single-ply,SBD,M
Boys,67.13,19,Joey Cardenas,Carrizo Springs,66.13,115.67,68.04,151.95,335.66,Single-ply,SBD,M
Boys,67.13,20,Paul Palanco,Marion,63.96,108.86,68.04,142.88,319.78,Single-ply,SBD,M
Boys,67.13,21,Sean Payne,Bastrop,65.82,115.67,81.65,115.67,312.98,Single-ply,SBD,M
Boys,67.13,22,Blake Bentley,Pearsall,67.13,127.01,70.31,115.67,312.98,Single-ply,SBD,M
Boys,67.13,23,Jeremy Martinez,Castroville Medina Valley,65.82,90.72,52.16,127.01,269.89,Single-ply,SBD,M
Boys,67.13,DQ,Chase Dubose,Devine,67.13,,,,,Single-ply,SBD,M
Boys,67.13,DQ,Juan Medina,Floresville,67.13,,,,,Single-ply,SBD,M
Boys,67.13,DQ,Seth Galindo,Floresville,67.13,,,,,Single-ply,SBD,M
Boys,67.13,DQ,Josepho Lozano,Laredo Nixon,66.13,147.42,,,,Single-ply,SBD,M
Boys,74.84,1,Brandon Rios,Somerset,73.21,210.92,131.54,240.4,582.87,Single-ply,SBD,M
Boys,74.84,2,Anthony Estrada,Somerset,73.08,231.33,104.33,226.8,562.45,Single-ply,SBD,M
Boys,74.84,3,Ivan Fernandez,Castroville Medina Valley,72.17,206.38,124.74,215.46,546.58,Single-ply,SBD,M
Boys,74.84,4,Edward Luna,San Antonio East Central,74.39,204.12,106.59,233.6,544.31,Single-ply,SBD,M
Boys,74.84,5,Nick Gonzales,Floresville,73.12,197.31,124.74,219.99,542.04,Single-ply,SBD,M
Boys,74.84,6,Joseph Moreno,San Antonio East Central,74.48,222.26,122.47,197.31,542.04,Single-ply,SBD,M
Boys,74.84,7,Derrick Carroll,Beeville Jones,73.21,206.38,108.86,210.92,526.17,Single-ply,SBD,M
Boys,74.84,8,Patrick Prieto,Beeville Jones,71.67,201.85,113.4,199.58,514.83,Single-ply,SBD,M
Boys,74.84,9,Sergio Villarreal,Castroville Medina Valley,72.3,179.17,111.13,199.58,489.88,Single-ply,SBD,M
Boys,74.84,10,Michael Rios,San Antonio East Central,69.44,190.51,102.06,190.51,483.08,Single-ply,SBD,M
Boys,74.84,11,Josh Herrera,Floresville,70.4,190.51,108.86,183.7,483.08,Single-ply,SBD,M
Boys,74.84,12,John Reyes,Pearsall,73.54,138.35,106.59,235.87,480.81,Single-ply,SBD,M
Boys,74.84,13,Lucas Byrd,Devine,71.76,181.44,99.79,188.24,469.47,Single-ply,SBD,M
Boys,74.84,14,Ramiro Flores,Brackettville Brackett,71.67,172.37,106.59,183.7,462.66,Single-ply,SBD,M
Boys,74.84,15,Abel Carrasco,San Antonio Southwest,74.3,183.7,97.52,170.1,451.32,Single-ply,SBD,M
Boys,74.84,16,Mike Patronis,Del Rio,74,145.15,102.06,192.78,439.98,Single-ply,SBD,M
Boys,74.84,17,Dylan Delgago,Somerset,71.72,147.42,106.59,183.7,437.72,Single-ply,SBD,M
Boys,74.84,18,Eric Gonzales #2,Carrizo Springs,71.71,154.22,92.99,185.97,433.18,Single-ply,SBD,M
Boys,74.84,19,Palmerin Jesus,Laredo Nixon,73.07,151.95,97.52,183.7,433.18,Single-ply,SBD,M
Boys,74.84,20,Christino Garcia,San Antonio Kennedy,70.81,149.69,97.52,183.7,430.91,Single-ply,SBD,M
Boys,74.84,21,Angel Jaso,Brackettville Brackett,72.18,165.56,102.06,156.49,424.11,Single-ply,SBD,M
Boys,74.84,22,Frankie Mendez,Carrizo Springs,69.67,151.95,95.25,170.1,417.3,Single-ply,SBD,M
Boys,74.84,23,Albert Garcia,Laredo Johnson,68.1,165.56,92.99,154.22,412.77,Single-ply,SBD,M
Boys,74.84,24,Joseph Martinez,Somerset,72.76,147.42,83.91,167.83,399.16,Single-ply,SBD,M
Boys,74.84,25,Abel Flores,Somerset,69.49,142.88,92.99,149.69,385.55,Single-ply,SBD,M
Boys,74.84,26,Dylan Kucera,Brackettville Brackett,68.99,142.88,83.91,151.95,378.75,Single-ply,SBD,M
Boys,74.84,27,Robert Turner,Castroville Medina Valley,72.17,136.08,61.23,170.1,367.41,Single-ply,SBD,M
Boys,74.84,28,Jarrett Wallen,Marion,69.04,120.2,79.38,147.42,347,Single-ply,SBD,M
Boys,74.84,29,Jeremiah Munoz,Uvalde,68.49,95.25,58.97,136.08,290.3,Single-ply,SBD,M
Boys,74.84,30,Eloy Barrere,Uvalde,71.4,97.52,54.43,90.72,242.67,Single-ply,SBD,M
Boys,74.84,DQ,Nakia Gibens,Lytle,73.3,,,,,Single-ply,SBD,M
Boys,74.84,DQ,Rene Cabrerra,Laredo Cigarroa,70.81,,,,,Single-ply,SBD,M
Boys,74.84,DQ,Ricky Gomez,Laredo Nixon,69.9,,,,,Single-ply,SBD,M
Boys,74.84,DQ,Hayden Burwell,Devine,74.84,,,,,Single-ply,SBD,M
Boys,74.84,DQ,Noah Brogdon,Devine,74.84,,,,,Single-ply,SBD,M
Boys,82.1,1,Isaiah Garza,Somerset,79.9,219.99,142.88,254.01,616.89,Single-ply,SBD,M
Boys,82.1,2,Chris Madrigal,Beeville Jones,77.56,229.06,142.88,235.87,607.81,Single-ply,SBD,M
Boys,82.1,3,Nick Galvan,Beeville Jones,80.38,226.8,142.88,224.53,594.21,Single-ply,SBD,M
Boys,82.1,4,Tommy Williams,San Antonio East Central,79.29,208.65,122.47,226.8,557.92,Single-ply,SBD,M
Boys,82.1,5,Nick Talamantez,San Antonio Southwest,79.56,204.12,142.88,192.78,539.77,Single-ply,SBD,M
Boys,82.1,6,Dalton Thomas,Bastrop,78.74,208.65,111.13,208.65,528.44,Single-ply,SBD,M
Boys,82.1,7,Richard Villarreal,San Antonio East Central,78.02,204.12,111.13,201.85,517.1,Single-ply,SBD,M
Boys,82.1,8,Matthew Embers,Carrizo Springs,78.53,195.04,115.67,192.78,503.49,Single-ply,SBD,M
Boys,82.1,9,Elliot Ramirez,San Antonio Memorial,78.83,188.24,124.74,185.97,498.95,Single-ply,SBD,M
Boys,82.1,10,Darwin Naguit,San Antonio Southwest,78.47,174.63,113.4,199.58,487.61,Single-ply,SBD,M
Boys,82.1,11,Nathan Zambrana,San Antonio Southwest,76.29,183.7,104.33,190.51,478.54,Single-ply,SBD,M
Boys,82.1,12,Manny Arguijo,Del Rio,76.75,176.9,106.59,181.44,464.93,Single-ply,SBD,M
Boys,82.1,13,Demetrius Brown,San Antonio Memorial,80.56,167.83,92.99,174.63,435.45,Single-ply,SBD,M
Boys,82.1,14,Oscar Monroy,Laredo Nixon,80.56,154.22,99.79,170.1,424.11,Single-ply,SBD,M
Boys,82.1,15,Reagan Brown,Devine,79.47,142.88,106.59,142.88,392.36,Single-ply,SBD,M
Boys,82.1,16,Noal Leal,Pearsall,80.29,165.56,72.57,147.42,385.55,Single-ply,SBD,M
Boys,82.1,17,Raul Solis,Laredo Cigarroa,79.44,142.88,86.18,154.22,383.29,Single-ply,SBD,M
Boys,82.1,18,Tucker Walters,Marion,81.71,142.88,83.91,156.49,383.29,Single-ply,SBD,M
Boys,82.1,19,Victor Galvan,San Antonio Memorial,81.56,142.88,74.84,142.88,360.61,Single-ply,SBD,M
Boys,82.1,20,Richard Andrade,Castroville Medina Valley,77.16,113.4,83.91,154.22,351.53,Single-ply,SBD,M
Boys,82.1,21,Ritchie San Miguel,Pearsall,78.97,124.74,68.04,149.69,342.46,Single-ply,SBD,M
Boys,82.1,22,Lorenzo Comacho,Uvalde,78.53,70.31,58.97,97.52,226.8,Single-ply,SBD,M
Boys,82.1,DQ,Storm Brown,Floresville,82.1,,,,,Single-ply,SBD,M
Boys,82.1,DQ,Joseph Quintinilla,Floresville,82.1,,,,,Single-ply,SBD,M
Boys,82.1,DQ,Isaac Corral,San Antonio Southwest,82.1,,,,,Single-ply,SBD,M
Boys,82.1,DQ,Leo Benavides,Laredo Johnson,78.65,213.19,111.13,,,Single-ply,SBD,M
Boys,82.1,DQ,Isaac Santos,Castroville Medina Valley,80.47,,,,,Single-ply,SBD,M
Boys,82.1,DQ,Jaedon McGee,Bastrop,77.93,,,,,Single-ply,SBD,M
Boys,89.81,1,David Luna,Laredo Johnson,88.27,290.3,158.76,254.01,703.07,Single-ply,SBD,M
Boys,89.81,2,Rudy Casarez,Beeville Jones,87.15,235.87,142.88,226.8,605.55,Single-ply,SBD,M
Boys,89.81,3,Brandon Atnipp,Del Rio,82.74,206.38,154.22,238.14,598.74,Single-ply,SBD,M
Boys,89.81,4,Efrain Sanchez,San Antonio Southwest,84.87,242.67,127.01,208.65,578.33,Single-ply,SBD,M
Boys,89.81,5,Hagen Brown,Floresville,88.36,222.26,133.81,222.26,578.33,Single-ply,SBD,M
Boys,89.81,6,Jacob Thomas,Floresville,87.59,226.8,131.54,190.51,548.85,Single-ply,SBD,M
Boys,89.81,7,Mateo Garcia,San Antonio Memorial,88.96,201.85,127.01,206.38,535.24,Single-ply,SBD,M
Boys,89.81,8,Mario Mendez,Carrizo Springs,86.7,201.85,129.27,195.04,526.17,Single-ply,SBD,M
Boys,89.81,9,Noe Salazar,Bastrop,88.54,206.38,106.59,210.92,523.9,Single-ply,SBD,M
Boys,89.81,10,Ryan Perry,Bastrop,86.23,181.44,129.27,210.92,521.63,Single-ply,SBD,M
Boys,89.81,11,Anthony Aldaco,Brackettville Brackett,84.46,201.85,117.93,174.63,494.42,Single-ply,SBD,M
Boys,89.81,12,Abel Villarreal,Somerset,88.05,190.51,88.45,197.31,476.27,Single-ply,SBD,M
Boys,89.81,13,Austin Felan,Devine,88.06,183.7,131.54,161.03,476.27,Single-ply,SBD,M
Boys,89.81,14,Julio Reyes,Del Rio,87.36,188.24,102.06,181.44,471.74,Single-ply,SBD,M
Boys,89.81,15,Rene Gutierrez,San Antonio Memorial,84.91,176.9,95.25,188.24,460.4,Single-ply,SBD,M
Boys,89.81,16,Abel Hernandez,Del Rio,88.99,161.03,117.93,176.9,455.86,Single-ply,SBD,M
Boys,89.81,17,Ruben Pimentel,San Antonio Memorial,85.46,156.49,122.47,174.63,453.59,Single-ply,SBD,M
Boys,89.81,18,Jacob Doerr,Marion,88.04,154.22,99.79,172.37,426.38,Single-ply,SBD,M
Boys,89.81,19,Jose Rodriquez,Del Rio,87.82,147.42,90.72,176.9,415.04,Single-ply,SBD,M
Boys,89.81,20,Michael Uriegas,San Antonio Kennedy,86.73,124.74,86.18,149.69,360.61,Single-ply,SBD,M
Boys,89.81,21,Tanner Hardcastle,Devine,83.52,124.74,74.84,129.27,328.85,Single-ply,SBD,M
Boys,89.81,DQ,Kage Armstrong,Marion,89.81,,,,,Single-ply,SBD,M
Boys,89.81,DQ,Meme Moreno,Somerset,86.09,,,,,Single-ply,SBD,M
Boys,89.81,DQ,Josh Montez,San Antonio Southwest,82.92,192.78,,,,Single-ply,SBD,M
Boys,89.81,DQ,Joseph Bune,Somerset,89.09,,,,,Single-ply,SBD,M
Boys,89.81,DQ,Josh Alderete,Uvalde,88.9,,,,,Single-ply,SBD,M
Boys,89.81,DQ,Josh Roberts,Floresville,88,,,,,Single-ply,SBD,M
Boys,89.81,DQ,Dominic Rodriguez,Laredo Johnson,85.46,,,,,Single-ply,SBD,M
Boys,89.81,DQ,Ernie Rangel,Castroville Medina Valley,82.55,142.88,70.31,,,Single-ply,SBD,M
Boys,99.79,1,Aaron Puga,Beeville Jones,97.16,281.23,142.88,240.4,664.51,Single-ply,SBD,M
Boys,99.79,2,Jonathan Darby,Lytle,95.98,254.01,142.88,256.28,653.17,Single-ply,SBD,M
Boys,99.79,3,Eli Rejino,Devine,98.43,226.8,158.76,210.92,596.47,Single-ply,SBD,M
Boys,99.79,4,Mark Sustaita,Castroville Medina Valley,90.81,229.06,142.88,210.92,582.87,Single-ply,SBD,M
Boys,99.79,5,Victor Lozano,Laredo Nixon,92.44,231.33,120.2,199.58,551.11,Single-ply,SBD,M
Boys,99.79,6,Brandon Cotton,San Antonio Southwest,90.99,217.72,124.74,190.51,532.97,Single-ply,SBD,M
Boys,99.79,7,Cole Doerr,Marion,93.49,192.78,124.74,204.12,521.63,Single-ply,SBD,M
Boys,99.79,8,Josh Duran,Marion,91.81,183.7,115.67,213.19,512.56,Single-ply,SBD,M
Boys,99.79,9,Manny Valverde,San Antonio Memorial,96.21,190.51,133.81,183.7,508.02,Single-ply,SBD,M
Boys,99.79,10,Ryan Bechtel,Marion,99.79,190.51,92.99,210.92,494.42,Single-ply,SBD,M
Boys,99.79,11,George Perez,Somerset,96.62,170.1,117.93,183.7,471.74,Single-ply,SBD,M
Boys,99.79,12,Joshua Cuevas,Pearsall,91.68,172.37,104.33,192.78,469.47,Single-ply,SBD,M
Boys,99.79,13,Jose Mendoza,Del Rio,95.75,170.1,108.86,174.63,453.59,Single-ply,SBD,M
Boys,99.79,14,Gabino Barrera,Del Rio,91.9,172.37,117.93,154.22,444.52,Single-ply,SBD,M
Boys,99.79,15,Francisco Duran,Marion,92.58,161.03,97.52,179.17,437.72,Single-ply,SBD,M
Boys,99.79,16,Jose Luis Llanas,Brackettville Brackett,96.25,170.1,83.91,174.63,428.64,Single-ply,SBD,M
Boys,99.79,17,Dizon Rodriguez,Del Rio,92.26,151.95,92.99,170.1,415.04,Single-ply,SBD,M
Boys,99.79,18,Dylan Lutz,Hondo,97.16,165.56,90.72,149.69,405.97,Single-ply,SBD,M
Boys,99.79,19,Elias Rios,Hondo,97.52,149.69,79.38,158.76,387.82,Single-ply,SBD,M
Boys,99.79,DQ,Hugo Zamora,Laredo Cigarroa,94.08,,,,,Single-ply,SBD,M
Boys,99.79,DQ,Hector Cruz,Brackettville Brackett,99.79,,,,,Single-ply,SBD,M
Boys,99.79,DQ,Ezequiel Carreon,San Antonio Kennedy,99.79,,,,,Single-ply,SBD,M
Boys,99.79,DQ,Maunel Cruz,San Antonio Kennedy,99.79,,,,,Single-ply,SBD,M
Boys,99.79,DQ,Bridger Netting,Castroville Medina Valley,97.11,,,,,Single-ply,SBD,M
Boys,99.79,DQ,Daniel Uribe,Laredo Johnson,99.79,,,,,Single-ply,SBD,M
Boys,109.77,1,David Smith,Beeville Jones,103.78,226.8,149.69,215.46,591.94,Single-ply,SBD,M
Boys,109.77,2,Brian Hernandez,Brackettville Brackett,105.51,238.14,120.2,192.78,551.11,Single-ply,SBD,M
Boys,109.77,3,Jeffrey Perez,Beeville Jones,107.11,235.87,113.4,183.7,532.97,Single-ply,SBD,M
Boys,109.77,4,James Durano,San Antonio Southwest,106.5,233.6,102.06,192.78,528.44,Single-ply,SBD,M
Boys,109.77,5,Tyrone Wilson,Bastrop,107.56,197.31,127.01,204.12,528.44,Single-ply,SBD,M
Boys,109.77,6,Abel Mendoza,Laredo Nixon,106.59,208.65,127.01,188.24,523.9,Single-ply,SBD,M
Boys,109.77,7,Nicholas Perez,San Antonio East Central,102.56,179.17,149.69,192.78,521.63,Single-ply,SBD,M
Boys,109.77,8,Adan Rodriquez,Brackettville Brackett,99.85,183.7,129.27,201.85,514.83,Single-ply,SBD,M
Boys,109.77,9,Mando Veliz,Del Rio,107.56,192.78,108.86,183.7,485.34,Single-ply,SBD,M
Boys,109.77,10,Gabriel Martinez,San Antonio East Central,106.96,192.78,117.93,170.1,480.81,Single-ply,SBD,M
Boys,109.77,11,Adrain Casso,Laredo Johnson,104.83,206.38,81.65,190.51,478.54,Single-ply,SBD,M
Boys,109.77,12,Fermin Cruz,San Antonio Memorial,100.15,151.95,92.99,167.83,412.77,Single-ply,SBD,M
Boys,109.77,13,Christian Wallace,Castroville Medina Valley,108.77,151.95,95.25,158.76,405.97,Single-ply,SBD,M
Boys,109.77,14,Jonah Barrow,Castroville Medina Valley,109.77,147.42,86.18,129.27,362.87,Single-ply,SBD,M
Boys,109.77,DQ,Ricardo Rivas,Brackettville Brackett,109.77,,,,,Single-ply,SBD,M
Boys,109.77,DQ,Andrew Romero,San Antonio Kennedy,109.77,,,,,Single-ply,SBD,M
Boys,109.77,DQ,Victor Garcia,Lytle,109.77,,,,,Single-ply,SBD,M
Boys,109.77,DQ,Guillermo Perez,Laredo Johnson,100.33,,,,,Single-ply,SBD,M
Boys,109.77,DQ,Eddie Moreno,Somerset,108,,,,,Single-ply,SBD,M
Boys,124.74,1,James Woods,Somerset,117.84,328.85,174.63,272.16,775.64,Single-ply,SBD,M
Boys,124.74,2,Austin Soto,Devine,119.48,274.42,206.38,226.8,707.6,Single-ply,SBD,M
Boys,124.74,3,Adrian Acevedo,Beeville Jones,116.66,247.21,142.88,258.55,648.64,Single-ply,SBD,M
Boys,124.74,4,Francisco Torrecilla,Laredo Nixon,117.3,235.87,140.61,258.55,635.03,Single-ply,SBD,M
Boys,124.74,5,Justin Hoffman,Bastrop,117.75,238.14,170.1,210.92,619.15,Single-ply,SBD,M
Boys,124.74,6,Matthew Castro,Carrizo Springs,122.06,240.4,127.01,229.06,596.47,Single-ply,SBD,M
Boys,124.74,7,Reynaldo Martinez,Laredo Johnson,123.74,213.19,161.03,217.72,591.94,Single-ply,SBD,M
Boys,124.74,8,Jorge Flores,San Antonio Memorial,111.49,240.4,108.86,231.33,580.6,Single-ply,SBD,M
Boys,124.74,9,Bryce Long,San Antonio East Central,115.94,213.19,142.88,217.72,573.79,Single-ply,SBD,M
Boys,124.74,10,Migel Garcia,Uvalde,117.98,192.78,133.81,226.8,553.38,Single-ply,SBD,M
Boys,124.74,11,Nathan Pearson,Brackettville Brackett,123.47,208.65,124.74,215.46,548.85,Single-ply,SBD,M
Boys,124.74,12,Javier Gallego,Del Rio,122.74,204.12,120.2,192.78,517.1,Single-ply,SBD,M
Boys,124.74,13,John Goode,Bastrop,116.17,204.12,97.52,206.38,508.02,Single-ply,SBD,M
Boys,124.74,14,Jordan Shedrock,San Antonio East Central,113,210.92,136.08,147.42,494.42,Single-ply,SBD,M
Boys,124.74,15,Elijah Amaro,San Antonio Southwest,118.9,181.44,138.35,174.63,494.42,Single-ply,SBD,M
Boys,124.74,16,Dylan Carroll,Castroville Medina Valley,116.94,172.37,115.67,185.97,474,Single-ply,SBD,M
Boys,124.74,17,Christian Arredondo,Devine,112.55,163.29,124.74,149.69,437.72,Single-ply,SBD,M
Boys,124.74,18,Abe Hinojosa,Del Rio,116.63,156.49,81.65,179.17,417.3,Single-ply,SBD,M
Boys,124.74,19,Kevin Deltorro,San Antonio Kennedy,117.98,138.35,77.11,185.97,401.43,Single-ply,SBD,M
Boys,124.74,20,Louis Rico,Somerset,122.83,136.08,106.59,136.08,378.75,Single-ply,SBD,M
Boys,124.74,21,Ethan Rodriquez,Pearsall,110.22,147.42,77.11,149.69,374.21,Single-ply,SBD,M
Boys,124.74,DQ,Benjamin Arriaga,San Antonio Memorial,124.74,,,,,Single-ply,SBD,M
Boys,124.74,DQ,Jose Martinez,Del Rio,124.74,,,,,Single-ply,SBD,M
Boys,124.74,DQ,Jacob Reyna,Laredo Cigarroa,124.74,,,,,Single-ply,SBD,M
Boys,124.74,DQ,Jorge Gutierrez,Laredo Cigarroa,124.74,,,,,Single-ply,SBD,M
Boys,124.74,DQ,Josh Martinez,San Antonio Southwest,124.74,,,,,Single-ply,SBD,M
Boys,124.74,DQ,Xavier Coronado,San Antonio Southwest,115.26,217.72,117.93,,,Single-ply,SBD,M
Boys,124.74,DQ,Eric Lopez,San Antonio Kennedy,124.1,,,,,Single-ply,SBD,M
Boys,124.74,DQ,Marcos Gomez,Pearsall,113.13,,,,,Single-ply,SBD,M
Boys,124.74+,1,Chris Cobb,Somerset,147.92,258.55,154.22,210.92,623.69,Single-ply,SBD,M
Boys,124.74+,2,Odie De La Rosa,Castroville Medina Valley,143.43,240.4,158.76,219.99,619.15,Single-ply,SBD,M
Boys,124.74+,3,Javier De Leon,Somerset,146.24,281.23,147.42,181.44,610.08,Single-ply,SBD,M
Boys,124.74+,4,Mike Kessler,Castroville Medina Valley,144.29,251.74,136.08,217.72,605.55,Single-ply,SBD,M
Boys,124.74+,5,Tino Torres,Carrizo Springs,126.92,235.87,158.76,183.7,578.33,Single-ply,SBD,M
Boys,124.74+,6,Luis Barron,Laredo Johnson,132.95,204.12,111.13,190.51,505.76,Single-ply,SBD,M
Boys,124.74+,7,Sebastian Ramirez,Somerset,133.87,174.63,133.81,195.04,503.49,Single-ply,SBD,M
Boys,124.74+,8,Jacob Hernandez,San Antonio Memorial,143.38,170.1,136.08,188.24,494.42,Single-ply,SBD,M
Boys,124.74+,9,Joseph Rodriquez,Del Rio,142.5,142.88,111.13,199.58,453.59,Single-ply,SBD,M
Boys,124.74+,10,Adrian Ramirez,Laredo Cigarroa,130.27,154.22,83.91,181.44,419.57,Single-ply,SBD,M
Boys,124.74+,11,Isaiah Reyna,Somerset,141.88,172.37,72.57,174.63,419.57,Single-ply,SBD,M
Boys,124.74+,DQ,Luis Cantu,Hondo,126.55,,,,,Single-ply,SBD,M
Boys,124.74+,DQ,Juan Vieyra,Laredo Johnson,142.16,204.12,127.01,,,Single-ply,SBD,M
Boys,124.74+,DQ,Moses Flores,Castroville Medina Valley,129.32,,,,,Single-ply,SBD,M
Boys,124.74+,DQ,Rene Loya,Bastrop,131.13,247.21,,,,Single-ply,SBD,M
