Place,Name,State,WeightClassKg,BodyweightKg,Age,Best3SquatKg,Best3BenchKg,Best3DeadliftKg,TotalKg,Sex,Division,Equipment,Event
1,Kate Baker,OH,60,56.6,22,102.5,55,122.5,280,F,Juniors 20-23,Raw,SBD
1,Kimberly Markov,OH,75,73.1,19,130,50,137.5,317.5,F,Juniors 18-19,Raw,SBD
DQ,Valerie Musinde,OH,90,87.6,23,,42.5,137.5,,F,Juniors 20-23,Raw,SBD
1,Ashley Rickard,IN,60,59.1,28,120,70,137.5,327.5,F,Open,Raw,SBD
2,Kate Baker,OH,60,56.6,22,102.5,55,122.5,280,F,Open,Raw,SBD
1,Sade Smith,OH,67.5,66.7,31,72.5,50,107.5,230,F,Open,Raw,SBD
1,Christina Bangma,IN,75,73.2,33,142.5,97.5,175,415,F,Open,Raw,SBD
2,Jessica Durden,KY,75,71.7,29,117.5,60,147.5,325,F,Open,Raw,SBD
1,Keriann Marcum,IN,90,82.6,24,117.5,90,162.5,370,F,Open,Raw,SBD
1,Amber Simpkins,OH,90+,93.2,33,202.5,132.5,210,545,F,Open,Raw,SBD
1,Shane Meehan,IN,67.5,66.6,14,120,67.5,152.5,340,M,Juniors 13-15,Raw,SBD
1,Chris Jones #8,OH,67.5,62.4,17,137.5,85,162.5,385,M,Juniors 16-17,Raw,SBD
1,Kong Vorachack,IN,67.5,65.3,22,120,102.5,150,372.5,M,Juniors 20-23,Raw,SBD
2,Jonathan Gray,OH,67.5,61.5,20,112.5,62.5,145,320,M,Juniors 20-23,Raw,SBD
1,Nick Baradgie,PA,75,74.4,20,187.5,110,210,507.5,M,Juniors 20-23,Raw,SBD
1,Patrick Ledenko,OH,82.5,79.7,18,150,90,185,425,M,Juniors 18-19,Raw,SBD
1,Charles Murray,IN,82.5,80.5,23,237.5,175,270,682.5,M,Juniors 20-23,Raw,SBD
2,Thor Fifer,IN,82.5,82.5,21,192.5,135,245,572.5,M,Juniors 20-23,Raw,SBD
3,Cameron O'Neill,OH,82.5,79.6,20,172.5,102.5,192.5,467.5,M,Juniors 20-23,Raw,SBD
1,Ryon Foubert,OH,90,84.7,15,137.5,92.5,190,420,M,Juniors 13-15,Raw,SBD
1,Jacob Clay,OH,90,88.7,20,187.5,125,230,542.5,M,Juniors 20-23,Raw,SBD
2,Beau Bryant,IN,90,87.8,20,185,130,62.5,377.5,M,Juniors 20-23,Raw,SBD
1,Jaykeb Thorp,IN,100,97.8,19,230,175,257.5,662.5,M,Juniors 18-19,Raw,SBD
1,Danny Fenker,OH,110,105.4,23,240,165,260,665,M,Juniors 20-23,Raw,SBD
1,Charles Murray,IN,82.5,80.5,23,237.5,175,270,682.5,M,Open,Raw,SBD
2,Tyler Purcell,OH,82.5,79.6,29,220,142.5,245,607.5,M,Open,Raw,SBD
3,Joshua Beeler,IN,82.5,80.6,35,195,145,250,590,M,Open,Raw,SBD
4,Travis Keeling,OH,82.5,81.1,22,212.5,147.5,230,590,M,Open,Raw,SBD
5,Thor Fifer,IN,82.5,82.5,21,192.5,135,245,572.5,M,Open,Raw,SBD
6,Brent Fifer,IN,82.5,82.5,27,192.5,150,220,562.5,M,Open,Raw,SBD
7,Josh Davis,IN,82.5,82.2,32,202.5,95,225,522.5,M,Open,Raw,SBD
8,Cameron O'Neill,OH,82.5,79.6,20,172.5,102.5,192.5,467.5,M,Open,Raw,SBD
9,Brandon Shields,OH,82.5,78.3,27,135,102.5,205,442.5,M,Open,Raw,SBD
1,Durane Harris,IN,90,87.6,29,205,125,252.5,582.5,M,Open,Raw,SBD
2,Jeremy Courtney,OH,90,88.4,47,175,130,205,510,M,Open,Raw,SBD
1,Jaykeb Thorp,IN,100,97.8,19,230,175,257.5,662.5,M,Open,Raw,SBD
2,Andrew Richardson,OH,100,91.9,26,172.5,135,227.5,535,M,Open,Raw,SBD
1,Kyle Kemp,OH,110,107.1,25,242.5,165,280,687.5,M,Open,Raw,SBD
2,Danny Fenker,OH,110,105.4,23,240,165,260,665,M,Open,Raw,SBD
3,Tyler Alexander,IN,110,107.5,50,237.5,127.5,245,610,M,Open,Raw,SBD
4,Phillip Carr,IN,110,108.9,29,215,165,230,610,M,Open,Raw,SBD
1,Jeremy Preston,IN,125,122.1,33,270,155,257.5,682.5,M,Open,Raw,SBD
2,Nate Mowery,IN,125,113.6,35,200,150,255,605,M,Open,Raw,SBD
1,Brandon Collins,IN,90,88.3,39,247.5,132.5,270,650,M,Submasters 35-39,Raw,SBD
2,Durane Harris,IN,90,87.6,29,205,125,252.5,582.5,M,Submasters 35-39,Raw,SBD
1,Jeremy Courtney,OH,90,88.4,47,175,130,205,510,M,Masters 45-49,Raw,SBD
1,Brett Deeds,OH,110,107,47,202.5,162.5,210,575,M,Masters 45-49,Raw,SBD
2,David Rohlinger,OH,110,107.8,48,142.5,140,220,502.5,M,Masters 45-49,Raw,SBD
3,George Heine,OH,110,100.8,49,185,117.5,197.5,500,M,Masters 45-49,Raw,SBD
1,Tyler Alexander,IN,110,107.5,50,237.5,127.5,245,610,M,Masters 50-54,Raw,SBD
1,Mark Meibers,OH,125,115.5,43,165,125,195,485,M,Masters 40-44,Raw,SBD
1,Lexie Enmark,OH,67.5,67.1,25,160,80,160,400,F,Open,Wraps,SBD
2,Tina Kinsley,MI,67.5,66.1,49,127.5,65,150,342.5,F,Open,Wraps,SBD
1,Tina Kinsley,MI,67.5,66.1,49,127.5,65,150,342.5,F,Masters 45-49,Wraps,SBD
DQ,Dylan McDaniel,IN,82.5,81.2,18,205,,,,M,Juniors 18-19,Wraps,SBD
1,Liam Bowser,IN,82.5,81.6,21,222.5,110,227.5,560,M,Juniors 20-23,Wraps,SBD
1,David Kitchen,OH,82.5,80,29,185,120,220,525,M,Open,Wraps,SBD
1,Josh Enmark,OH,90,88.1,26,287.5,197.5,277.5,762.5,M,Open,Wraps,SBD
2,Adrian Long,IN,90,88.6,28,260,180,242.5,682.5,M,Open,Wraps,SBD
1,Troy Harmer,OH,100,99.1,29,205,132.5,257.5,595,M,Open,Wraps,SBD
1,Adam Miller #4,OH,110,109.2,32,237.5,165,260,662.5,M,Open,Wraps,SBD
2,Joshua Livingston,WI,110,108.6,31,185,122.5,222.5,530,M,Open,Wraps,SBD
1,Angelo Turner,OH,140+,141.1,27,182.5,102.5,182.5,467.5,M,Open,Wraps,SBD
1,Sara Takacs,OH,90,89.4,22,182.5,117.5,145,445,F,Open,Single-ply,SBD
1,Erik Simms,KY,125,120.4,39,245,217.5,225,687.5,M,Submasters 35-39,Single-ply,SBD
1,Sade Smith,OH,67.5,66.7,31,,50,,50,F,Open,Raw,B
1,Seth Woolwine,IN,110,106.7,20,,165,,165,M,Juniors 20-23,Raw,B
1,Darrell Hollon,OH,82.5,81.3,45,,117.5,,117.5,M,Masters 45-49,Raw,B
1,Bradley Collins,OH,100,95.2,46,,145,,145,M,Masters 45-49,Raw,B
