Division,WeightClassKg,Place,Name,Team,BodyweightKg,Best3SquatKg,Best3BenchKg,Best3DeadliftKg,TotalKg,Equipment,Event,Sex
Junior Varsity,51.71,1,Joel Rodriguez,Castroville Medina Valley,51.17,88.45,72.57,117.93,278.96,Single-ply,SBD,M
Junior Varsity,59.87,1,Michael Casarez,Three Rivers,55.93,149.69,65.77,165.56,381.02,Single-ply,SBD,M
Junior Varsity,59.87,2,Benito Flores,San Antonio Southside,56.02,124.74,65.77,138.35,328.85,Single-ply,SBD,M
Junior Varsity,59.87,1,Juan Gonzales,Alice,57.06,120.2,79.38,140.61,340.19,Single-ply,SBD,M
Junior Varsity,67.13,2,Nicholas Adame,Freer,60.06,115.67,70.31,138.35,324.32,Single-ply,SBD,M
Junior Varsity,59.87,3,Jose Garcia,Three Rivers,59.51,92.99,61.23,113.4,267.62,Single-ply,SBD,M
Junior Varsity,67.13,4,Patrick Torres,Ingleside,60.06,79.38,61.23,102.06,242.67,Single-ply,SBD,M
Junior Varsity,59.87,5,Charlie Johnston,Three Rivers,58.15,74.84,49.9,115.67,240.4,Single-ply,SBD,M
Junior Varsity,67.13,1,Kendall Williams,San Antonio Southside,64.14,151.95,88.45,165.56,405.97,Single-ply,SBD,M
Junior Varsity,67.13,2,Jacob Adame,Ingleside,63.78,158.76,97.52,145.15,401.43,Single-ply,SBD,M
Junior Varsity,67.13,3,Andrew Cavazos,Corpus Christi West Oso,65.5,154.22,72.57,158.76,385.55,Single-ply,SBD,M
Junior Varsity,67.13,4,Juan Avila,San Antonio Southside,64.41,136.08,77.11,158.76,371.95,Single-ply,SBD,M
Junior Varsity,67.13,5,Anthony Lee,Freer,65.68,117.93,77.11,138.35,333.39,Single-ply,SBD,M
Junior Varsity,74.84,6,Troyu Langlinais,Goliad,67.31,115.67,83.91,133.81,333.39,Single-ply,SBD,M
Junior Varsity,67.13,7,Trevor Horvath,Castroville Medina Valley,62.41,106.59,83.91,129.27,319.78,Single-ply,SBD,M
Junior Varsity,74.84,8,Zenon Sanchez,Three Rivers,67.22,127.01,61.23,124.74,312.98,Single-ply,SBD,M
Junior Varsity,67.13,9,Zach Solis,Alice,62.05,104.33,79.38,111.13,294.84,Single-ply,SBD,M
Junior Varsity,67.13,10,Chris Brasher,Runge,66.04,102.06,68.04,120.2,290.3,Single-ply,SBD,M
Junior Varsity,67.13,11,Joe Ryan Ren,Alice,60.87,97.52,63.5,115.67,276.69,Single-ply,SBD,M
Junior Varsity,67.13,12,Justin Vasquez,Runge,61.87,88.45,56.7,117.93,263.08,Single-ply,SBD,M
Junior Varsity,74.84,1,Adam Guerrero,George West,70.58,195.04,113.4,190.51,498.95,Single-ply,SBD,M
Junior Varsity,74.84,2,Javy Sosa,Pleasanton,68.95,170.1,104.33,151.95,426.38,Single-ply,SBD,M
Junior Varsity,82.1,3,Juan Ybanez,Freer,74.93,158.76,92.99,174.63,426.38,Single-ply,SBD,M
Junior Varsity,74.84,4,Tyler Vela,Riviera Kaufer,73.75,154.22,74.84,158.76,387.82,Single-ply,SBD,M
Junior Varsity,74.84,5,Julio Sosa,Pleasanton,72.48,156.49,77.11,117.93,351.53,Single-ply,SBD,M
Junior Varsity,74.84,6,Matthew Meave,Corpus Christi West Oso,67.86,142.88,68.04,131.54,342.46,Single-ply,SBD,M
Junior Varsity,82.1,7,Jamie Mendoza,Ingleside,75.02,124.74,70.31,145.15,340.19,Single-ply,SBD,M
Junior Varsity,74.84,8,Ryan Berger,Goliad,73.75,90.72,90.72,151.95,333.39,Single-ply,SBD,M
Junior Varsity,74.84,9,Jimmy DeLeon,Alice,68.4,104.33,79.38,104.33,288.03,Single-ply,SBD,M
Junior Varsity,74.84,10,Roddi Pulido,Alice,73.12,102.06,68.04,102.06,272.16,Single-ply,SBD,M
Junior Varsity,74.84,11,Greg Banda,Castroville Medina Valley,70.03,83.91,74.84,95.25,254.01,Single-ply,SBD,M
Junior Varsity,82.1,1,Jacob Muniz,Three Rivers,78.74,174.63,99.79,195.04,469.47,Single-ply,SBD,M
Junior Varsity,82.1,2,Danny Snodgrass,Ingleside,79.02,181.44,117.93,163.29,462.66,Single-ply,SBD,M
Junior Varsity,89.81,3,David Carvajal,George West,82.19,154.22,102.06,170.1,426.38,Single-ply,SBD,M
Junior Varsity,82.1,4,Logan Garza,Castroville Medina Valley,79.02,158.76,90.72,158.76,408.23,Single-ply,SBD,M
Junior Varsity,82.1,5,Leo Adams,Alice,78.56,142.88,111.13,149.69,403.7,Single-ply,SBD,M
Junior Varsity,82.1,6,Zac Qualls,Pleasanton,76.11,142.88,79.38,167.83,390.09,Single-ply,SBD,M
Junior Varsity,82.1,7,Juan Gutierrez,Alice,80.47,154.22,92.99,142.88,390.09,Single-ply,SBD,M
Junior Varsity,82.1,8,Justin Lozano,Ingleside,82.1,138.35,83.91,145.15,367.41,Single-ply,SBD,M
Junior Varsity,82.1,9,Calvert Cuacho,Goliad,79.38,136.08,79.38,124.74,340.19,Single-ply,SBD,M
Junior Varsity,82.1,10,Victor Pena,Pleasanton,78.83,111.13,65.77,158.76,335.66,Single-ply,SBD,M
Junior Varsity,82.1,11,Rey Castro,Goliad,75.57,113.4,81.65,133.81,328.85,Single-ply,SBD,M
Junior Varsity,82.1,12,Jesus Carrasco,Alice,77.11,122.47,63.5,129.27,315.25,Single-ply,SBD,M
Junior Varsity,89.81,1,Marco Balboa,Alice,88,181.44,102.06,183.7,467.2,Single-ply,SBD,M
Junior Varsity,89.81,2,Stephen Ramon,Pleasanton,88.45,136.08,74.84,161.03,371.95,Single-ply,SBD,M
Junior Varsity,89.81,3,Roger Alvarez,Runge,85.37,122.47,83.91,151.95,358.34,Single-ply,SBD,M
Junior Varsity,89.81,4,Mark Alvarez,Goliad,87.82,102.06,90.72,156.49,349.27,Single-ply,SBD,M
Junior Varsity,89.81,5,Tony Zapapta,Alice,87,136.08,79.38,131.54,347,Single-ply,SBD,M
Junior Varsity,89.81,6,Harold Rios,Runge,87.09,127.01,58.97,142.88,328.85,Single-ply,SBD,M
Junior Varsity,89.81,7,Adolph Lopez,San Antonio Southside,87.82,129.27,68.04,127.01,324.32,Single-ply,SBD,M
Junior Varsity,99.79,8,Nathan Morin,Three Rivers,89.95,102.06,79.38,142.88,324.32,Single-ply,SBD,M
Junior Varsity,99.79,1,Juan DeLeon,San Antonio Southside,94.08,183.7,77.11,176.9,437.72,Single-ply,SBD,M
Junior Varsity,99.79,2,Daniel Diaz,Three Rivers,90.22,165.56,92.99,151.95,410.5,Single-ply,SBD,M
Junior Varsity,99.79,3,Bryan Clesser,George West,91.99,149.69,102.06,147.42,399.16,Single-ply,SBD,M
Junior Varsity,99.79,4,Rene Soliz,Runge,93.44,106.59,81.65,131.54,319.78,Single-ply,SBD,M
Junior Varsity,109.77,1,Zac Brooks,Pleasanton,106.59,204.12,86.18,192.78,483.08,Single-ply,SBD,M
Junior Varsity,124.74,2,Brodie Ruiz,Three Rivers,109.86,174.63,102.06,170.1,446.79,Single-ply,SBD,M
Junior Varsity,109.77,3,Cordell Echols,Ingleside,102.06,163.29,102.06,151.95,417.3,Single-ply,SBD,M
Junior Varsity,109.77,4,Colton Landgrebe,Runge,103.69,99.79,88.45,142.88,331.12,Single-ply,SBD,M
Junior Varsity,124.74,1,John Cardosa,Goliad,114.94,133.81,95.25,147.42,376.48,Single-ply,SBD,M
Junior Varsity,124.74,2,Nicholas O'Bryant,Castroville Medina Valley,117.03,149.69,77.11,147.42,374.21,Single-ply,SBD,M
Junior Varsity,124.74,3,Aaron Frazier,Alice,112.67,120.2,74.84,120.2,315.25,Single-ply,SBD,M
Junior Varsity,124.74+,1,Landry Newport,Three Rivers,125.15,170.1,90.72,158.76,419.57,Single-ply,SBD,M
Junior Varsity,124.74+,2,Kevin Camacho,Goliad,128.82,142.88,97.52,142.88,383.29,Single-ply,SBD,M
Junior Varsity,124.74+,3,Adam Benavides,Alice,127.64,111.13,72.57,133.81,317.51,Single-ply,SBD,M
