Division,WeightClassKg,Place,Name,Team,BodyweightKg,Best3SquatKg,Best3BenchKg,Best3DeadliftKg,TotalKg,Equipment,Event,Sex
Girls,44.23,1,Valeria Ramirez,Sonora,44.09,102.06,45.36,102.06,249.48,Single-ply,SBD,F
Girls,44.23,2,Jessica Paredes,Sonora,43.73,90.72,38.56,83.91,213.19,Single-ply,SBD,F
Girls,44.23,3,Reagan Morris,Alpine,44.23,74.84,40.82,86.18,201.85,Single-ply,SBD,F
Girls,44.23,4,Lacee Gallegos,Big Lake Reagan County,40.82,63.5,24.95,83.91,172.37,Single-ply,SBD,F
Girls,44.23,DQ,Mariah De La Rosa,Crane,44.23,,34.02,72.57,,Single-ply,SBD,F
Girls,47.85,1,Bruna Sanchez,Big Lake Reagan County,44.54,90.72,36.29,102.06,229.06,Single-ply,SBD,F
Girls,51.94,1,Kali Mendez,Sonora,51.8,102.06,45.36,115.67,263.08,Single-ply,SBD,F
Girls,51.94,2,Abby Narvaez,Eldorado,50.89,102.06,54.43,104.33,260.82,Single-ply,SBD,F
Girls,51.94,3,Kenzie Cramer,Mertzon Irion County,50.8,99.79,38.56,97.52,235.87,Single-ply,SBD,F
Girls,56.02,1,Mattie Williams,Big Lake Reagan County,55.25,117.93,52.16,115.67,285.76,Single-ply,SBD,F
Girls,56.02,2,Annalisa Perez,Sonora,55.79,117.93,52.16,115.67,285.76,Single-ply,SBD,F
Girls,56.02,3,Katelan House,San Angelo Lake View,55.34,106.59,49.9,113.4,269.89,Single-ply,SBD,F
Girls,56.02,4,Sahian Valenzuela,Alpine,55.52,83.91,47.63,99.79,231.33,Single-ply,SBD,F
Girls,56.02,5,Taylor Snodgrass,Mertzon Irion County,56.02,88.45,38.56,83.91,210.92,Single-ply,SBD,F
Girls,56.02,6,Julie Marshall,Ozona,56.02,79.38,38.56,86.18,204.12,Single-ply,SBD,F
Girls,56.02,7,Laramy Rico,Mertzon Irion County,55.88,83.91,36.29,79.38,199.58,Single-ply,SBD,F
Girls,56.02,8,Morgan Raschke,San Angelo Central,52.44,61.23,34.02,65.77,161.03,Single-ply,SBD,F
Girls,60.1,1,Dulce Rodriguez,Ozona,59.15,106.59,43.09,104.33,254.01,Single-ply,SBD,F
Girls,60.1,2,Hunter Hernandez,San Angelo Lake View,58.51,102.06,49.9,97.52,249.48,Single-ply,SBD,F
Girls,60.1,3,Gina Butler,Alpine,56.88,83.91,45.36,99.79,229.06,Single-ply,SBD,F
Girls,60.1,4,Karyme Nunez,Alpine,60.1,79.38,43.09,92.99,215.46,Single-ply,SBD,F
Girls,60.1,5,Katie Creech,Big Lake Reagan County,56.25,92.99,31.75,86.18,210.92,Single-ply,SBD,F
Girls,60.1,6,Brigette Terrian,McCamey,56.52,83.91,38.56,83.91,206.38,Single-ply,SBD,F
Girls,60.1,7,Allyssa Rinehart,Eldorado,59.78,83.91,36.29,72.57,192.78,Single-ply,SBD,F
Girls,60.1,8,Alexis Torres,San Angelo Grape Creek,59.33,68.04,34.02,83.91,185.97,Single-ply,SBD,F
Girls,60.1,9,Gillian Kujawski,San Angelo Central,59.06,72.57,31.75,72.57,176.9,Single-ply,SBD,F
Girls,67.36,1,Danelle Baughman,San Angelo Grape Creek,65.95,195.04,72.57,147.42,415.04,Single-ply,SBD,F
Girls,67.36,2,Madison Watkins,Ballinger,65.68,136.08,74.84,136.08,347,Single-ply,SBD,F
Girls,67.36,3,Julia Pope,Sonora,64.86,138.35,65.77,124.74,328.85,Single-ply,SBD,F
Girls,67.36,4,Sierra Paradez,San Angelo Grape Creek,61.05,136.08,56.7,120.2,312.98,Single-ply,SBD,F
Girls,67.36,5,Reagan DeHanis,Mertzon Irion County,61.96,124.74,58.97,122.47,306.17,Single-ply,SBD,F
Girls,67.36,6,Maiah Jurado,Ozona,63.14,102.06,49.9,115.67,267.62,Single-ply,SBD,F
Girls,67.36,7,Julisa Medrano,San Angelo Lake View,65.32,106.59,38.56,113.4,258.55,Single-ply,SBD,F
Girls,67.36,8,Samantha Sanchez,Alpine,63.96,95.25,54.43,106.59,256.28,Single-ply,SBD,F
Girls,67.36,9,McKayla Herrada,Sonora,67.13,92.99,52.16,102.06,247.21,Single-ply,SBD,F
Girls,67.36,10,Elizabeth Rodriguez,Ozona,62.78,95.25,43.09,102.06,240.4,Single-ply,SBD,F
Girls,67.36,11,Sierra Kimbrell,Sonora,60.69,83.91,43.09,92.99,219.99,Single-ply,SBD,F
Girls,67.36,12,Lauren Lambert,San Angelo Lake View,61.69,88.45,38.56,92.99,219.99,Single-ply,SBD,F
Girls,67.36,13,Morgan Posey,San Angelo Grape Creek,64.77,90.72,29.48,92.99,213.19,Single-ply,SBD,F
Girls,67.36,14,Francesqa Kaggwa,San Angelo Central,67.13,77.11,40.82,90.72,208.65,Single-ply,SBD,F
Girls,67.36,15,Kaci Bales,Iraan,60.33,74.84,43.09,86.18,204.12,Single-ply,SBD,F
Girls,67.36,16,Selena Torres,Crane,65.05,79.38,38.56,86.18,204.12,Single-ply,SBD,F
Girls,67.36,17,Taylea Hogan,Christoval,64.05,61.23,29.48,86.18,176.9,Single-ply,SBD,F
Girls,75.07,1,Angelica Fuentes,Ballinger,68.95,195.04,102.06,151.95,449.06,Single-ply,SBD,F
Girls,75.07,2,Julissa Esquivel,Sonora,74.03,149.69,58.97,133.81,342.46,Single-ply,SBD,F
Girls,75.07,3,Toni Huelsberg,Alpine,69.58,127.01,56.7,127.01,310.71,Single-ply,SBD,F
Girls,75.07,4,Luisa Muniz,Eldorado,75.02,122.47,49.9,122.47,294.84,Single-ply,SBD,F
Girls,75.07,5,Tania Herrera,Sterling City,73.48,113.4,43.09,124.74,281.23,Single-ply,SBD,F
Girls,75.07,6,Amber Baughman,San Angelo Grape Creek,72.21,108.86,56.7,113.4,278.96,Single-ply,SBD,F
Girls,75.07,7,Larissa Vordick,San Angelo Grape Creek,69.58,113.4,61.23,102.06,276.69,Single-ply,SBD,F
Girls,75.07,8,Kaela Michaelis,Alpine,71.85,102.06,49.9,120.2,272.16,Single-ply,SBD,F
Girls,75.07,9,Alondra Rodriguez,Ozona,71.58,111.13,47.63,108.86,267.62,Single-ply,SBD,F
Girls,75.07,10,Ashley Emory,Crane,74.75,102.06,45.36,97.52,244.94,Single-ply,SBD,F
Girls,75.07,11,Daisy Cantu,Ozona,71.58,95.25,40.82,104.33,240.4,Single-ply,SBD,F
Girls,75.07,12,Kristen Alvarado,San Angelo Central,75.07,72.57,43.09,122.47,238.14,Single-ply,SBD,F
Girls,75.07,13,Emily Govea,San Angelo Lake View,70.85,65.77,34.02,83.91,183.7,Single-ply,SBD,F
Girls,75.07,DQ,Michelle Martinez,Eldorado,74.75,,34.02,86.18,,Single-ply,SBD,F
Girls,82.33,1,Ashley Vargas,San Angelo Lake View,81.37,122.47,56.7,113.4,292.57,Single-ply,SBD,F
Girls,82.33,2,Kim Borrego,Ozona,80.92,111.13,61.23,111.13,283.5,Single-ply,SBD,F
Girls,82.33,3,Alessandra Ramos,San Angelo Lake View,75.93,86.18,43.09,90.72,219.99,Single-ply,SBD,F
Girls,82.33,4,Ashley Kemp,Christoval,75.57,81.65,38.56,83.91,204.12,Single-ply,SBD,F
Girls,82.33,5,Jewel Cleere,Christoval,78.02,70.31,38.56,90.72,199.58,Single-ply,SBD,F
Girls,90.04,1,Rebecca Simpson,Ballinger,89.81,192.78,90.72,170.1,453.59,Single-ply,SBD,F
Girls,90.04,2,Kamrie Martinez,Sonora,83.46,167.83,70.31,142.88,381.02,Single-ply,SBD,F
Girls,90.04,3,Noel Fierro,Sonora,88.54,142.88,70.31,151.95,365.14,Single-ply,SBD,F
Girls,90.04,4,Taylor Medina,Alpine,82.92,104.33,56.7,113.4,274.42,Single-ply,SBD,F
Girls,90.04,5,Aurora Collett,Ozona,88,68.04,38.56,79.38,185.97,Single-ply,SBD,F
Girls,90.04,6,Susana Robles,Sonora,82.83,56.7,31.75,77.11,165.56,Single-ply,SBD,F
Girls,100.02,1,Karla Esquivel,Big Lake Reagan County,90.54,174.63,77.11,156.49,408.23,Single-ply,SBD,F
Girls,100.02,2,Valerie DeLeon,Big Lake Reagan County,98.97,156.49,61.23,138.35,356.07,Single-ply,SBD,F
Girls,100.02,3,Mya Lindsey,San Angelo Lake View,99.7,138.35,63.5,149.69,351.53,Single-ply,SBD,F
Girls,100.02,4,Keisha Natera,Alpine,98.79,136.08,61.23,138.35,335.66,Single-ply,SBD,F
Girls,100.02,5,Alexis Thomas,Sonora,90.26,90.72,49.9,83.91,224.53,Single-ply,SBD,F
Girls,100.02+,1,Allesa Blue,San Angelo Lake View,109.13,145.15,56.7,142.88,344.73,Single-ply,SBD,F
Girls,100.02+,2,Makayla Torres,San Angelo Grape Creek,116.3,136.08,52.16,145.15,333.39,Single-ply,SBD,F
Girls,100.02+,3,Alexis Rodriguez,Ozona,103.78,113.4,54.43,113.4,281.23,Single-ply,SBD,F
Girls,100.02+,4,Jasmine Gutierrez,San Angelo Grape Creek,101.42,90.72,47.63,104.33,242.67,Single-ply,SBD,F
Girls,,NS,Itsayana Presas,Iraan,,,,,,Single-ply,SBD,F
Girls,,NS,Taylor Parmer,Iraan,,,,,,Single-ply,SBD,F
Girls,,NS,Daisy Martin,Sterling City,,,,,,Single-ply,SBD,F
Girls,,NS,Cassedy Montelongo,San Angelo Lake View,,,,,,Single-ply,SBD,F
Girls,,NS,Lisette Hernandez,San Angelo Lake View,,,,,,Single-ply,SBD,F
Girls,,NS,Marittza Villanueva,Sonora,,,,,,Single-ply,SBD,F
Girls,,NS,Amaris Lopez,McCamey,,,,,,Single-ply,SBD,F
Girls,,NS,Taylor Short,Alpine,,,,,,Single-ply,SBD,F
Girls,,NS,Courteney Malik,Alpine,,,,,,Single-ply,SBD,F
Girls,,NS,Autumn Holmes,Alpine,,,,,,Single-ply,SBD,F
Girls,,NS,Veronica Paez,Christoval,,,,,,Single-ply,SBD,F
Girls,,NS,Aleecia Paez,Christoval,,,,,,Single-ply,SBD,F
Girls,,NS,Claire Parker,San Angelo Central,,,,,,Single-ply,SBD,F
Girls,,NS,Belen Flores,San Angelo Central,,,,,,Single-ply,SBD,F
Girls,,NS,Erica Vasquez,Ozona,,,,,,Single-ply,SBD,F
Girls,,NS,Rosanna Aguilera,Big Lake Reagan County,,,,,,Single-ply,SBD,F
