Division,WeightClassKg,Place,Name,Team,BodyweightKg,Best3SquatKg,Best3BenchKg,Best3DeadliftKg,TotalKg,Equipment,Event,Sex
Boys,51.71,1,Dillan Cromeens,Nevada Community,51.62,127.01,63.5,120.2,310.71,Single-ply,SBD,M
Boys,51.71,2,Devan Harris,Quinlan Boles,51.53,111.13,61.23,136.08,308.44,Single-ply,SBD,M
Boys,55.79,3,Hunter McDaniel,Caddo Mills,51.8,104.33,68.04,113.4,285.76,Single-ply,SBD,M
Boys,51.71,4,Dalton Krodle,Commerce,49.71,97.52,52.16,90.72,240.4,Single-ply,SBD,M
Boys,51.71,5,Trent Maxwell,Caddo Mills,43.18,65.77,43.09,74.84,183.7,Single-ply,SBD,M
Boys,51.71,DQ,Daniel Sandoval,Farmersville,51.62,,,,,Single-ply,SBD,M
Boys,51.71,DQ,Colbey Cowan,Forney,48.53,,,,,Single-ply,SBD,M
Boys,59.87,1,Jose Rangel,Farmersville,56.02,138.35,104.33,163.29,405.97,Single-ply,SBD,M
Boys,55.79,2,DeArius Mitchell,Greenville,55.43,145.15,68.04,140.61,353.8,Single-ply,SBD,M
Boys,59.87,3,Devontre Mumphrey,Greenville,55.88,124.74,61.23,136.08,322.05,Single-ply,SBD,M
Boys,55.79,4,Wester McClunskey,Quinlan Ford,54.16,88.45,49.9,111.13,249.48,Single-ply,SBD,M
Boys,59.87,1,Alfred Champion,Greenville,59.51,190.51,108.86,188.24,487.61,Single-ply,SBD,M
Boys,59.87,2,Erik Ramirez,Nevada Community,58.88,142.88,88.45,140.61,371.95,Single-ply,SBD,M
Boys,59.87,3,Eric Stanfield,Greenville,59.06,145.15,83.91,140.61,369.68,Single-ply,SBD,M
Boys,59.87,4,Christian Aguirre,Greenville,59.6,136.08,83.91,149.69,369.68,Single-ply,SBD,M
Boys,59.87,5,Tanner Tucker,Greenville,59.15,140.61,86.18,140.61,367.41,Single-ply,SBD,M
Boys,59.87,6,David Ayala,Mesquite Poteet,57.79,131.54,68.04,136.08,335.66,Single-ply,SBD,M
Boys,59.87,7,Jace Pallan,Celeste,57.06,124.74,70.31,127.01,322.05,Single-ply,SBD,M
Boys,59.87,8,Justin Talley,Quinlan Boles,57.15,95.25,63.5,122.47,281.23,Single-ply,SBD,M
Boys,74.84,1,Jonny Sorey,Forney,67.22,183.7,104.33,204.12,492.15,Single-ply,SBD,M
Boys,67.13,2,Paul Blasingame,Nevada Community,66.77,181.44,99.79,181.44,462.66,Single-ply,SBD,M
Boys,67.13,3,James Silkey,Quinlan Ford,65.86,158.76,113.4,181.44,453.59,Single-ply,SBD,M
Boys,74.84,4,Bacardi Clark,Forney,67.31,181.44,90.72,181.44,453.59,Single-ply,SBD,M
Boys,67.13,5,David Eacret,Greenville,65.5,165.56,88.45,181.44,435.45,Single-ply,SBD,M
Boys,67.13,6,Erick Quiroz,Greenville,66.68,142.88,102.06,142.88,387.82,Single-ply,SBD,M
Boys,74.84,7,Ryan Scobee,Nevada Community,67.31,154.22,83.91,149.69,387.82,Single-ply,SBD,M
Boys,67.13,8,Felix Brito,Royse City,63.96,161.03,77.11,147.42,385.55,Single-ply,SBD,M
Boys,67.13,9,Tayelor Doty,Greenville,66.86,147.42,102.06,136.08,385.55,Single-ply,SBD,M
Boys,67.13,10,Corey Rogers,Nevada Community,64.68,127.01,81.65,138.35,347,Single-ply,SBD,M
Boys,67.13,11,Israel Hernandez,Mesquite Poteet,66.22,120.2,72.57,136.08,328.85,Single-ply,SBD,M
Boys,67.13,12,Taler Murphy,Commerce,62.23,127.01,58.97,136.08,322.05,Single-ply,SBD,M
Boys,67.13,13,Loai Agrabawi,Mesquite Poteet,63.68,106.59,70.31,136.08,312.98,Single-ply,SBD,M
Boys,67.13,14,Rickey Lewis,Celeste,61.33,120.2,56.7,122.47,299.37,Single-ply,SBD,M
Boys,67.13,15,Montana Mason,Quinlan Boles,60.78,102.06,58.97,136.08,297.1,Single-ply,SBD,M
Boys,67.13,16,Kory Kent,Quinlan Boles,62.14,104.33,58.97,127.01,290.3,Single-ply,SBD,M
Boys,67.13,DQ,Jacob Tillet,Caddo Mills,64.59,140.61,,,,Single-ply,SBD,M
Boys,67.13,DQ,Hanns Hernandez,Commerce,64.59,,,,,Single-ply,SBD,M
Boys,74.84,1,Caleb Skahan,Caddo Mills,71.21,224.53,124.74,215.46,564.72,Single-ply,SBD,M
Boys,74.84,2,Tony Rioz,Greenville,73.21,190.51,131.54,185.97,508.02,Single-ply,SBD,M
Boys,74.84,3,Marcio Velasquez,Nevada Community,72.85,188.24,127.01,181.44,496.68,Single-ply,SBD,M
Boys,74.84,4,Michael Lay,Commerce,73.66,176.9,108.86,172.37,458.13,Single-ply,SBD,M
Boys,74.84,5,Trevor White,Greenville,74.3,174.63,90.72,172.37,437.72,Single-ply,SBD,M
Boys,74.84,6,Dq Anderson,South Garland,74.66,149.69,111.13,167.83,428.64,Single-ply,SBD,M
Boys,74.84,7,Jake Shinn,Quinlan Boles,70.4,151.95,81.65,181.44,415.04,Single-ply,SBD,M
Boys,74.84,8,Justin McLain,Quinlan Boles,74.84,147.42,92.99,172.37,412.77,Single-ply,SBD,M
Boys,74.84,9,Manuel Lugo,Quinlan Ford,71.4,151.95,74.84,156.49,383.29,Single-ply,SBD,M
Boys,74.84,10,Daniel Broyles,Quinlan Boles,69.94,147.42,95.25,124.74,367.41,Single-ply,SBD,M
Boys,74.84,11,Timothy Herman,Celeste,72.48,154.22,79.38,133.81,367.41,Single-ply,SBD,M
Boys,74.84,12,Otto Kerr,Nevada Community,72.67,133.81,74.84,138.35,347,Single-ply,SBD,M
Boys,74.84,13,Travis Tidwell,Quinlan Boles,73.03,120.2,77.11,136.08,333.39,Single-ply,SBD,M
Boys,74.84,14,Jose Ruiz,Mesquite Poteet,69.22,104.33,81.65,133.81,319.78,Single-ply,SBD,M
Boys,74.84,15,Tanner McMillan,Royse City,72.12,115.67,74.84,124.74,315.25,Single-ply,SBD,M
Boys,74.84,16,Cody Genson,Celeste,74.84,127.01,70.31,,197.31,Single-ply,SB,M
Boys,74.84,DQ,Marcus Cantera,Commerce,72.12,,,,,Single-ply,SB,M
Boys,74.84,DQ,Javan Thomas,Forney,72.21,158.76,,,,Single-ply,SB,M
Boys,74.84,DQ,Marqus Newby,Caddo Mills,70.13,199.58,,,,Single-ply,SB,M
Boys,74.84,DQ,Iyad Agel,Mesquite Poteet,72.12,117.93,,,,Single-ply,SB,M
Boys,74.84,DQ,Bo Corley,Forney,74.75,174.63,,,,Single-ply,SB,M
Boys,82.1,1,Gabe Conner,Commerce,81.47,181.44,115.67,215.46,512.56,Single-ply,SBD,M
Boys,89.81,2,Corey Barron,Nevada Community,82.33,190.51,111.13,183.7,485.34,Single-ply,SBD,M
Boys,82.1,3,Jimmy Hill,Caddo Mills,81.92,192.78,117.93,170.1,480.81,Single-ply,SBD,M
Boys,82.1,4,Maxwell Noriaga,Greenville,79.92,170.1,106.59,181.44,458.13,Single-ply,SBD,M
Boys,89.81,5,Joel Dunn,Royse City,82.28,185.97,97.52,170.1,453.59,Single-ply,SBD,M
Boys,82.1,6,D. McKenna,South Garland,80.29,154.22,113.4,183.7,451.32,Single-ply,SBD,M
Boys,82.1,7,Frank Crawford,Mesquite Poteet,81.74,167.83,108.86,174.63,451.32,Single-ply,SBD,M
Boys,82.1,8,Chase McDonald,Quinlan Ford,80.83,183.7,95.25,167.83,446.79,Single-ply,SBD,M
Boys,82.1,9,Zak Kellum,Forney,79.02,163.29,106.59,170.1,439.98,Single-ply,SBD,M
Boys,82.1,10,Cj Rather,Forney,79.83,179.17,90.72,161.03,430.91,Single-ply,SBD,M
Boys,82.1,11,Josh Martinez,Quinlan Boles,79.92,142.88,72.57,181.44,396.89,Single-ply,SBD,M
Boys,82.1,12,Cipriano Gonzales,Greenville,81.74,142.88,99.79,149.69,392.36,Single-ply,SBD,M
Boys,82.1,13,Adam Strickland,Nevada Community,76.84,181.44,117.93,,299.37,Single-ply,SB,M
Boys,82.1,DQ,Allen Lyday,Celeste,75.39,167.83,92.99,,,Single-ply,SB,M
Boys,89.81,1,DeVante Buchanan,Greenville,85.28,235.87,122.47,206.38,564.72,Single-ply,SBD,M
Boys,89.81,2,AJ Johnson,South Garland,83.64,185.97,122.47,195.04,503.49,Single-ply,SBD,M
Boys,89.81,3,J. Lopez,South Garland,87.18,183.7,117.93,192.78,494.42,Single-ply,SBD,M
Boys,89.81,4,Bryce Hale,Quinlan Ford,89.72,183.7,92.99,208.65,485.34,Single-ply,SBD,M
Boys,89.81,5,Chance Hamilton,Greenville,88.54,158.76,102.06,183.7,444.52,Single-ply,SBD,M
Boys,89.81,6,M. Cruz,South Garland,87.36,154.22,115.67,167.83,437.72,Single-ply,SBD,M
Boys,89.81,7,Alec Smith,Celeste,87.45,142.88,104.33,174.63,421.84,Single-ply,SBD,M
Boys,89.81,8,Jared Key,Quinlan Boles,89.63,142.88,92.99,181.44,417.3,Single-ply,SBD,M
Boys,89.81,9,Braylon Champion,Greenville,88.18,124.74,86.18,158.76,369.68,Single-ply,SBD,M
Boys,99.79,1,Ryan Wetteland,Quinlan Boles,90.99,204.12,136.08,226.8,566.99,Single-ply,SBD,M
Boys,99.79,2,Chasen Lambe,Greenville,96.34,240.4,131.54,195.04,566.99,Single-ply,SBD,M
Boys,99.79,3,Anthony Hambric,Forney,91.26,217.72,131.54,206.38,555.65,Single-ply,SBD,M
Boys,99.79,4,Brant Sims,Quinlan Boles,93.98,208.65,111.13,204.12,523.9,Single-ply,SBD,M
Boys,99.79,5,Dakotta Cooksy,Quinlan Ford,98.43,208.65,117.93,195.04,521.63,Single-ply,SBD,M
Boys,99.79,6,Chris Sepulveda,Forney,93.26,192.78,124.74,172.37,489.88,Single-ply,SBD,M
Boys,99.79,7,Andrew Hughes,Royse City,99.43,172.37,117.93,163.29,453.59,Single-ply,SBD,M
Boys,99.79,8,George Green,Mesquite Poteet,99.52,158.76,97.52,161.03,417.3,Single-ply,SBD,M
Boys,99.79,9,Jaed Loftis,Royse City,90.26,158.76,74.84,158.76,392.36,Single-ply,SBD,M
Boys,99.79,10,Sam Chambliss,Celeste,95.07,131.54,92.99,140.61,365.14,Single-ply,SBD,M
Boys,109.77,1,Damion Foster,Royse City,108.23,276.69,154.22,272.16,703.07,Single-ply,SBD,M
Boys,109.77,2,Cortez Crosby,Commerce,109.23,272.16,158.76,238.14,669.05,Single-ply,SBD,M
Boys,109.77,3,Jose Ramirez,Royse City,109.59,251.74,161.03,213.19,625.96,Single-ply,SBD,M
Boys,109.77,4,Britain Lane,Greenville,109.04,190.51,142.88,204.12,537.51,Single-ply,SBD,M
Boys,109.77,5,Eric Luna,South Garland,102.97,199.58,106.59,199.58,505.76,Single-ply,SBD,M
Boys,109.77,6,David Allen,Quinlan Ford,106.87,185.97,95.25,199.58,480.81,Single-ply,SBD,M
Boys,109.77,7,Dallas Millhausen,Quinlan Ford,104.92,170.1,97.52,154.22,421.84,Single-ply,SBD,M
Boys,109.77,8,Osvaldo Castaph,Royse City,108.59,158.76,90.72,170.1,419.57,Single-ply,SBD,M
Boys,109.77,9,Jacob Garza,Celeste,101.97,172.37,95.25,147.42,415.04,Single-ply,SBD,M
Boys,109.77,DQ,Hunter Smith,Greenville,103.42,,,,,Single-ply,SBD,M
Boys,109.77,DQ,Trevor Daugherty,Celeste,108.86,136.08,,,,Single-ply,SBD,M
Boys,124.74,1,Christian Ramos,Forney,117.12,240.4,140.61,244.94,625.96,Single-ply,SBD,M
Boys,124.74,2,Justin Perez,Farmersville,113.67,229.06,142.88,208.65,580.6,Single-ply,SBD,M
Boys,124.74,3,Jason Guinn,Nevada Community,114.12,229.06,136.08,181.44,546.58,Single-ply,SBD,M
Boys,124.74,4,Rod Haynes,Mesquite Poteet,123.6,217.72,122.47,206.38,546.58,Single-ply,SBD,M
Boys,124.74,5,Z. Taylor,South Garland,124.65,208.65,138.35,192.78,539.77,Single-ply,SBD,M
Boys,124.74,6,Preston Bass,Mesquite Poteet,120.29,206.38,133.81,192.78,532.97,Single-ply,SBD,M
Boys,124.74,7,Joel Lopez,Farmersville,119.57,226.8,104.33,195.04,526.17,Single-ply,SBD,M
Boys,124.74,8,Joshua Martinez,Royse City,117.75,185.97,147.42,188.24,521.63,Single-ply,SBD,M
Boys,124.74,9,Jorge Rodriguez,Greenville,115.3,215.46,122.47,181.44,519.36,Single-ply,SBD,M
Boys,124.74,10,Jack Willeford,Farmersville,123.29,208.65,120.2,190.51,519.36,Single-ply,SBD,M
Boys,124.74,11,Joseph Stieferwam,Quinlan Ford,122.29,204.12,124.74,183.7,512.56,Single-ply,SBD,M
Boys,124.74,12,Conrad Carbo,Mesquite Poteet,120.93,181.44,124.74,192.78,498.95,Single-ply,SBD,M
Boys,124.74,13,Shelby Anderson,Caddo Mills,121.38,136.08,92.99,142.88,371.95,Single-ply,SBD,M
Boys,124.74,14,Mitchell Wheat,Greenville,113.4,145.15,79.38,140.61,365.14,Single-ply,SBD,M
Boys,124.74,DQ,Brandon Blain,Caddo Mills,120.29,,,,,Single-ply,SBD,M
Boys,124.74+,1,Chris Whitaker,Caddo Mills,132.63,258.55,158.76,213.19,630.49,Single-ply,SBD,M
Boys,124.74+,2,S Langley,South Garland,138.44,281.23,142.88,192.78,616.89,Single-ply,SBD,M
Boys,124.74+,3,Matthew Hawkins,Nevada Community,132.45,238.14,136.08,185.97,560.19,Single-ply,SBD,M
Boys,124.74+,4,Marquise Champion,Greenville,146.15,195.04,124.74,181.44,501.22,Single-ply,SBD,M
Boys,124.74+,5,Matthew Conrad,Quinlan Ford,139.53,183.7,108.86,190.51,483.08,Single-ply,SBD,M
Boys,124.74+,6,Isaiah Smith,Caddo Mills,136.08,172.37,90.72,151.95,415.04,Single-ply,SBD,M
Boys,124.74+,7,Ty Hayes,Quinlan Ford,148.6,165.56,83.91,156.49,405.97,Single-ply,SBD,M
Boys,124.74+,DQ,T Lacy,South Garland,127.91,204.12,,170.1,,Single-ply,SBD,M
