Name,Age,Sex,Equipment,Division,BodyweightKg,WeightClassKg,Squat1Kg,Squat2Kg,Squat3Kg,Best3SquatKg,Bench1Kg,Bench2Kg,Bench3Kg,Best3BenchKg,Deadlift1Kg,Deadlift2Kg,Deadlift3Kg,Best3DeadliftKg,TotalKg,Place,Event
Olivia Crusoe,23,F,Raw,F_JR_AAPF,62.8,67.5,117.5,-125,-125,117.5,57.5,60,-62.5,60,127.5,140,145,145,322.5,1,SBD
Keara Wilson,20,F,Raw,F_JR_AAPF,73.8,75,127.5,135,140,140,-82.5,87.5,92.5,92.5,140,150,160,160,392.5,1,SBD
Tera Kinnane,41,F,Wraps,F_MCR_1_AAPF,108.1,90+,167.5,182.5,-190,182.5,75,85,-92.5,85,102.5,125,,125,392.5,1,SBD
Amy Kozle,44,F,Multi-ply,F_MEM_1_APF,60.8,67.5,147.5,165,175,175,85,95,-100,95,165,185,192.5,192.5,462.5,1,SBD
Rachel Zipsie,46,F,Multi-ply,F_MEM_2_AAPF,109.2,90+,200,-210,-210,200,-92.5,92.5,97.5,97.5,155,165,185,185,482.5,1,SBD
Rachel Zipsie,46,F,Multi-ply,F_MEM_2_APF,109.2,90+,200,-210,-210,200,-92.5,92.5,97.5,97.5,155,165,185,185,482.5,1,SBD
Lynn Flowers,50,F,Raw,F_MR_3_AAPF,59.1,60,55,65,72.5,72.5,42.5,45,47.5,47.5,85,100,107.5,107.5,227.5,1,SBD
Briana Maison,26,F,Wraps,F_OCR_AAPF,51.3,52,75,82.5,-95,82.5,35,40,-42.5,40,82.5,92.5,97.5,97.5,220,1,SBD
Darci Molina,25,F,Wraps,F_OCR_AAPF,75.1,82.5,157.5,-162.5,162.5,162.5,87.5,92.5,-95,92.5,155,160,165,165,420,1,SBD
Jillian Clark,27,F,Wraps,F_OCR_AAPF,79.2,82.5,125,137.5,-152.5,137.5,65,72.5,-82.5,72.5,132.5,147.5,155,155,365,2,SBD
Tera Kinnane,41,F,Wraps,F_OCR_AAPF,108.1,90+,167.5,182.5,-190,182.5,75,85,-92.5,85,102.5,125,,125,392.5,1,SBD
Briana Maison,26,F,Wraps,F_OCR_APF,51.3,52,75,82.5,-95,82.5,35,40,-42.5,40,82.5,92.5,97.5,97.5,220,1,SBD
Darci Molina,25,F,Wraps,F_OCR_APF,75.1,82.5,157.5,-162.5,162.5,162.5,87.5,92.5,-95,92.5,155,160,165,165,420,1,SBD
Rachel Zipsie,46,F,Multi-ply,F_OEM_AAPF,109.2,90+,200,-210,-210,200,-92.5,92.5,97.5,97.5,155,165,185,185,482.5,1,SBD
Amy Kozle,44,F,Multi-ply,F_OEM_APF,60.8,67.5,147.5,165,175,175,85,95,-100,95,165,185,192.5,192.5,462.5,1,SBD
Rachel Zipsie,46,F,Multi-ply,F_OEM_APF,109.2,90+,200,-210,-210,200,-92.5,92.5,97.5,97.5,155,165,185,185,482.5,1,SBD
Olivia Crusoe,23,F,Raw,F_OR_AAPF,62.8,67.5,117.5,-125,-125,117.5,57.5,60,-62.5,60,127.5,140,145,145,322.5,1,SBD
Tori Miteen,31,F,Raw,F_OR_AAPF,95,90+,97.5,107.5,115,115,52.5,57.5,60,60,125,137.5,142.5,142.5,317.5,1,SBD
Kim Cunningham,34,F,Raw,F_OR_APF,95.2,90+,137.5,147.5,155,155,65,70,75,75,180,190,197.5,197.5,427.5,1,SBD
Jennifer Potgeter,38,F,Raw,F_SR_AAPF,79.2,82.5,102.5,115,127.5,127.5,-62.5,-77.5,-77.5,,102.5,107.5,120,120,,DQ,SBD
Jennifer Potgeter,38,F,Raw,F_SR_APF,79.2,82.5,102.5,115,127.5,127.5,-62.5,-77.5,-77.5,,102.5,107.5,120,120,,DQ,SBD
Kim Cunningham,34,F,Raw,F_SR_APF,95.2,90+,137.5,147.5,155,155,65,70,75,75,180,190,197.5,197.5,427.5,1,SBD
Caitlin Recker,19,F,Raw,F_TR_3_APF,54.9,56,85,90,,90,42.5,45,-47.5,45,97.5,-105,-105,97.5,232.5,1,SBD
Mason Lahr,23,M,Wraps,M_JCR_AAPF,80.2,82.5,142.5,150,157.5,157.5,115,125,127.5,127.5,175,185,-197.5,185,470,1,SBD
Alex Gordon,21,M,Wraps,M_JCR_AAPF,88.4,90,195,217.5,-227.5,217.5,137.5,142.5,-152.5,142.5,227.5,237.5,-245,237.5,597.5,1,SBD
Terel Monroe,21,M,Wraps,M_JCR_APF,64.6,67.5,172.5,190,192.5,192.5,115,125,130,130,247.5,260,-272.5,260,582.5,1,SBD
Matt Langenberg,23,M,Raw,M_JR_AAPF,74.1,75,125,142.5,160,160,115,125,-137.5,125,-217.5,230,-245,230,515,1,SBD
Dillion Davis,23,M,Raw,M_JR_AAPF,80.5,82.5,185,195,205,205,125,-130,,125,255,265,277.5,277.5,607.5,1,SBD
Caleb Valkner,22,M,Raw,M_JR_AAPF,81,82.5,137.5,157.5,165,165,92.5,107.5,115,115,182.5,205,220,220,500,2,SBD
Steven Wiltse,21,M,Raw,M_JR_AAPF,79.7,82.5,142.5,150,155,155,107.5,115,125,125,187.5,197.5,205,205,485,3,SBD
Dillion Davis,23,M,Raw,M_JR_APF,80.5,82.5,185,195,205,205,125,-130,,125,255,265,277.5,277.5,607.5,1,SBD
John Wood,52,M,Wraps,M_MCR_3_APF,81.2,82.5,175,187.5,205,205,140,147.5,155,155,220,235,240,240,600,1,SBD
Cliff Shipley,58,M,Wraps,M_MCR_4_AAPF,76.5,82.5,125,135,142.5,142.5,92.5,95,-100,95,185,200,,200,437.5,1,SBD
Cliff Shipley,58,M,Single-ply,M_MES_4_AAPF,76.5,82.5,125,135,142.5,142.5,92.5,95,-100,95,185,200,,200,437.5,1,SBD
Joseph Cornish,53,M,Raw,M_MR_3_AAPF,73.5,75,157.5,170,182.5,182.5,110,117.5,120,120,200,220,230,230,532.5,1,SBD
Joseph Rotellini,29,M,Wraps,M_OCR_AAPF,71.2,75,132.5,145,152.5,152.5,112.5,120,-127.5,120,170,185,190,190,462.5,1,SBD
Derek Betts,27,M,Wraps,M_OCR_AAPF,80.3,82.5,215,227.5,,227.5,135,140,-147.5,140,235,247.5,-255,247.5,615,1,SBD
Jordan Betts,25,M,Wraps,M_OCR_AAPF,80.5,82.5,195,200,,200,127.5,135,137.5,137.5,230,240,-242.5,240,577.5,2,SBD
Jacob Young,25,M,Wraps,M_OCR_AAPF,81.3,82.5,192.5,197.5,-202.5,197.5,95,-102.5,102.5,102.5,232.5,242.5,-250,242.5,542.5,3,SBD
Connor Hobson,24,M,Wraps,M_OCR_AAPF,88.9,90,190,-200,-200,190,100,110,-115,110,205,215,-220,215,515,1,SBD
Derek Betts,27,M,Wraps,M_OCR_APF,80.3,82.5,215,227.5,,227.5,135,140,-147.5,140,235,247.5,-255,247.5,615,1,SBD
John Wood,52,M,Wraps,M_OCR_APF,81.2,82.5,175,187.5,205,205,140,147.5,155,155,220,235,240,240,600,2,SBD
Jordan Betts,25,M,Wraps,M_OCR_APF,80.5,82.5,195,200,,200,127.5,135,137.5,137.5,230,240,-242.5,240,577.5,3,SBD
Jacob Young,25,M,Wraps,M_OCR_APF,81.3,82.5,192.5,197.5,-202.5,197.5,95,-102.5,102.5,102.5,232.5,242.5,-250,242.5,542.5,4,SBD
Gerald Stuecher,30,M,Wraps,M_OCR_APF,89.7,90,245,260,-272.5,260,150,162.5,-175,162.5,260,272.5,-277.5,272.5,695,1,SBD
Connor Hobson,24,M,Wraps,M_OCR_APF,88.9,90,190,-200,-200,190,100,110,-115,110,205,215,-220,215,515,2,SBD
Aaron Sarnovsky,32,M,Multi-ply,M_OEM_AAPF,81.4,82.5,267.5,287.5,-302.5,287.5,-177.5,-177.5,177.5,177.5,-250,250,-280,250,715,1,SBD
Vincent Falzetta,19,M,Raw,M_OR_AAPF,73.6,75,202.5,212.5,-217.5,212.5,130,137.5,142.5,142.5,257.5,275,280,280,635,1,SBD
Matt Langenberg,23,M,Raw,M_OR_AAPF,74.1,75,125,142.5,160,160,115,125,-137.5,125,-217.5,230,-245,230,515,2,SBD
Derek Beindorff,26,M,Raw,M_OR_AAPF,73.3,75,160,167.5,177.5,177.5,127.5,137.5,-145,137.5,177.5,185,-192.5,185,500,3,SBD
Frank Lee,17,M,Raw,M_OR_AAPF,69.9,75,145,155,162.5,162.5,102.5,105,-112.5,105,145,165,-187.5,165,432.5,4,SBD
Brandon Mannebach,30,M,Raw,M_OR_AAPF,79.4,82.5,155,-160,-160,155,120,125,-132.5,125,205,220,227.5,227.5,507.5,1,SBD
Pete Fornasiero,27,M,Raw,M_OR_AAPF,79.6,82.5,157.5,-165,165,165,110,115,120,120,157.5,170,177.5,177.5,462.5,2,SBD
Adam Frizzle,24,M,Raw,M_OR_AAPF,80.8,82.5,117.5,122.5,130,130,102.5,-107.5,-107.5,102.5,165,170,175,175,407.5,3,SBD
Christopher Wood,30,M,Raw,M_OR_AAPF,88.5,90,217.5,225,232.5,232.5,117.5,125,-127.5,125,210,227.5,235,235,592.5,1,SBD
Ryan Lucas,24,M,Raw,M_OR_AAPF,89.4,90,170,177.5,182.5,182.5,147.5,152.5,157.5,157.5,207.5,220,227.5,227.5,567.5,2,SBD
Benjamin Wilson #3,24,M,Raw,M_OR_AAPF,87.8,90,190,197.5,-205,197.5,110,115,-120,115,247.5,-260,-260,247.5,560,3,SBD
Alex Vanos,32,M,Raw,M_OR_AAPF,88.7,90,150,165,180,180,90,102.5,110,110,182.5,195,-212.5,195,485,4,SBD
Schuyler Parent,30,M,Raw,M_OR_APF,80.6,82.5,205,217.5,-227.5,217.5,-157.5,-157.5,-157.5,,-245,,,,,DQ,SBD
Christopher Wood,30,M,Raw,M_OR_APF,88.5,90,217.5,225,232.5,232.5,117.5,125,-127.5,125,210,227.5,235,235,592.5,1,SBD
Frank Lee,17,M,Raw,M_TR_2_AAPF,69.9,75,145,155,162.5,162.5,102.5,105,-112.5,105,145,165,-187.5,165,432.5,1,SBD
Jacob Ogg,16,M,Raw,M_TR_2_APF,83.5,90,152.5,175,180,180,115,130,-137.5,130,155,172.5,-180,172.5,482.5,1,SBD
Vincent Falzetta,19,M,Raw,M_TR_3_AAPF,73.6,75,202.5,212.5,-217.5,212.5,130,137.5,142.5,142.5,257.5,275,280,280,635,1,SBD
Connor Richmond,19,M,Raw,M_TR_3_AAPF,73.9,75,145,157.5,167.5,167.5,92.5,97.5,-105,97.5,175,185,-192.5,185,450,2,SBD
Isaac Shaw,19,M,Raw,M_TR_3_AAPF,75.5,82.5,122.5,130,145,145,105,110,-117.5,110,142.5,165,187.5,187.5,442.5,1,SBD
Jake Clees,23,M,Wraps,M_JCR_AAPF,97,100,227.5,240,265,265,147.5,-167.5,-167.5,147.5,280,307.5,-315,307.5,720,1,SBD
Robert Handler,22,M,Wraps,M_JCR_AAPF,100,100,247.5,262.5,-272.5,262.5,137.5,145,-150,145,242.5,-262.5,262.5,262.5,670,2,SBD
Tyler Branch,22,M,Wraps,M_JCR_AAPF,107.5,110,202.5,220,,220,140,-145,-145,140,245,260,-272.5,260,620,1,SBD
Anthony Maxwell,22,M,Wraps,M_JCR_AAPF,106.6,110,185,-197.5,-197.5,185,120,127.5,-142.5,127.5,207.5,-217.5,217.5,217.5,530,2,SBD
Jordan Sprague,23,M,Wraps,M_JCR_AAPF,118.9,125,245,-275,282.5,282.5,142.5,-157.5,165,165,277.5,300,-305,300,747.5,1,SBD
John Kalil,21,M,Wraps,M_JCR_APF,99.5,100,207.5,-222.5,222.5,222.5,-162.5,162.5,-165,162.5,207.5,227.5,247.5,247.5,632.5,1,SBD
Matthew Spohr,22,M,Raw,M_JR_AAPF,97.5,100,205,215,220,220,182.5,190,192.5,192.5,250,255,-265,255,667.5,1,SBD
Ian Withrow,20,M,Raw,M_JR_AAPF,95.5,100,157.5,170,185,185,107.5,117.5,-125,117.5,215,225,232.5,232.5,535,2,SBD
Jean-Paul Roberts,44,M,Wraps,M_MCR_1_APF,95.4,100,167.5,187.5,195,195,105,115,-120,115,200,215,-227.5,215,525,1,SBD
Jeff Martin,47,M,Wraps,M_MCR_2_APF,108.2,110,245,-272.5,282.5,282.5,167.5,185,190,190,255,-277.5,-277.5,255,727.5,1,SBD
Bob Seeber,53,M,Wraps,M_MCR_3_AAPF,108,110,60,,,60,135,145,,145,225,-240,-240,225,430,1,SBD
Mike Pascarella,52,M,Multi-ply,M_MEM_3_AAPF,126.7,140,265,272.5,,272.5,125,182.5,192.5,192.5,227.5,-242.5,,227.5,692.5,1,SBD
David Emeott,47,M,Multi-ply,M_MEM_4_APF,97.2,100,265,275,292.5,292.5,177.5,197.5,-205,197.5,227.5,242.5,-262.5,242.5,732.5,1,SBD
Tim Weikert,54,M,Single-ply,M_MES_3_APF,98.8,100,235,255,272.5,272.5,190,197.5,-202.5,197.5,237.5,250,257.5,257.5,727.5,1,SBD
Russell Fox,48,M,Single-ply,M_MES_3_APF,101.3,110,325,350,-365,350,145,162.5,-192.5,162.5,240,255,-270,255,767.5,1,SBD
Ryland Paval,50,M,Raw,M_MR_3_APF,106.2,110,147.5,165,182.5,182.5,142.5,157.5,170,170,185,200,212.5,212.5,565,1,SBD
Micheal Sawyer,61,M,Raw,M_MR_5_AAPF,106.2,110,125,-132.5,,125,102.5,107.5,112.5,112.5,182.5,192.5,,192.5,430,1,SBD
John McGrail,68,M,Raw,M_MR_6_AAPF,142.2,140+,85,92.5,100,100,,,,,,,,,,DQ,SBD
John McGrail,68,M,Raw,M_MR_6_APF,142.2,140+,85,92.5,100,100,,,,,,,,,,DQ,SBD
Jake Clees,23,M,Wraps,M_OCR_AAPF,97,100,227.5,240,265,265,147.5,-167.5,-167.5,147.5,280,307.5,-315,307.5,720,1,SBD
Robert Handler,22,M,Wraps,M_OCR_AAPF,100,100,247.5,262.5,-272.5,262.5,137.5,145,-150,145,242.5,-262.5,262.5,262.5,670,2,SBD
Charles Thompson,32,M,Wraps,M_OCR_AAPF,94.4,100,157.5,172.5,182.5,182.5,145,155,-162.5,155,-232.5,232.5,242.5,242.5,580,3,SBD
Jeff Hunwick,29,M,Wraps,M_OCR_AAPF,98.8,100,200,210,220,220,107.5,112.5,-120,112.5,187.5,200,210,210,542.5,4,SBD
Marko Meglen,29,M,Wraps,M_OCR_AAPF,109,110,180,195,-205,195,145,152.5,155,155,225,245,265,265,615,1,SBD
Brett Mageli,27,M,Wraps,M_OCR_AAPF,104.7,110,207.5,-227.5,227.5,227.5,130,140,145,145,220,-230,-230,220,592.5,2,SBD
Anthony Maxwell,22,M,Wraps,M_OCR_AAPF,106.6,110,185,-197.5,-197.5,185,120,127.5,-142.5,127.5,207.5,-217.5,217.5,217.5,530,3,SBD
Jordan Sprague,23,M,Wraps,M_OCR_AAPF,118.9,125,245,-275,282.5,282.5,142.5,-157.5,165,165,277.5,300,-305,300,747.5,1,SBD
Dakota Dunn,22,M,Wraps,M_OCR_AAPF,123.5,125,190,212.5,230,230,127.5,135,-137.5,135,230,240,-250,240,605,2,SBD
Eric Poplar,38,M,Wraps,M_OCR_AAPF,133.3,140,205,222.5,-240,222.5,195,197.5,-200,197.5,227.5,250,272.5,272.5,692.5,1,SBD
Timothy Halpin,28,M,Wraps,M_OCR_AAPF,136.8,140,210,-230,230,230,110,-115,-115,110,270,280,-290,280,620,2,SBD
Rudy Harbin,30,M,Wraps,M_OCR_AAPF,209,140+,-365,370,390,390,207.5,217.5,227.5,227.5,292.5,307.5,320,320,937.5,1,SBD
Shawn Chase,24,M,Wraps,M_OCR_APF,98.5,100,287.5,300,-307.5,300,170,177.5,185,185,280,292.5,297.5,297.5,782.5,1,SBD
Jordan Kucharek,27,M,Wraps,M_OCR_APF,94.7,100,192.5,-210,210,210,137.5,-150,-160,137.5,215,237.5,245,245,592.5,2,SBD
Charles Thompson,32,M,Wraps,M_OCR_APF,94.4,100,157.5,172.5,182.5,182.5,145,155,-162.5,155,-232.5,232.5,242.5,242.5,580,3,SBD
Jeff Martin,47,M,Wraps,M_OCR_APF,108.2,110,245,-272.5,282.5,282.5,167.5,185,190,190,255,-277.5,-277.5,255,727.5,1,SBD
Chris Noble,29,M,Wraps,M_OCR_APF,105.4,110,210,227.5,237.5,237.5,145,155,160,160,245,260,285,285,682.5,2,SBD
Hunter Charneski,26,M,Wraps,M_OCR_APF,120.3,125,200,220,230,230,167.5,182.5,190,190,237.5,250,260,260,680,1,SBD
Jacob Siebert,28,M,Wraps,M_OCR_APF,123.3,125,215,-230,,215,167.5,172.5,-182.5,172.5,265,,,265,652.5,2,SBD
Skyler Brandt,17,M,Wraps,M_OCR_APF,124,125,-217.5,217.5,237.5,237.5,-115,117.5,-125,117.5,255,265,282.5,282.5,637.5,3,SBD
Rodney Schroeder,29,M,Wraps,M_OCR_APF,140,140,165,177.5,185,185,120,130,-145,130,177.5,187.5,195,195,510,1,SBD
Rudy Harbin,30,M,Wraps,M_OCR_APF,209,140+,-365,370,390,390,207.5,217.5,227.5,227.5,292.5,307.5,320,320,937.5,1,SBD
Raymond Carney,26,M,Multi-ply,M_OEM_AAPF,108.9,110,-262.5,265,-277.5,265,135,-142.5,142.5,142.5,262.5,280,295,295,702.5,1,SBD
Justin Healy,36,M,Multi-ply,M_OEM_AAPF,124.2,125,340,370,-385,370,227.5,-240,-240,227.5,-277.5,-277.5,277.5,277.5,875,1,SBD
Nate Wagoner,23,M,Multi-ply,M_OEM_APF,92.5,100,300,-312.5,,300,212.5,215,-227.5,215,227.5,250,-272.5,250,765,1,SBD
Brandon Dunbar,34,M,Multi-ply,M_OEM_APF,105.3,110,300,320,-335,320,-262.5,262.5,-272.5,262.5,230,-237.5,237.5,237.5,820,1,SBD
Raymond Carney,26,M,Multi-ply,M_OEM_APF,108.9,110,-262.5,265,-277.5,265,135,-142.5,142.5,142.5,262.5,280,295,295,702.5,2,SBD
Craig Clites,29,M,Multi-ply,M_OEM_APF,123.8,125,-400,400,,400,255,272.5,280,280,252.5,297.5,-322.5,297.5,977.5,1,SBD
Justin Healy,36,M,Multi-ply,M_OEM_APF,124.2,125,340,370,-385,370,227.5,-240,-240,227.5,-277.5,-277.5,277.5,277.5,875,2,SBD
Jeff Johnston #1,38,M,Single-ply,M_OES_APF,106.6,110,285,297.5,320,320,282.5,290,295,295,237.5,250,262.5,262.5,877.5,1,SBD
Derek Robyler,28,M,Raw,M_OR_AAPF,99.7,100,187.5,,,187.5,170,-180,180,180,292.5,-310,-310,292.5,660,1,SBD
Ryan Konneck,25,M,Raw,M_OR_AAPF,97.7,100,205,220,227.5,227.5,155,160,165,165,227.5,240,250,250,642.5,2,SBD
Daniel Kershner,26,M,Raw,M_OR_AAPF,94.6,100,185,197.5,205,205,152.5,157.5,-162.5,157.5,225,235,245,245,607.5,3,SBD
Keith Valkner,27,M,Raw,M_OR_AAPF,117.4,125,215,227.5,235,235,145,155,-165,155,262.5,277.5,290,290,680,1,SBD
Matt Tripp,39,M,Raw,M_OR_APF,97,100,240,255,265,265,150,165,175,175,250,272.5,280,280,720,1,SBD
Shawn Bogedain,31,M,Raw,M_OR_APF,99.3,100,200,220,235,235,150,160,167.5,167.5,235,250,262.5,262.5,665,2,SBD
Garek Henry,29,M,Raw,M_OR_APF,90.4,100,170,182.5,195,195,125,132.5,-137.5,132.5,202.5,215,227.5,227.5,555,3,SBD
Gabriel Ramirez,29,M,Raw,M_OR_APF,106.9,110,185,192.5,-205,192.5,137.5,142.5,-157.5,142.5,212.5,220,227.5,227.5,562.5,1,SBD
Eric Poplar,38,M,Wraps,M_SCR_AAPF,133.3,140,205,222.5,-240,222.5,195,197.5,-200,197.5,227.5,250,272.5,272.5,692.5,1,SBD
Justin Wells,33,M,Wraps,M_SCR_APF,106,110,212.5,225,230,230,165,170,-177.5,170,260,272.5,277.5,277.5,677.5,1,SBD
Jeff Johnston #1,38,M,Single-ply,M_SES_APF,106.6,110,285,297.5,320,320,282.5,290,295,295,237.5,250,262.5,262.5,877.5,1,SBD
David Mokena,37,M,Raw,M_SR_AAPF,137.6,140,210,225,-252.5,225,202.5,215,-227.5,215,240,262.5,272.5,272.5,712.5,1,SBD
Joseph Mcginnis,35,M,Raw,M_SR_AAPF,175.7,140+,80,107.5,145,145,85,105,-150,105,145,165,192.5,192.5,442.5,1,SBD
Matt Tripp,39,M,Raw,M_SR_APF,97,100,240,255,265,265,150,165,175,175,250,272.5,280,280,720,1,SBD
Skyler Brandt,17,M,Wraps,M_TCR_2_APF,124,125,-217.5,217.5,237.5,237.5,-115,117.5,-125,117.5,255,265,282.5,282.5,637.5,1,SBD
Jordan Jenkins,19,M,Raw,M_TR_3_AAPF,98.7,100,205,217.5,227.5,227.5,125,135,-142.5,135,252.5,267.5,-282.5,267.5,630,1,SBD
Kayla Seeley,20,F,Raw,F_JR_APF,73.3,75,,,,,,,,,127.5,137.5,145,145,145,1,D
Casie Dussia,42,F,Raw,F_MR_1_AAPF,55.3,56,,,,,,,,,92.5,97.5,102.5,102.5,102.5,1,D
Mindy Filmore,46,F,Raw,F_MR_2_AAPF,89.5,90,,,,,,,,,85,90,97.5,97.5,97.5,1,D
Jim Jeurink,63,M,Multi-ply,M_MEM_5_APF,95.5,100,,,,,,,,,220,,,220,220,1,D
Maxwell Cook,26,M,Raw,M_OR_APF,87.2,90,,,,,,,,,227.5,235,-242.5,235,235,1,D
Lucas Wandyg,29,M,Raw,M_OR_APF,95.8,100,,,,,,,,,227.5,-252.5,-252.5,227.5,227.5,1,D
Noah O'Shinski,17,M,Raw,M_TCR_2_AAPF,88.9,90,,,,,,,,,160,182.5,-185,182.5,182.5,1,D
Triston Payseno,15,M,Single-ply,M_TES_1_AAPF,89.5,90,,,,,,,,,-157.5,157.5,170,170,170,1,D
Triston Payseno,15,M,Single-ply,M_TES_1_APF,89.5,90,,,,,,,,,-157.5,157.5,170,170,170,1,D
Justin Schlaack,16,M,Raw,M_TR_1_AAPF,120.7,125,,,,,,,,,217.5,225,232.5,232.5,232.5,1,D
Justin Schlaack,16,M,Raw,M_TR_1_APF,120.7,125,,,,,,,,,217.5,225,232.5,232.5,232.5,1,D
Michael Eerdmans,19,M,Raw,M_TR_3_APF,99.4,100,,,,,,,,,227.5,232.5,-240,232.5,232.5,1,D
Kayla Seeley,20,F,Raw,F_JR_APF,73.3,75,,,,,82.5,90,-95,90,,,,,90,1,B
Kathy Wetenhall,63,F,Multi-ply,F_MEM_5_AAPF,86.1,90,,,,,90,95,100,100,,,,,100,1,B
Kathy Wetenhall,63,F,Multi-ply,F_MEM_5_APF,86.1,90,,,,,90,95,100,100,,,,,100,1,B
Casie Dussia,42,F,Raw,F_MR_1_AAPF,55.3,56,,,,,42.5,-45,-45,42.5,,,,,42.5,1,B
Mindy Filmore,46,F,Raw,F_MR_2_AAPF,89.5,90,,,,,60,-62.5,-62.5,60,,,,,60,1,B
Lisa Jacobson,46,F,Raw,F_MR_2_APF,64.8,67.5,,,,,45,47.5,-55,47.5,,,,,47.5,1,B
Jennifer Gimmell,35,F,Multi-ply,F_OEM_AAPF,89.7,90,,,,,132.5,145,-152.5,145,,,,,145,1,B
Mondro Melissa,24,F,Raw,F_OR_AAPF,72.3,75,,,,,50,55,60,60,,,,,60,1,B
Jasmine Davis,24,F,Raw,F_OR_APF,122.1,90+,,,,,110,130,137.5,137.5,,,,,137.5,1,B
Josh Albo,20,M,Raw,M_JR_AAPF,105.7,110,,,,,170,182.5,-187.5,182.5,,,,,182.5,1,B
Thomas Kambers,20,M,Raw,M_JR_AAPF,108.9,110,,,,,165,-172.5,172.5,172.5,,,,,172.5,2,B
Steve Creedon,52,M,Multi-ply,M_MEM_3_APF,82,82.5,,,,,-175,-175,-182.5,,,,,,,DQ,B
Colin Kelly,51,M,Multi-ply,M_MEM_3_APF,114.4,125,,,,,205,-215,,205,,,,,205,1,B
Marvin Coleman,49,M,Single-ply,M_MES_2_APF,89.5,90,,,,,-275,-275,,,,,,,,DQ,B
Jim Wetenhall,62,M,Single-ply,M_MES_5_APF,124.6,125,,,,,162.5,-175,177.5,177.5,,,,,177.5,1,B
Bobby Body,42,M,Raw,M_MR_1_AAPF,79.7,82.5,,,,,165,180,-190,180,,,,,180,1,B
Scott Stadel,44,M,Raw,M_MR_1_AAPF,115,125,,,,,127.5,142.5,147.5,147.5,,,,,147.5,1,B
Bobby Body,42,M,Raw,M_MR_1_APF,79.7,82.5,,,,,165,180,-190,180,,,,,180,1,B
Aaron Brown,40,M,Raw,M_MR_1_APF,117.4,125,,,,,192.5,207.5,215,215,,,,,215,1,B
Rick Colwell,42,M,Raw,M_MR_1_APF,120,125,,,,,-70,70,,70,,,,,70,2,B
Robert Hensley,48,M,Raw,M_MR_2_AAPF,99.5,100,,,,,142.5,150,-155,150,,,,,150,1,B
Dan Schwab,48,M,Raw,M_MR_2_APF,96.9,100,,,,,160,172.5,-180,172.5,,,,,172.5,1,B
Robert Hensley,48,M,Raw,M_MR_2_APF,99.5,100,,,,,142.5,150,-155,150,,,,,150,2,B
Tony Albo,53,M,Raw,M_MR_3_AAPF,109,110,,,,,170,182.5,190,190,,,,,190,1,B
Tommy Hollingsworth,54,M,Raw,M_MR_3_APF,98.5,100,,,,,92.5,97.5,102.5,102.5,,,,,102.5,1,B
Bruce Edwards,58,M,Raw,M_MR_4_AAPF,121.8,125,,,,,170,180,185,185,,,,,185,1,B
Wally Stamper,55,M,Raw,M_MR_4_APF,106.9,110,,,,,150,162.5,172.5,172.5,,,,,172.5,1,B
Ben Mata,62,M,Raw,M_MR_5_APF,118.3,125,,,,,152.5,155,-160,155,,,,,155,1,B
Timothy Hensley,36,M,Multi-ply,M_OEM_AAPF,89.6,90,,,,,-377.5,-377.5,-377.5,,,,,,,DQ,B
Timothy Hensley,36,M,Multi-ply,M_OEM_APF,89.6,90,,,,,-377.5,-377.5,-377.5,,,,,,,DQ,B
Joe Fargo,38,M,Single-ply,M_OES_APF,89.6,90,,,,,-265,-265,-265,,,,,,,DQ,B
Bobby Body,42,M,Raw,M_OR_AAPF,79.7,82.5,,,,,165,180,-190,180,,,,,180,1,B
Cory Sly,27,M,Raw,M_OR_AAPF,122.3,125,,,,,165,172.5,182.5,182.5,,,,,182.5,1,B
Ryan McCollum,34,M,Raw,M_OR_AAPF,141,140+,,,,,152.5,162.5,172.5,172.5,,,,,172.5,1,B
Bobby Body,42,M,Raw,M_OR_APF,79.7,82.5,,,,,165,180,-190,180,,,,,180,1,B
Jory Kurkjian,26,M,Raw,M_OR_APF,88.1,90,,,,,187.5,197.5,215,215,,,,,215,1,B
Matthew Schwab,30,M,Raw,M_OR_APF,89,90,,,,,157.5,172.5,-180,172.5,,,,,172.5,2,B
Brandon Gillie,28,M,Raw,M_OR_APF,109.9,110,,,,,112.5,117.5,120,120,,,,,120,1,B
Tony Seatts,32,M,Raw,M_OR_APF,138.6,140,,,,,210,220,230,230,,,,,230,1,B
Jason Jaruzel,38,M,Raw,M_SR_AAPF,106.9,110,,,,,155,165,-175,165,,,,,165,1,B
Ryan McCollum,34,M,Raw,M_SR_AAPF,141,140+,,,,,152.5,162.5,172.5,172.5,,,,,172.5,1,B
Justin Schlaack,16,M,Raw,M_TR_1_AAPF,120.7,125,,,,,107.5,117.5,-130,117.5,,,,,117.5,1,B
Justin Schlaack,16,M,Raw,M_TR_1_APF,120.7,125,,,,,107.5,117.5,-130,117.5,,,,,117.5,1,B
Trevor Bryant,19,M,Raw,M_TR_3_APF,101.1,110,,,,,210,215,225,225,,,,,225,1,B
Alexandria Causley,23,F,Raw,F_JR_AAPF,98.9,90+,,,,,67.5,75,-82.5,75,125,137.5,147.5,147.5,222.5,1,BD
Tiffany Foss,44,F,Raw,F_MR_1_APF,58.4,60,,,,,57.5,62.5,-67.5,62.5,102.5,112.5,120,120,182.5,1,BD
Missy Mapes,58,F,Raw,F_MR_4_AAPF,59.3,60,,,,,42.5,-47.5,-50,42.5,102.5,-110,-112.5,102.5,145,1,BD
Shamaine McVay,35,F,Raw,F_OCR_AAPF,71.9,75,,,,,60,65,-75,65,145,155,160,160,225,1,BD
Shamaine McVay,35,F,Raw,F_OCR_APF,71.9,75,,,,,60,65,-75,65,145,155,160,160,225,1,BD
Natalie Abrhiem,27,F,Raw,F_OR_AAPF,49.7,52,,,,,45,50,-55,50,95,102.5,115,115,165,1,BD
Shawna Smith,38,F,Raw,F_SCR_APF,78.9,82.5,,,,,65,72.5,-80,72.5,102.5,112.5,122.5,122.5,195,1,BD
Darienne Coffell,17,F,Raw,F_TR_2_AAPF,71.2,75,,,,,52.5,57.5,-62.5,57.5,105,112.5,120,120,177.5,1,BD
Emma de Boer,17,F,Raw,F_TR_2_AAPF,77.4,82.5,,,,,40,50,-57.5,50,77.5,92.5,100,100,150,1,BD
Darienne Coffell,17,F,Raw,F_TR_2_APF,71.2,75,,,,,52.5,57.5,-62.5,57.5,105,112.5,120,120,177.5,1,BD
Alexander Bowden,21,M,Raw,M_JR_AAPF,66.8,67.5,,,,,72.5,77.5,-82.5,77.5,127.5,-140,142.5,142.5,220,1,BD
Timothy Sizemore,20,M,Raw,M_JR_APF,72.5,75,,,,,92.5,100,110,110,175,182.5,-192.5,182.5,292.5,1,BD
Blake Richards,22,M,Raw,M_JR_APF,87.7,90,,,,,125,140,147.5,147.5,232.5,242.5,252.5,252.5,400,1,BD
Brian Dorsey,47,M,Raw,M_MCR_2_APF,105.7,110,,,,,182.5,-185,,182.5,-237.5,,,,,DQ,BD
Rick Colwell,42,M,Raw,M_MR_1_APF,120,125,,,,,-70,70,,70,205,-227.5,227.5,227.5,297.5,1,BD
Tyrone Ward,55,M,Raw,M_MR_4_AAPF,99,100,,,,,125,-135,-135,125,250,-260,,250,375,1,BD
Todd Ellens,30,M,Raw,M_OR_AAPF,118.9,125,,,,,157.5,-167.5,-167.5,157.5,175,187.5,205,205,362.5,1,BD
Jeremy Ranger,24,M,Raw,M_OR_APF,88.3,90,,,,,137.5,140,142.5,142.5,185,205,227.5,227.5,370,1,BD
Chris Giffel,30,M,Raw,M_OR_APF,108.2,110,,,,,117.5,122.5,-127.5,122.5,182.5,-205,-215,182.5,305,1,BD
