Division,WeightClassKg,Place,Name,Team,BodyweightKg,Best3SquatKg,Best3BenchKg,Best3DeadliftKg,TotalKg,Equipment,Event,Sex
Boys,51.71,1,Matthew Palmer,Bonham,51.44,120.2,70.31,147.42,337.93,Single-ply,SBD,M
Boys,51.71,2,Kenneth Dodson,Pottsboro,49.35,124.74,74.84,102.06,301.64,Single-ply,SBD,M
Boys,51.71,3,Jorge Solano,Bonham,51.62,97.52,47.63,108.86,254.01,Single-ply,SBD,M
Boys,51.71,4,Bailey Belcher,Gunter,50.17,81.65,56.7,102.06,240.4,Single-ply,SBD,M
Boys,51.71,5,Christian Reynolds,Tom Bean,43.18,77.11,36.29,77.11,190.51,Single-ply,SBD,M
Boys,55.79,1,Kolby Parker,Pottsboro,55.07,120.2,83.91,104.33,308.44,Single-ply,SBD,M
Boys,55.79,DQ,Michael Cox,Pilot Point,53.34,97.52,,,,Single-ply,SBD,M
Boys,59.87,1,Stephen Nelson,Pottsboro,58.42,174.63,102.06,176.9,453.59,Single-ply,SBD,M
Boys,67.13,2,Jacob Kemp,Bonham,60.06,138.35,74.84,149.69,362.87,Single-ply,SBD,M
Boys,59.87,3,Sebastian Guerra,Pilot Point,57.88,124.74,74.84,131.54,331.12,Single-ply,SBD,M
Boys,59.87,4,Tyler Williams,Aubrey,57.15,117.93,54.43,120.2,292.57,Single-ply,SBD,M
Boys,59.87,5,Brock Shields,Tom Bean,56.47,70.31,58.97,104.33,233.6,Single-ply,SBD,M
Boys,74.84,1,Garrett Seifert,Pottsboro,67.31,215.46,113.4,199.58,528.44,Single-ply,SBD,M
Boys,74.84,2,Eric Rodriguez,Aubrey,67.22,192.78,106.59,195.04,494.42,Single-ply,SBD,M
Boys,67.13,3,Jordan Smith,Bonham,63.96,183.7,90.72,201.85,476.27,Single-ply,SBD,M
Boys,67.13,4,Kyle Garner,Gunter,66.22,161.03,106.59,172.37,439.98,Single-ply,SBD,M
Boys,67.13,5,Mason Thompson,Whitewright,64.86,181.44,92.99,163.29,437.72,Single-ply,SBD,M
Boys,67.13,6,Spencer Tilley,Pilot Point,64.95,163.29,106.59,165.56,435.45,Single-ply,SBD,M
Boys,67.13,7,Luke Parrish,Tom Bean,66.04,163.29,102.06,170.1,435.45,Single-ply,SBD,M
Boys,67.13,8,Stephen Steele,Pottsboro,64.05,165.56,104.33,158.76,428.64,Single-ply,SBD,M
Boys,67.13,9,Ramon Fierro,Howe,65.68,142.88,65.77,158.76,367.41,Single-ply,SBD,M
Boys,67.13,10,Ty Watson,Howe,62.51,120.2,90.72,140.61,351.53,Single-ply,SBD,M
Boys,67.13,11,Chris Prosser,Gunter,62.87,133.81,92.99,120.2,347,Single-ply,SBD,M
Boys,67.13,12,Tristan Coglon,Bells,61.69,129.27,70.31,138.35,337.93,Single-ply,SBD,M
Boys,67.13,13,Charlie Radford,Aubrey,62.78,111.13,72.57,154.22,337.93,Single-ply,SBD,M
Boys,67.13,14,Robert Delatorre,Aubrey,63.5,115.67,83.91,136.08,335.66,Single-ply,SBD,M
Boys,67.13,15,Stormy Box,Pilot Point,60.78,106.59,83.91,142.88,333.39,Single-ply,SBD,M
Boys,67.13,16,Nick Apperson,Aubrey,63.68,104.33,54.43,104.33,263.08,Single-ply,SBD,M
Boys,74.84,1,Daniel Grubbs,Collinsville,69.85,208.65,124.74,183.7,517.1,Single-ply,SBD,M
Boys,74.84,2,Joaquin Lopez,Howe,68.67,181.44,97.52,163.29,442.25,Single-ply,SBD,M
Boys,74.84,3,Aaron Decker,Whitewright,70.67,145.15,97.52,161.03,403.7,Single-ply,SBD,M
Boys,74.84,4,Kenan Holden,Pottsboro,70.31,158.76,83.91,158.76,401.43,Single-ply,SBD,M
Boys,74.84,5,Elijah Walker,Lindsay,74.48,147.42,111.13,142.88,401.43,Single-ply,SBD,M
Boys,74.84,6,Jarrett Wilson,Pilot Point,71.21,142.88,111.13,131.54,385.55,Single-ply,SBD,M
Boys,74.84,7,Ron Jasterzinski,Bonham,69.22,147.42,81.65,151.95,381.02,Single-ply,SBD,M
Boys,74.84,8,Craig Wood,Whitewright,74.12,138.35,88.45,154.22,381.02,Single-ply,SBD,M
Boys,74.84,9,Hunter Shaw,Howe,70.49,142.88,77.11,149.69,369.68,Single-ply,SBD,M
Boys,74.84,10,Caleb Hill,Bonham,74.57,145.15,70.31,140.61,356.07,Single-ply,SBD,M
Boys,74.84,11,Garrett McLean,Bells,73.39,133.81,72.57,140.61,347,Single-ply,SBD,M
Boys,74.84,12,Brandon Price,Pilot Point,69.94,129.27,74.84,129.27,333.39,Single-ply,SBD,M
Boys,74.84,13,Ethan Mitchell,Whitewright,70.76,122.47,77.11,117.93,317.51,Single-ply,SBD,M
Boys,74.84,14,Brady Smith,Howe,71.67,90.72,70.31,142.88,303.91,Single-ply,SBD,M
Boys,74.84,15,Bret Shields,Tom Bean,69.67,79.38,56.7,108.86,244.94,Single-ply,SBD,M
Boys,82.1,1,Levi Haggard,Bonham,81.65,233.6,127.01,217.72,578.33,Single-ply,SBD,M
Boys,89.81,2,Jon Groff,Pilot Point,82.19,174.63,124.74,174.63,474,Single-ply,SBD,M
Boys,82.1,3,Kenton Manis,Bonham,81.01,185.97,83.91,188.24,458.13,Single-ply,SBD,M
Boys,82.1,4,Trey Hodge,Tom Bean,79.74,170.1,111.13,165.56,446.79,Single-ply,SBD,M
Boys,82.1,5,Jimmy Gill,Pottsboro,79.65,174.63,113.4,142.88,430.91,Single-ply,SBD,M
Boys,82.1,6,Sam Heath,Aubrey,78.74,136.08,95.25,149.69,381.02,Single-ply,SBD,M
Boys,82.1,7,Brady Taraba,Whitewright,80.74,133.81,77.11,127.01,337.93,Single-ply,SBD,M
Boys,82.1,8,Ruben Cano,Whitewright,77.75,117.93,79.38,136.08,333.39,Single-ply,SBD,M
Boys,82.1,9,Phillip Heintze,Whitewright,76.02,124.74,81.65,120.2,326.59,Single-ply,SBD,M
Boys,82.1,DQ,Dalton Scott,Pilot Point,78.02,163.29,,149.69,,Single-ply,SBD,M
Boys,82.1,DQ,Dexter Loza,Aubrey,80.38,147.42,,,,Single-ply,SBD,M
Boys,89.81,1,Dakota Barnes,Bonham,88.41,215.46,108.86,235.87,560.19,Single-ply,SBD,M
Boys,89.81,2,Stryker Hunnicutt,Bonham,88.72,195.04,113.4,222.26,530.7,Single-ply,SBD,M
Boys,89.81,3,Dylan House,Pottsboro,88.9,204.12,117.93,204.12,526.17,Single-ply,SBD,M
Boys,89.81,4,Alex Lovelady,Pottsboro,89.18,204.12,113.4,195.04,512.56,Single-ply,SBD,M
Boys,89.81,5,Alex Gibbs,Pilot Point,83.64,129.27,74.84,142.88,347,Single-ply,SBD,M
Boys,89.81,6,Clay Stephens,Bonham,89.72,104.33,63.5,136.08,303.91,Single-ply,SBD,M
Boys,89.81,DQ,Nick Rose,Lindsay,84.64,124.74,,,,Single-ply,SBD,M
Boys,89.81,DQ,Ryon Montgomery,Whitewright,89.09,115.67,,,,Single-ply,SBD,M
Boys,99.79,1,Eduardo Webber,Howe,93.35,263.08,154.22,226.8,644.1,Single-ply,SBD,M
Boys,99.79,2,Dawson Stewart,Howe,96.07,181.44,113.4,210.92,505.76,Single-ply,SBD,M
Boys,99.79,3,Grant McLean,Bells,92.99,183.7,104.33,183.7,471.74,Single-ply,SBD,M
Boys,99.79,4,Adam Neal,Bells,99.25,181.44,124.74,151.95,458.13,Single-ply,SBD,M
Boys,99.79,5,Dustin Dean,Tom Bean,98.97,154.22,95.25,142.88,392.36,Single-ply,SBD,M
Boys,109.77,6,Kyle Johnson,Gunter,99.97,92.99,61.23,136.08,290.3,Single-ply,SBD,M
Boys,99.79,DQ,Jacob Orton,Aubrey,91.26,136.08,,,,Single-ply,SBD,M
Boys,109.77,1,Billy Doyle,Pottsboro,101.88,192.78,102.06,176.9,471.74,Single-ply,SBD,M
Boys,109.77,2,David Lawson,Tom Bean,105.05,188.24,115.67,151.95,455.86,Single-ply,SBD,M
Boys,109.77,DQ,Riley Stottle,Pilot Point,109.77,,170.1,,,Single-ply,SBD,M
Boys,124.74,1,Jacob Johnson,Aubrey,111.22,170.1,102.06,217.72,489.88,Single-ply,SBD,M
Boys,124.74,2,Tyler Edwards,Pottsboro,114.21,174.63,111.13,183.7,469.47,Single-ply,SBD,M
Boys,124.74,3,Weston Osterman,Aubrey,114.03,142.88,102.06,158.76,403.7,Single-ply,SBD,M
Boys,124.74,DQ,Jorge Ang,Pilot Point,120.2,213.19,,183.7,,Single-ply,SBD,M
